%!PS-Adobe-3.0 EPSF-3.0
%%Creator: (MATLAB, The Mathworks, Inc. Version 9.11.0.1769968 \(R2021b\). Operating System: Linux)
%%Title: ./forwardVelAfterAdjust.eps
%%CreationDate: 2022-03-11T18:41:07
%%Pages: (atend)
%%BoundingBox:    23     4   382   304
%%LanguageLevel: 3
%%EndComments
%%BeginProlog
%%BeginResource: procset (Apache XML Graphics Std ProcSet) 1.2 0
%%Version: 1.2 0
%%Copyright: (Copyright 2001-2003,2010 The Apache Software Foundation. License terms: http://www.apache.org/licenses/LICENSE-2.0)
/bd{bind def}bind def
/ld{load def}bd
/GR/grestore ld
/GS/gsave ld
/RM/rmoveto ld
/C/curveto ld
/t/show ld
/L/lineto ld
/ML/setmiterlimit ld
/CT/concat ld
/f/fill ld
/N/newpath ld
/S/stroke ld
/CC/setcmykcolor ld
/A/ashow ld
/cp/closepath ld
/RC/setrgbcolor ld
/LJ/setlinejoin ld
/GC/setgray ld
/LW/setlinewidth ld
/M/moveto ld
/re {4 2 roll M
1 index 0 rlineto
0 exch rlineto
neg 0 rlineto
cp } bd
/_ctm matrix def
/_tm matrix def
/BT { _ctm currentmatrix pop matrix _tm copy pop 0 0 moveto } bd
/ET { _ctm setmatrix } bd
/iTm { _ctm setmatrix _tm concat } bd
/Tm { _tm astore pop iTm 0 0 moveto } bd
/ux 0.0 def
/uy 0.0 def
/F {
  /Tp exch def
  /Tf exch def
  Tf findfont Tp scalefont setfont
  /cf Tf def  /cs Tp def
} bd
/ULS {currentpoint /uy exch def /ux exch def} bd
/ULE {
  /Tcx currentpoint pop def
  gsave
  newpath
  cf findfont cs scalefont dup
  /FontMatrix get 0 get /Ts exch def /FontInfo get dup
  /UnderlinePosition get Ts mul /To exch def
  /UnderlineThickness get Ts mul /Tt exch def
  ux uy To add moveto  Tcx uy To add lineto
  Tt setlinewidth stroke
  grestore
} bd
/OLE {
  /Tcx currentpoint pop def
  gsave
  newpath
  cf findfont cs scalefont dup
  /FontMatrix get 0 get /Ts exch def /FontInfo get dup
  /UnderlinePosition get Ts mul /To exch def
  /UnderlineThickness get Ts mul /Tt exch def
  ux uy To add cs add moveto Tcx uy To add cs add lineto
  Tt setlinewidth stroke
  grestore
} bd
/SOE {
  /Tcx currentpoint pop def
  gsave
  newpath
  cf findfont cs scalefont dup
  /FontMatrix get 0 get /Ts exch def /FontInfo get dup
  /UnderlinePosition get Ts mul /To exch def
  /UnderlineThickness get Ts mul /Tt exch def
  ux uy To add cs 10 mul 26 idiv add moveto Tcx uy To add cs 10 mul 26 idiv add lineto
  Tt setlinewidth stroke
  grestore
} bd
/QT {
/Y22 exch store
/X22 exch store
/Y21 exch store
/X21 exch store
currentpoint
/Y21 load 2 mul add 3 div exch
/X21 load 2 mul add 3 div exch
/X21 load 2 mul /X22 load add 3 div
/Y21 load 2 mul /Y22 load add 3 div
/X22 load /Y22 load curveto
} bd
/SSPD {
dup length /d exch dict def
{
/v exch def
/k exch def
currentpagedevice k known {
/cpdv currentpagedevice k get def
v cpdv ne {
/upd false def
/nullv v type /nulltype eq def
/nullcpdv cpdv type /nulltype eq def
nullv nullcpdv or
{
/upd true def
} {
/sametype v type cpdv type eq def
sametype {
v type /arraytype eq {
/vlen v length def
/cpdvlen cpdv length def
vlen cpdvlen eq {
0 1 vlen 1 sub {
/i exch def
/obj v i get def
/cpdobj cpdv i get def
obj cpdobj ne {
/upd true def
exit
} if
} for
} {
/upd true def
} ifelse
} {
v type /dicttype eq {
v {
/dv exch def
/dk exch def
/cpddv cpdv dk get def
dv cpddv ne {
/upd true def
exit
} if
} forall
} {
/upd true def
} ifelse
} ifelse
} if
} ifelse
upd true eq {
d k v put
} if
} if
} if
} forall
d length 0 gt {
d setpagedevice
} if
} bd
/RE { % /NewFontName [NewEncodingArray] /FontName RE -
  findfont dup length dict begin
  {
    1 index /FID ne
    {def} {pop pop} ifelse
  } forall
  /Encoding exch def
  /FontName 1 index def
  currentdict definefont pop
  end
} bind def
%%EndResource
%%BeginResource: procset (Apache XML Graphics EPS ProcSet) 1.0 0
%%Version: 1.0 0
%%Copyright: (Copyright 2002-2003 The Apache Software Foundation. License terms: http://www.apache.org/licenses/LICENSE-2.0)
/BeginEPSF { %def
/b4_Inc_state save def         % Save state for cleanup
/dict_count countdictstack def % Count objects on dict stack
/op_count count 1 sub def      % Count objects on operand stack
userdict begin                 % Push userdict on dict stack
/showpage { } def              % Redefine showpage, { } = null proc
0 setgray 0 setlinecap         % Prepare graphics state
1 setlinewidth 0 setlinejoin
10 setmiterlimit [ ] 0 setdash newpath
/languagelevel where           % If level not equal to 1 then
{pop languagelevel             % set strokeadjust and
1 ne                           % overprint to their defaults.
{false setstrokeadjust false setoverprint
} if
} if
} bd
/EndEPSF { %def
count op_count sub {pop} repeat            % Clean up stacks
countdictstack dict_count sub {end} repeat
b4_Inc_state restore
} bd
%%EndResource
%FOPBeginFontDict
%%IncludeResource: font Courier-Oblique
%%IncludeResource: font Courier-BoldOblique
%%IncludeResource: font Courier-Bold
%%IncludeResource: font ZapfDingbats
%%IncludeResource: font Symbol
%%IncludeResource: font Helvetica
%%IncludeResource: font Helvetica-Oblique
%%IncludeResource: font Helvetica-Bold
%%IncludeResource: font Helvetica-BoldOblique
%%IncludeResource: font Times-Roman
%%IncludeResource: font Times-Italic
%%IncludeResource: font Times-Bold
%%IncludeResource: font Times-BoldItalic
%%IncludeResource: font Courier
%FOPEndFontDict
%%BeginResource: encoding WinAnsiEncoding
/WinAnsiEncoding [
/.notdef /.notdef /.notdef /.notdef /.notdef
/.notdef /.notdef /.notdef /.notdef /.notdef
/.notdef /.notdef /.notdef /.notdef /.notdef
/.notdef /.notdef /.notdef /.notdef /.notdef
/.notdef /.notdef /.notdef /.notdef /.notdef
/.notdef /.notdef /.notdef /.notdef /.notdef
/.notdef /.notdef /space /exclam /quotedbl
/numbersign /dollar /percent /ampersand /quotesingle
/parenleft /parenright /asterisk /plus /comma
/hyphen /period /slash /zero /one
/two /three /four /five /six
/seven /eight /nine /colon /semicolon
/less /equal /greater /question /at
/A /B /C /D /E
/F /G /H /I /J
/K /L /M /N /O
/P /Q /R /S /T
/U /V /W /X /Y
/Z /bracketleft /backslash /bracketright /asciicircum
/underscore /quoteleft /a /b /c
/d /e /f /g /h
/i /j /k /l /m
/n /o /p /q /r
/s /t /u /v /w
/x /y /z /braceleft /bar
/braceright /asciitilde /bullet /Euro /bullet
/quotesinglbase /florin /quotedblbase /ellipsis /dagger
/daggerdbl /circumflex /perthousand /Scaron /guilsinglleft
/OE /bullet /Zcaron /bullet /bullet
/quoteleft /quoteright /quotedblleft /quotedblright /bullet
/endash /emdash /asciitilde /trademark /scaron
/guilsinglright /oe /bullet /zcaron /Ydieresis
/space /exclamdown /cent /sterling /currency
/yen /brokenbar /section /dieresis /copyright
/ordfeminine /guillemotleft /logicalnot /sfthyphen /registered
/macron /degree /plusminus /twosuperior /threesuperior
/acute /mu /paragraph /middot /cedilla
/onesuperior /ordmasculine /guillemotright /onequarter /onehalf
/threequarters /questiondown /Agrave /Aacute /Acircumflex
/Atilde /Adieresis /Aring /AE /Ccedilla
/Egrave /Eacute /Ecircumflex /Edieresis /Igrave
/Iacute /Icircumflex /Idieresis /Eth /Ntilde
/Ograve /Oacute /Ocircumflex /Otilde /Odieresis
/multiply /Oslash /Ugrave /Uacute /Ucircumflex
/Udieresis /Yacute /Thorn /germandbls /agrave
/aacute /acircumflex /atilde /adieresis /aring
/ae /ccedilla /egrave /eacute /ecircumflex
/edieresis /igrave /iacute /icircumflex /idieresis
/eth /ntilde /ograve /oacute /ocircumflex
/otilde /odieresis /divide /oslash /ugrave
/uacute /ucircumflex /udieresis /yacute /thorn
/ydieresis
] def
%%EndResource
%FOPBeginFontReencode
/Courier-Oblique findfont
dup length dict begin
  {1 index /FID ne {def} {pop pop} ifelse} forall
  /Encoding WinAnsiEncoding def
  currentdict
end
/Courier-Oblique exch definefont pop
/Courier-BoldOblique findfont
dup length dict begin
  {1 index /FID ne {def} {pop pop} ifelse} forall
  /Encoding WinAnsiEncoding def
  currentdict
end
/Courier-BoldOblique exch definefont pop
/Courier-Bold findfont
dup length dict begin
  {1 index /FID ne {def} {pop pop} ifelse} forall
  /Encoding WinAnsiEncoding def
  currentdict
end
/Courier-Bold exch definefont pop
/Helvetica findfont
dup length dict begin
  {1 index /FID ne {def} {pop pop} ifelse} forall
  /Encoding WinAnsiEncoding def
  currentdict
end
/Helvetica exch definefont pop
/Helvetica-Oblique findfont
dup length dict begin
  {1 index /FID ne {def} {pop pop} ifelse} forall
  /Encoding WinAnsiEncoding def
  currentdict
end
/Helvetica-Oblique exch definefont pop
/Helvetica-Bold findfont
dup length dict begin
  {1 index /FID ne {def} {pop pop} ifelse} forall
  /Encoding WinAnsiEncoding def
  currentdict
end
/Helvetica-Bold exch definefont pop
/Helvetica-BoldOblique findfont
dup length dict begin
  {1 index /FID ne {def} {pop pop} ifelse} forall
  /Encoding WinAnsiEncoding def
  currentdict
end
/Helvetica-BoldOblique exch definefont pop
/Times-Roman findfont
dup length dict begin
  {1 index /FID ne {def} {pop pop} ifelse} forall
  /Encoding WinAnsiEncoding def
  currentdict
end
/Times-Roman exch definefont pop
/Times-Italic findfont
dup length dict begin
  {1 index /FID ne {def} {pop pop} ifelse} forall
  /Encoding WinAnsiEncoding def
  currentdict
end
/Times-Italic exch definefont pop
/Times-Bold findfont
dup length dict begin
  {1 index /FID ne {def} {pop pop} ifelse} forall
  /Encoding WinAnsiEncoding def
  currentdict
end
/Times-Bold exch definefont pop
/Times-BoldItalic findfont
dup length dict begin
  {1 index /FID ne {def} {pop pop} ifelse} forall
  /Encoding WinAnsiEncoding def
  currentdict
end
/Times-BoldItalic exch definefont pop
/Courier findfont
dup length dict begin
  {1 index /FID ne {def} {pop pop} ifelse} forall
  /Encoding WinAnsiEncoding def
  currentdict
end
/Courier exch definefont pop
%FOPEndFontReencode
%%EndProlog
%%Page: 1 1
%%PageBoundingBox: 0 0 420 315
%%BeginPageSetup
[1 0 0 -1 0 315] CT
%%EndPageSetup
GS
[0.46154 0 0 0.46154 0 0.23077] CT
N
0 0 M
910 0 L
910 682 L
0 682 L
0 0 L
cp
clip
1 GC
N
0 0 910 682 re
f
GR
GS
[0.46154 0 0 0.46154 0 0.23077] CT
1 GC
N
0 0 910 682 re
f
GR
GS
[0.46154 0 0 0.46154 0 0.23077] CT
1 GC
N
118 607 M
824 607 L
824 51 L
118 51 L
cp
f
GR
GS
[0.46154 0 0 0.46154 0 0.23077] CT
0.149 GC
2 setlinecap
1 LJ
1.083 LW
N
118 607 M
824 607 L
S
GR
GS
[0.46154 0 0 0.46154 0 0.23077] CT
0.149 GC
2 setlinecap
1 LJ
1.083 LW
N
118 51 M
824 51 L
S
GR
GS
[0.46154 0 0 0.46154 0 0.23077] CT
0.149 GC
2 setlinecap
1 LJ
1.083 LW
N
118 607 M
118 599.94 L
S
GR
GS
[0.46154 0 0 0.46154 0 0.23077] CT
0.149 GC
2 setlinecap
1 LJ
1.083 LW
N
240.252 607 M
240.252 599.94 L
S
GR
GS
[0.46154 0 0 0.46154 0 0.23077] CT
0.149 GC
2 setlinecap
1 LJ
1.083 LW
N
362.504 607 M
362.504 599.94 L
S
GR
GS
[0.46154 0 0 0.46154 0 0.23077] CT
0.149 GC
2 setlinecap
1 LJ
1.083 LW
N
484.756 607 M
484.756 599.94 L
S
GR
GS
[0.46154 0 0 0.46154 0 0.23077] CT
0.149 GC
2 setlinecap
1 LJ
1.083 LW
N
607.008 607 M
607.008 599.94 L
S
GR
GS
[0.46154 0 0 0.46154 0 0.23077] CT
0.149 GC
2 setlinecap
1 LJ
1.083 LW
N
729.26 607 M
729.26 599.94 L
S
GR
GS
[0.46154 0 0 0.46154 0 0.23077] CT
0.149 GC
2 setlinecap
1 LJ
1.083 LW
N
118 51 M
118 58.06 L
S
GR
GS
[0.46154 0 0 0.46154 0 0.23077] CT
0.149 GC
2 setlinecap
1 LJ
1.083 LW
N
240.252 51 M
240.252 58.06 L
S
GR
GS
[0.46154 0 0 0.46154 0 0.23077] CT
0.149 GC
2 setlinecap
1 LJ
1.083 LW
N
362.504 51 M
362.504 58.06 L
S
GR
GS
[0.46154 0 0 0.46154 0 0.23077] CT
0.149 GC
2 setlinecap
1 LJ
1.083 LW
N
484.756 51 M
484.756 58.06 L
S
GR
GS
[0.46154 0 0 0.46154 0 0.23077] CT
0.149 GC
2 setlinecap
1 LJ
1.083 LW
N
607.008 51 M
607.008 58.06 L
S
GR
GS
[0.46154 0 0 0.46154 0 0.23077] CT
0.149 GC
2 setlinecap
1 LJ
1.083 LW
N
729.26 51 M
729.26 58.06 L
S
GR
GS
[0.46154 0 0 0.46154 54.46154 284.38463] CT
0.149 GC
/Helvetica 21.667 F
GS
[1 0 0 1 0 0] CT
-7 21 moveto 
1 -1 scale
(0) t 
GR
GR
GS
[0.46154 0 0 0.46154 110.88553 284.38463] CT
0.149 GC
/Helvetica 21.667 F
GS
[1 0 0 1 0 0] CT
-21 21 moveto 
1 -1 scale
(200) t 
GR
GR
GS
[0.46154 0 0 0.46154 167.30952 284.38463] CT
0.149 GC
/Helvetica 21.667 F
GS
[1 0 0 1 0 0] CT
-21 21 moveto 
1 -1 scale
(400) t 
GR
GR
GS
[0.46154 0 0 0.46154 223.73352 284.38463] CT
0.149 GC
/Helvetica 21.667 F
GS
[1 0 0 1 0 0] CT
-21 21 moveto 
1 -1 scale
(600) t 
GR
GR
GS
[0.46154 0 0 0.46154 280.15751 284.38463] CT
0.149 GC
/Helvetica 21.667 F
GS
[1 0 0 1 0 0] CT
-21 21 moveto 
1 -1 scale
(800) t 
GR
GR
GS
[0.46154 0 0 0.46154 336.58149 284.38463] CT
0.149 GC
/Helvetica 21.667 F
GS
[1 0 0 1 0 0] CT
-28 21 moveto 
1 -1 scale
(1000) t 
GR
GR
GS
[0.46154 0 0 0.46154 217.38478 297.84614] CT
0.149 GC
/Helvetica 23.833 F
GS
[1 0 0 1 0 0] CT
-143.5 23 moveto 
1 -1 scale
(Time Elapsed \(Seconds\)) t 
GR
GR
GS
[0.46154 0 0 0.46154 0 0.23077] CT
0.149 GC
2 setlinecap
1 LJ
1.083 LW
N
118 607 M
118 51 L
S
GR
GS
[0.46154 0 0 0.46154 0 0.23077] CT
0.149 GC
2 setlinecap
1 LJ
1.083 LW
N
824 607 M
824 51 L
S
GR
GS
[0.46154 0 0 0.46154 0 0.23077] CT
0.149 GC
2 setlinecap
1 LJ
1.083 LW
N
118 607 M
125.06 607 L
S
GR
GS
[0.46154 0 0 0.46154 0 0.23077] CT
0.149 GC
2 setlinecap
1 LJ
1.083 LW
N
118 551.764 M
125.06 551.764 L
S
GR
GS
[0.46154 0 0 0.46154 0 0.23077] CT
0.149 GC
2 setlinecap
1 LJ
1.083 LW
N
118 496.527 M
125.06 496.527 L
S
GR
GS
[0.46154 0 0 0.46154 0 0.23077] CT
0.149 GC
2 setlinecap
1 LJ
1.083 LW
N
118 441.291 M
125.06 441.291 L
S
GR
GS
[0.46154 0 0 0.46154 0 0.23077] CT
0.149 GC
2 setlinecap
1 LJ
1.083 LW
N
118 386.055 M
125.06 386.055 L
S
GR
GS
[0.46154 0 0 0.46154 0 0.23077] CT
0.149 GC
2 setlinecap
1 LJ
1.083 LW
N
118 330.819 M
125.06 330.819 L
S
GR
GS
[0.46154 0 0 0.46154 0 0.23077] CT
0.149 GC
2 setlinecap
1 LJ
1.083 LW
N
118 275.582 M
125.06 275.582 L
S
GR
GS
[0.46154 0 0 0.46154 0 0.23077] CT
0.149 GC
2 setlinecap
1 LJ
1.083 LW
N
118 220.346 M
125.06 220.346 L
S
GR
GS
[0.46154 0 0 0.46154 0 0.23077] CT
0.149 GC
2 setlinecap
1 LJ
1.083 LW
N
118 165.11 M
125.06 165.11 L
S
GR
GS
[0.46154 0 0 0.46154 0 0.23077] CT
0.149 GC
2 setlinecap
1 LJ
1.083 LW
N
118 109.873 M
125.06 109.873 L
S
GR
GS
[0.46154 0 0 0.46154 0 0.23077] CT
0.149 GC
2 setlinecap
1 LJ
1.083 LW
N
118 54.637 M
125.06 54.637 L
S
GR
GS
[0.46154 0 0 0.46154 0 0.23077] CT
0.149 GC
2 setlinecap
1 LJ
1.083 LW
N
824 607 M
816.94 607 L
S
GR
GS
[0.46154 0 0 0.46154 0 0.23077] CT
0.149 GC
2 setlinecap
1 LJ
1.083 LW
N
824 551.764 M
816.94 551.764 L
S
GR
GS
[0.46154 0 0 0.46154 0 0.23077] CT
0.149 GC
2 setlinecap
1 LJ
1.083 LW
N
824 496.527 M
816.94 496.527 L
S
GR
GS
[0.46154 0 0 0.46154 0 0.23077] CT
0.149 GC
2 setlinecap
1 LJ
1.083 LW
N
824 441.291 M
816.94 441.291 L
S
GR
GS
[0.46154 0 0 0.46154 0 0.23077] CT
0.149 GC
2 setlinecap
1 LJ
1.083 LW
N
824 386.055 M
816.94 386.055 L
S
GR
GS
[0.46154 0 0 0.46154 0 0.23077] CT
0.149 GC
2 setlinecap
1 LJ
1.083 LW
N
824 330.819 M
816.94 330.819 L
S
GR
GS
[0.46154 0 0 0.46154 0 0.23077] CT
0.149 GC
2 setlinecap
1 LJ
1.083 LW
N
824 275.582 M
816.94 275.582 L
S
GR
GS
[0.46154 0 0 0.46154 0 0.23077] CT
0.149 GC
2 setlinecap
1 LJ
1.083 LW
N
824 220.346 M
816.94 220.346 L
S
GR
GS
[0.46154 0 0 0.46154 0 0.23077] CT
0.149 GC
2 setlinecap
1 LJ
1.083 LW
N
824 165.11 M
816.94 165.11 L
S
GR
GS
[0.46154 0 0 0.46154 0 0.23077] CT
0.149 GC
2 setlinecap
1 LJ
1.083 LW
N
824 109.873 M
816.94 109.873 L
S
GR
GS
[0.46154 0 0 0.46154 0 0.23077] CT
0.149 GC
2 setlinecap
1 LJ
1.083 LW
N
824 54.637 M
816.94 54.637 L
S
GR
GS
[0.46154 0 0 0.46154 50.46154 280.38462] CT
0.149 GC
/Helvetica 21.667 F
GS
[1 0 0 1 0 0] CT
-14 7.5 moveto 
1 -1 scale
(0) t 
GR
GR
GS
[0.46154 0 0 0.46154 50.46154 254.89095] CT
0.149 GC
/Helvetica 21.667 F
GS
[1 0 0 1 0 0] CT
-14 7.5 moveto 
1 -1 scale
(2) t 
GR
GR
GS
[0.46154 0 0 0.46154 50.46154 229.39728] CT
0.149 GC
/Helvetica 21.667 F
GS
[1 0 0 1 0 0] CT
-14 7.5 moveto 
1 -1 scale
(4) t 
GR
GR
GS
[0.46154 0 0 0.46154 50.46154 203.9036] CT
0.149 GC
/Helvetica 21.667 F
GS
[1 0 0 1 0 0] CT
-14 7.5 moveto 
1 -1 scale
(6) t 
GR
GR
GS
[0.46154 0 0 0.46154 50.46154 178.40993] CT
0.149 GC
/Helvetica 21.667 F
GS
[1 0 0 1 0 0] CT
-14 7.5 moveto 
1 -1 scale
(8) t 
GR
GR
GS
[0.46154 0 0 0.46154 50.46154 152.91625] CT
0.149 GC
/Helvetica 21.667 F
GS
[1 0 0 1 0 0] CT
-28 7.5 moveto 
1 -1 scale
(10) t 
GR
GR
GS
[0.46154 0 0 0.46154 50.46154 127.42259] CT
0.149 GC
/Helvetica 21.667 F
GS
[1 0 0 1 0 0] CT
-28 7.5 moveto 
1 -1 scale
(12) t 
GR
GR
GS
[0.46154 0 0 0.46154 50.46154 101.92892] CT
0.149 GC
/Helvetica 21.667 F
GS
[1 0 0 1 0 0] CT
-28 7.5 moveto 
1 -1 scale
(14) t 
GR
GR
GS
[0.46154 0 0 0.46154 50.46154 76.43525] CT
0.149 GC
/Helvetica 21.667 F
GS
[1 0 0 1 0 0] CT
-28 7.5 moveto 
1 -1 scale
(16) t 
GR
GR
GS
[0.46154 0 0 0.46154 50.46154 50.94157] CT
0.149 GC
/Helvetica 21.667 F
GS
[1 0 0 1 0 0] CT
-28 7.5 moveto 
1 -1 scale
(18) t 
GR
GR
GS
[0.46154 0 0 0.46154 50.46154 25.4479] CT
0.149 GC
/Helvetica 21.667 F
GS
[1 0 0 1 0 0] CT
-28 7.5 moveto 
1 -1 scale
(20) t 
GR
GR
GS
[0 -0.46154 0.46154 0 34.53846 152.0768] CT
0.149 GC
/Helvetica 23.833 F
GS
[1 0 0 1 0 0] CT
-123.5 -6 moveto 
1 -1 scale
(Linear Velocity \(m/s\)) t 
GR
GR
GS
[0.46154 0 0 0.46154 217.38483 22.49999] CT
/Helvetica-Bold 23.833 F
GS
[1 0 0 1 0 0] CT
-334 -6 moveto 
1 -1 scale
(Forward Velocity Comparison - After Adjustments) t 
GR
GR
GS
[0.46154 0 0 0.46154 0 0.23077] CT
0 0.447 0.741 RC
1 LJ
3.25 LW
N
118.596 607 M
118.611 607 L
118.627 607 L
119.436 606.598 L
119.452 606.597 L
119.62 606.631 L
120.246 606.243 L
120.262 606.239 L
121.056 605.839 L
121.072 605.841 L
121.866 605.482 L
121.881 605.46 L
122.676 605.107 L
122.691 605.11 L
123.486 604.725 L
123.501 604.706 L
124.311 604.372 L
124.326 604.358 L
125.121 604.019 L
125.136 604.019 L
125.198 604.024 L
125.931 603.601 L
125.946 603.603 L
126.741 603.255 L
126.756 603.256 L
127.001 603.29 L
127.551 602.906 L
127.566 602.827 L
127.918 597.792 L
128.223 603.121 L
128.361 601.943 L
128.376 601.986 L
128.483 602.271 L
129.171 601.552 L
129.186 601.558 L
129.201 601.549 L
129.935 600.956 L
129.996 600.987 L
130.011 600.977 L
130.057 601.025 L
130.806 596.431 L
130.821 596.269 L
131.616 584.996 L
131.631 584.775 L
132.426 571.137 L
132.441 570.784 L
133.235 554.166 L
133.251 553.949 L
134.061 533.361 L
134.076 532.904 L
134.871 507.366 L
134.886 506.845 L
135.68 478.937 L
135.696 478.552 L
136.246 467.653 L
136.49 471.885 L
136.506 472.271 L
137.3 512.358 L
137.316 513.209 L
138.11 548.608 L
138.126 549.008 L
138.935 575.094 L
138.951 575.655 L
139.547 588.988 L
139.745 587.363 L
139.761 587.148 L
140.555 574.592 L
140.571 574.321 L
141.365 555.258 L
141.38 554.592 L
142.175 516.808 L
142.19 516.088 L
142.985 475.294 L
143 474.559 L
143.81 442.351 L
143.825 441.974 L
144.391 430.099 L
144.62 430.548 L
144.635 430.519 L
144.681 430.851 L
145.43 424.802 L
145.445 424.767 L
145.476 424.734 L
146.24 432.613 L
146.255 432.747 L
146.943 437.858 L
147.05 437.442 L
147.065 437.382 L
147.31 436.777 L
147.875 451.164 L
147.89 451.777 L
148.685 467.591 L
148.7 467.685 L
149.495 475.363 L
149.51 475.551 L
149.862 478.668 L
150.305 475.512 L
150.32 475.445 L
150.748 472.297 L
151.115 474.505 L
151.13 474.67 L
151.237 475.125 L
151.925 470.114 L
151.94 470.093 L
152.75 477.552 L
152.765 477.719 L
153.56 495.682 L
153.575 496.074 L
154.37 511.056 L
154.385 511.264 L
155.179 522.382 L
155.195 522.719 L
155.714 532.209 L
155.989 530.162 L
156.005 530.036 L
156.799 521.012 L
156.815 520.809 L
157.624 502.361 L
157.64 501.926 L
158.434 470.827 L
158.45 470.303 L
159.244 444.965 L
159.26 444.746 L
160.054 436.235 L
160.069 435.534 L
160.864 409.762 L
160.879 409.265 L
161.643 393.941 L
161.674 393.974 L
161.689 394.059 L
162.499 387.454 L
162.514 387.26 L
162.545 387.345 L
163.049 384.236 L
163.309 385.47 L
163.324 385.563 L
164.119 389.306 L
164.134 389.404 L
164.929 393.843 L
164.944 393.952 L
165.219 393.67 L
165.739 394.638 L
165.754 394.726 L
165.785 394.715 L
166.258 396.297 L
166.549 394.906 L
166.564 394.275 L
166.595 393.854 L
166.747 397.732 L
167.374 396.2 L
167.389 396.245 L
168.184 402.671 L
168.199 403.084 L
168.994 423.201 L
169.009 423.379 L
169.804 440.651 L
169.819 441.073 L
170.614 463.715 L
170.629 464.311 L
171.424 499.391 L
171.439 500.097 L
172.249 535.226 L
172.264 535.648 L
172.997 607 L
173.059 607 L
173.074 607 L
173.869 607 L
173.884 607 L
174.678 607 L
174.694 607 L
175.488 607 L
175.504 607 L
176.298 607 L
176.314 607 L
177.123 607 L
177.139 607 L
177.933 607 L
177.949 607 L
178.743 607 L
178.759 607 L
179.553 607 L
179.568 607 L
180.363 600.737 L
180.378 600.485 L
181.173 573.523 L
181.188 572.853 L
181.998 539.659 L
182.013 538.94 L
182.808 509.051 L
182.823 508.63 L
183.098 503.779 L
183.618 507.827 L
183.633 507.976 L
184.428 520.679 L
184.443 521.234 L
185.238 541.978 L
185.253 542.41 L
186.048 563.758 L
186.063 564.032 L
186.873 585.895 L
186.888 586.398 L
187.622 605.252 L
187.683 605.109 L
187.698 605.038 L
188.493 600.703 L
188.508 600.625 L
189.303 595.513 L
189.318 595.288 L
190.113 579.636 L
190.128 579.034 L
190.922 548.089 L
190.938 547.501 L
191.748 515.337 L
191.763 514.711 L
192.558 481.297 L
192.573 480.59 L
193.367 450.817 L
193.383 450.327 L
194.177 419.135 L
194.193 418.687 L
194.987 396.226 L
195.003 395.802 L
195.797 379.334 L
195.813 379.096 L
196.347 374.108 L
196.622 374.81 L
196.638 374.979 L
197.356 379.2 L
197.432 379.103 L
197.448 379.181 L
198.227 383.654 L
198.242 383.617 L
198.258 383.663 L
198.364 383.394 L
199.052 393.751 L
199.067 393.857 L
199.862 406.953 L
199.877 407.301 L
200.687 420.572 L
200.703 420.682 L
201.497 434.059 L
201.512 434.244 L
202.307 449.415 L
202.322 449.457 L
203.117 455.942 L
203.132 455.882 L
203.637 457.336 L
203.927 454.067 L
203.942 453.855 L
204.737 434.15 L
204.752 433.708 L
205.562 415.73 L
205.577 415.736 L
206.372 401.432 L
206.387 401.288 L
207.182 388.648 L
207.197 388.44 L
207.992 378.881 L
208.007 378.846 L
208.802 370.119 L
208.817 369.967 L
209.612 364.619 L
209.627 364.517 L
209.719 364.246 L
209.978 365.389 L
210.437 364.741 L
210.452 364.715 L
210.528 365.163 L
211.247 361.654 L
211.262 361.526 L
211.781 356.502 L
212.057 357.498 L
212.072 357.596 L
212.866 363.233 L
212.882 363.28 L
213.08 363.011 L
213.676 366.474 L
213.692 366.611 L
213.722 366.664 L
214.471 358 L
214.486 358.028 L
214.502 358.21 L
215.311 363.585 L
215.327 363.801 L
215.357 363.603 L
216.121 367.41 L
216.137 367.481 L
216.916 373.348 L
216.931 373.321 L
216.947 373.433 L
216.962 373.602 L
217.497 371.139 L
217.741 372.96 L
217.756 372.965 L
218.352 375.017 L
218.551 373.428 L
218.566 373.819 L
219.361 378.945 L
219.376 378.96 L
219.407 378.894 L
220.186 398.629 L
220.201 399.306 L
220.996 433.292 L
221.011 433.997 L
221.806 469.529 L
221.821 470.213 L
222.616 504.843 L
222.631 505.371 L
223.426 542.921 L
223.441 543.746 L
224.236 577.801 L
224.251 578.526 L
224.954 607 L
225.061 607 L
225.076 607 L
225.871 607 L
225.886 607 L
226.681 607 L
226.696 607 L
227.491 607 L
227.506 607 L
228.301 607 L
228.316 607 L
229.111 607 L
229.126 607 L
229.936 607 L
229.951 607 L
230.746 607 L
230.761 607 L
231.556 607 L
231.571 607 L
232.365 607 L
232.381 607 L
233.175 607 L
233.191 607 L
233.985 607 L
234.001 607 L
234.81 607 L
234.826 607 L
235.62 573.759 L
235.636 573.007 L
236.43 533.052 L
236.446 532.415 L
237.24 489.731 L
237.255 488.836 L
238.05 467.523 L
238.065 467.222 L
238.86 451.147 L
238.875 450.706 L
238.921 451.183 L
239.685 431.1 L
239.7 430.565 L
240.495 408.431 L
240.51 407.66 L
241.305 391.462 L
241.32 391.161 L
242.115 377.844 L
242.13 377.503 L
242.145 377.515 L
242.91 365.922 L
242.925 365.978 L
242.94 365.853 L
243.154 363.893 L
243.597 366.331 L
243.735 364.506 L
243.75 364.32 L
243.811 363.852 L
244.56 366.515 L
244.575 366.593 L
244.896 366.331 L
245.125 374.817 L
245.37 373.099 L
245.385 373.995 L
246.18 384.472 L
246.195 384.951 L
246.44 384.196 L
246.929 388.049 L
246.99 387.828 L
247.005 387.879 L
247.036 387.849 L
247.479 391.018 L
247.8 390.689 L
247.815 390.86 L
248.625 396.019 L
248.64 396.178 L
249.435 401.379 L
249.45 401.564 L
250.245 415.112 L
250.26 415.781 L
251.055 440.839 L
251.07 441.296 L
251.864 474.845 L
251.88 475.499 L
252.674 514.816 L
252.69 515.883 L
253.5 558.701 L
253.515 559.317 L
254.309 584.117 L
254.325 584.533 L
254.967 607 L
255.119 607 L
255.135 607 L
255.517 606.844 L
255.929 607 L
255.945 607 L
256.739 607 L
256.754 607 L
257.549 607 L
257.564 607 L
258.374 607 L
258.39 607 L
259.184 607 L
259.199 607 L
259.994 607 L
260.009 607 L
260.804 607 L
260.819 607 L
261.614 607 L
261.629 607 L
262.424 607 L
262.439 607 L
263.249 607 L
263.264 607 L
264.059 607 L
264.074 607 L
264.869 607 L
264.884 607 L
265.679 602.016 L
265.694 601.434 L
266.489 591.116 L
266.504 590.679 L
267.023 577.53 L
267.299 580.22 L
267.314 580.426 L
267.895 580.065 L
268.124 584.893 L
268.139 585.402 L
268.597 593.213 L
268.934 587.427 L
268.949 587.209 L
269.744 565.801 L
269.759 565.006 L
270.553 525.499 L
270.569 524.641 L
271.363 489.337 L
271.379 488.833 L
272.143 469.382 L
272.173 469.468 L
272.189 469.399 L
272.525 467.283 L
272.998 467.696 L
273.014 467.646 L
273.808 468.934 L
273.824 469.143 L
274.618 480.189 L
274.634 480.589 L
275.428 512.645 L
275.443 513.31 L
276.238 537.55 L
276.253 538.019 L
277.048 572.267 L
277.063 572.919 L
277.873 594.108 L
277.889 594.406 L
278.668 607 L
278.683 607 L
278.698 607 L
279.493 604.247 L
279.508 604.197 L
279.967 603.069 L
280.303 604.242 L
280.318 604.331 L
280.93 606.253 L
281.113 605.834 L
281.128 605.826 L
281.205 605.74 L
281.51 607 L
281.923 607 L
281.938 607 L
282.748 607 L
282.763 607 L
283.558 607 L
283.573 607 L
284.368 598.714 L
284.383 598.567 L
285.178 589.799 L
285.193 589.616 L
285.988 580.768 L
286.003 580.614 L
286.798 571.61 L
286.813 571.41 L
287.623 562.319 L
287.638 562.139 L
288.433 553.151 L
288.448 552.972 L
289.243 544.041 L
289.258 543.859 L
290.052 534.839 L
290.068 534.64 L
290.862 525.63 L
290.878 525.44 L
291.672 516.503 L
291.688 516.319 L
292.497 507.155 L
292.513 506.969 L
293.307 497.966 L
293.323 497.784 L
294.117 486.064 L
294.133 485.797 L
294.927 456.23 L
294.942 455.225 L
295.737 384.153 L
295.752 382.807 L
296.562 329.115 L
296.578 328.451 L
297.372 278.072 L
297.387 277.287 L
298.182 246.03 L
298.197 245.837 L
298.992 220.772 L
299.007 220.436 L
299.603 209.4 L
299.802 210.778 L
299.817 210.507 L
299.955 208.859 L
300.612 211.575 L
300.627 211.661 L
301.437 213.65 L
301.452 213.677 L
301.498 213.609 L
302.247 216.378 L
302.262 216.456 L
303.057 230.756 L
303.072 231.061 L
303.867 254.311 L
303.882 254.874 L
304.677 279.441 L
304.692 279.955 L
305.487 302.776 L
305.502 303.023 L
306.128 309.571 L
306.312 309.44 L
306.327 309.484 L
306.403 309.664 L
306.938 309.258 L
307.122 309.423 L
307.137 309.483 L
307.229 309.366 L
307.748 311.562 L
307.932 309.77 L
307.947 309.537 L
308.741 302.167 L
308.757 302.082 L
309.551 290.722 L
309.567 290.396 L
310.361 259.716 L
310.377 258.635 L
311.186 193.359 L
311.202 192.556 L
311.996 150.369 L
312.012 149.435 L
312.806 110.312 L
312.822 109.724 L
313.616 80.25 L
313.632 79.865 L
314.243 73.27 L
314.426 74.699 L
314.441 74.857 L
314.671 75.356 L
315.19 70.061 L
315.236 70.467 L
315.251 70.563 L
315.282 70.585 L
316.061 66.872 L
316.077 67.024 L
316.122 67.527 L
316.871 57.613 L
316.886 57.333 L
317.36 51 L
317.681 51.414 L
317.696 51.527 L
318.399 55.785 L
318.491 55.377 L
318.506 55.477 L
319.301 67.829 L
319.316 68.281 L
320.111 89.577 L
320.126 90.112 L
320.936 124.282 L
320.951 125.115 L
321.746 164.972 L
321.761 165.879 L
322.556 210.776 L
322.571 211.608 L
323.366 250.436 L
323.381 250.958 L
324.176 278.833 L
324.191 279.546 L
324.986 310.847 L
325.001 311.506 L
325.811 342.21 L
325.826 342.746 L
326.621 371.555 L
326.636 372.049 L
327.431 395.875 L
327.446 396.273 L
328.24 404.204 L
328.256 404.353 L
329.05 415.264 L
329.066 415.586 L
329.86 428.986 L
329.876 429.226 L
330.685 443.545 L
330.701 443.75 L
331.495 452.734 L
331.511 452.904 L
332.305 458.681 L
332.321 458.751 L
333.115 466.868 L
333.13 467.063 L
333.925 479.753 L
333.94 480.034 L
334.735 491.253 L
334.75 491.453 L
335.56 501.443 L
335.576 501.641 L
336.37 511.353 L
336.385 511.535 L
337.18 521.292 L
337.195 521.453 L
337.99 531.323 L
338.005 531.477 L
338.8 541.133 L
338.815 541.34 L
339.61 551.065 L
339.625 551.242 L
340.435 561.298 L
340.45 561.477 L
341.245 571.304 L
341.26 571.498 L
342.055 581.232 L
342.07 581.42 L
342.865 591.212 L
342.88 591.413 L
343.675 601.197 L
343.69 601.405 L
344.148 607 L
344.5 607 L
344.515 607 L
345.31 607 L
345.325 607 L
346.12 607 L
346.135 607 L
346.93 602.287 L
346.945 601.577 L
347.739 554.943 L
347.755 554.041 L
348.549 520.973 L
348.565 520.448 L
349.375 488.238 L
349.39 487.509 L
350.184 462.118 L
350.2 461.711 L
350.872 446.666 L
350.994 447.401 L
351.01 447.712 L
351.04 448.238 L
351.804 439.28 L
351.82 439.085 L
352.614 423.557 L
352.629 423.552 L
352.645 423.631 L
352.905 421.958 L
353.424 422.383 L
353.439 422.45 L
354.249 418.683 L
354.265 418.625 L
354.631 419.756 L
355.059 414.922 L
355.074 414.691 L
355.395 411.638 L
355.869 413.746 L
355.884 413.786 L
356.618 420.04 L
356.679 419.75 L
356.694 419.801 L
356.786 419.391 L
357.474 426.963 L
357.489 426.884 L
357.504 426.965 L
357.565 426.906 L
358.222 432.359 L
358.299 429.701 L
358.314 429.727 L
358.345 429.477 L
359.124 434.552 L
359.139 434.634 L
359.781 441.282 L
359.934 439.343 L
359.949 439.442 L
360.744 457.627 L
360.759 457.998 L
361.554 485.985 L
361.569 486.667 L
362.364 499.143 L
362.379 499.323 L
363.174 504.818 L
363.189 504.981 L
363.938 509.119 L
363.999 508.926 L
364.014 508.872 L
364.304 511.911 L
364.809 497.588 L
364.824 497.252 L
364.885 496.917 L
365.619 515.577 L
365.634 516.316 L
366.428 536.76 L
366.444 536.862 L
366.948 538.838 L
367.238 536.625 L
367.254 536.348 L
368.048 513.959 L
368.064 513.243 L
368.874 478.646 L
368.889 478.057 L
369.683 448.559 L
369.699 448.301 L
370.493 428.291 L
370.509 428.106 L
371.288 420.588 L
371.303 420.699 L
371.319 420.888 L
371.685 419.798 L
372.113 425.068 L
372.128 424.511 L
372.19 424.979 L
372.923 411.529 L
372.938 411.361 L
373.748 406.177 L
373.764 406.167 L
374.466 405.768 L
374.543 408.814 L
374.558 408.64 L
374.573 408.652 L
375.215 427.132 L
375.368 426.314 L
375.383 426.36 L
375.827 428.916 L
376.178 428.583 L
376.193 428.87 L
376.316 428.684 L
376.911 435.195 L
376.988 433.994 L
377.003 433.691 L
377.08 433.14 L
377.798 442.99 L
377.813 443.235 L
378.623 458.945 L
378.638 459.576 L
379.433 479.474 L
379.448 479.505 L
379.525 479.387 L
380.182 480.592 L
380.243 480.53 L
380.258 480.619 L
380.915 482.051 L
381.053 481.841 L
381.068 481.889 L
381.083 481.957 L
381.863 477.515 L
381.878 478.012 L
381.893 478.319 L
382.673 462.781 L
382.688 462.355 L
382.902 462.894 L
383.437 458.371 L
383.498 458.699 L
383.513 458.686 L
383.712 457.464 L
384.277 459.937 L
384.308 459.685 L
384.323 459.486 L
384.445 458.164 L
385.118 461.234 L
385.133 461.464 L
385.927 492.175 L
385.943 493.078 L
386.737 552.022 L
386.753 552.965 L
387.547 589.601 L
387.563 590.151 L
388.021 597.044 L
388.372 594.4 L
388.388 594.302 L
389.182 579.134 L
389.198 578.624 L
389.763 563.44 L
389.992 565.804 L
390.008 565.998 L
390.802 585.768 L
390.817 585.943 L
391.413 590.419 L
391.612 590.305 L
391.627 590.276 L
392.437 588.653 L
392.453 588.661 L
392.743 587.947 L
393.125 589.411 L
393.247 588.251 L
393.263 588.049 L
394.057 561.275 L
394.072 560.675 L
394.867 533.554 L
394.882 532.849 L
395.677 505.546 L
395.692 505.012 L
396.487 487.666 L
396.502 487.357 L
397.22 479.806 L
397.312 480.004 L
397.327 480.059 L
398.046 481.895 L
398.122 480.385 L
398.137 480.471 L
398.336 480.35 L
398.871 482.096 L
398.932 481.824 L
398.947 481.671 L
399.421 476.4 L
399.742 477.667 L
399.757 477.746 L
400.552 472.094 L
400.567 471.995 L
400.903 469.561 L
401.362 470.56 L
401.377 470.594 L
402.187 504.184 L
402.202 505.005 L
402.997 533.108 L
403.012 533.296 L
403.807 554.345 L
403.822 554.798 L
404.204 555.255 L
404.494 553.805 L
404.617 554.835 L
404.632 554.668 L
405.426 542.03 L
405.442 541.645 L
406.236 513.462 L
406.252 512.99 L
407.062 501.104 L
407.077 500.893 L
407.871 480.462 L
407.887 480.169 L
408.681 462.78 L
408.697 462.776 L
409.491 449.88 L
409.507 449.714 L
409.614 448.789 L
410.209 453.587 L
410.301 450.477 L
410.316 449.462 L
410.454 448.188 L
411.111 454.177 L
411.126 454.273 L
411.356 455.36 L
411.936 453.459 L
411.952 453.425 L
412.746 447.622 L
412.761 447.459 L
413.205 445.851 L
413.495 448.594 L
413.556 448.33 L
413.571 448.268 L
414.366 451.881 L
414.381 452.578 L
414.58 451.081 L
415.176 455.612 L
415.191 455.637 L
415.711 457.27 L
415.986 454.669 L
416.001 454.507 L
416.811 441.083 L
416.826 440.773 L
417.468 431.41 L
417.621 431.451 L
417.636 431.218 L
418.186 427.806 L
418.431 428.128 L
418.446 427.989 L
418.798 430.072 L
419.241 423.711 L
419.256 422.931 L
419.776 416.506 L
420.051 417.709 L
420.066 418.169 L
420.861 424.058 L
420.876 424.204 L
421.579 427.258 L
421.686 425.644 L
421.701 426.044 L
422.496 433.881 L
422.511 434.205 L
423.306 455.213 L
423.321 455.763 L
424.116 477.765 L
424.131 478.415 L
424.925 493.799 L
424.941 493.878 L
424.971 493.527 L
425.735 496.054 L
425.751 496.185 L
425.827 496.439 L
426.561 490.551 L
426.576 490.402 L
427.37 474.34 L
427.386 474.051 L
427.844 465.221 L
428.18 468.71 L
428.196 468.951 L
428.929 493.261 L
428.99 492.567 L
429.006 492.336 L
429.021 492.29 L
429.8 504.947 L
429.815 505.189 L
430.61 516.304 L
430.625 516.477 L
431.374 529.243 L
431.435 528.6 L
431.451 528.328 L
432.245 516.827 L
432.26 516.305 L
433.055 471.168 L
433.07 470.292 L
433.865 432.866 L
433.88 432.453 L
434.675 415.847 L
434.69 415.683 L
435.087 411.519 L
435.485 413.076 L
435.5 413.094 L
435.638 412.532 L
436.31 432.01 L
436.325 432.68 L
437.12 475.359 L
437.135 476.375 L
437.93 516.155 L
437.945 516.892 L
438.74 539.188 L
438.755 539.827 L
439.336 550.901 L
439.55 549.181 L
439.565 548.99 L
440.375 524.207 L
440.39 524.102 L
440.451 523.958 L
441.185 530.681 L
441.2 530.832 L
441.246 531.18 L
441.964 515.732 L
441.995 515.835 L
442.01 515.894 L
442.514 514.535 L
442.805 518.379 L
442.82 518.252 L
443.584 531.253 L
443.614 531.209 L
443.63 531.092 L
444.424 518.52 L
444.44 517.84 L
445.112 500.759 L
445.25 501.878 L
445.265 501.665 L
445.372 499.552 L
445.693 505.226 L
446.059 503.067 L
446.075 502.862 L
446.869 489.021 L
446.885 488.572 L
447.679 473.912 L
447.695 473.626 L
448.489 465.337 L
448.505 464.904 L
449.284 451.846 L
449.299 452.287 L
449.314 452.4 L
450.124 447.268 L
450.14 447.251 L
450.812 438.332 L
450.934 440.203 L
450.949 440.208 L
451.133 438.078 L
451.652 443.932 L
451.744 443.354 L
451.759 443.316 L
452.432 434.808 L
452.554 435.196 L
452.569 435.14 L
453.318 425.775 L
453.364 427.04 L
453.379 426.958 L
453.578 426.99 L
454.174 424.322 L
454.189 424.195 L
454.999 420.444 L
455.014 420.392 L
455.809 415.171 L
455.824 414.853 L
455.84 414.805 L
456.619 420.583 L
456.634 420.794 L
456.924 419.985 L
457.414 424.302 L
457.429 424.302 L
457.444 424.582 L
457.49 424.519 L
458.239 427.846 L
458.254 427.927 L
458.865 432.034 L
459.049 431.587 L
459.064 431.874 L
459.874 442.013 L
459.889 442.668 L
460.684 463.747 L
460.699 464.157 L
461.494 484.506 L
461.509 484.878 L
462.304 528.829 L
462.319 529.906 L
463.113 572.878 L
463.129 573.707 L
463.801 607 L
463.923 607 L
463.939 607 L
464.749 607 L
464.764 607 L
465.558 586.221 L
465.574 585.583 L
466.368 554.869 L
466.384 554.441 L
467.178 526.176 L
467.194 525.479 L
467.988 490.044 L
468.003 489.561 L
468.798 466.751 L
468.813 466.487 L
469.623 460.007 L
469.639 459.952 L
470.418 454.595 L
470.433 454.606 L
470.448 454.541 L
470.464 454.502 L
471.243 482.366 L
471.258 482.597 L
471.717 488.896 L
472.053 488.385 L
472.068 488.514 L
472.863 492.331 L
472.878 492.511 L
473.153 493.697 L
473.673 485.951 L
473.688 485.68 L
474.498 469.742 L
474.513 469.451 L
474.727 466.989 L
475.308 469.621 L
475.323 469.637 L
476.026 465.211 L
476.118 465.913 L
476.133 466.039 L
476.76 468.907 L
476.928 468.542 L
476.943 468.523 L
477.126 469.168 L
477.738 458.781 L
477.753 458.423 L
477.952 456.705 L
478.502 461.222 L
478.548 460.84 L
478.563 460.509 L
479.373 453.559 L
479.388 452.859 L
480.183 443.922 L
480.198 443.875 L
480.993 433.605 L
481.008 433.317 L
481.573 422.385 L
481.802 423.425 L
481.818 423.181 L
481.894 424.152 L
482.612 419.096 L
482.628 419.129 L
483.422 411.396 L
483.438 411.195 L
484.247 407.707 L
484.263 407.694 L
484.721 403.246 L
485.057 404.861 L
485.073 404.966 L
485.088 404.978 L
485.653 401.544 L
485.867 404.721 L
485.883 405.244 L
486.081 407.848 L
486.677 402.248 L
486.693 402.066 L
487.013 399.953 L
487.487 401.69 L
487.502 401.707 L
488.267 405.28 L
488.312 404.634 L
488.328 404.583 L
489.031 401.159 L
489.122 402.251 L
489.138 402.186 L
489.474 401.812 L
489.672 403.98 L
489.932 403.875 L
489.947 403.933 L
490.681 397.795 L
490.742 398.006 L
490.757 398.358 L
491.002 395.847 L
491.476 398.726 L
491.552 398.46 L
491.567 398.374 L
491.598 398.322 L
492.362 402.725 L
492.377 402.845 L
492.408 402.66 L
493.111 407.201 L
493.187 406.436 L
493.202 406.523 L
493.523 400.845 L
493.722 407.872 L
493.997 406.945 L
494.012 407.335 L
494.41 408.785 L
494.776 406.623 L
494.807 406.672 L
494.822 406.708 L
495.097 405.457 L
495.571 407.388 L
495.617 407.071 L
495.632 406.923 L
496.427 394.086 L
496.442 393.795 L
496.748 396.508 L
496.962 391.757 L
497.237 394.339 L
497.252 394.618 L
497.359 393.701 L
498.062 400.611 L
498.077 400.54 L
498.872 412.13 L
498.887 412.45 L
499.682 434.868 L
499.697 435.376 L
500.492 456.016 L
500.507 456.304 L
501.301 487.286 L
501.317 488.003 L
502.111 526.426 L
502.127 527.227 L
502.937 563.797 L
502.952 564.57 L
503.746 599.637 L
503.762 600.098 L
504.556 606.084 L
504.572 606.12 L
504.908 607 L
505.366 607 L
505.382 607 L
506.176 607 L
506.191 607 L
506.986 607 L
507.001 607 L
507.811 607 L
507.827 607 L
508.621 607 L
508.637 607 L
509.431 607 L
509.446 607 L
510.241 607 L
510.256 607 L
511.051 607 L
511.066 607 L
511.861 607 L
511.876 607 L
512.686 607 L
512.701 607 L
513.496 607 L
513.511 607 L
514.306 607 L
514.321 607 L
515.116 607 L
515.131 607 L
515.926 607 L
515.941 607 L
516.736 607 L
516.751 607 L
517.561 607 L
517.576 607 L
518.371 607 L
518.386 607 L
519.181 607 L
519.196 607 L
519.991 607 L
520.006 607 L
520.8 607 L
520.816 607 L
521.61 607 L
521.626 607 L
522.436 607 L
522.451 607 L
523.245 607 L
523.261 607 L
524.055 607 L
524.071 607 L
524.865 607 L
524.881 607 L
525.675 607 L
525.69 607 L
526.485 601.031 L
526.5 600.155 L
527.31 567.574 L
527.326 567.427 L
528.12 545.608 L
528.135 545.197 L
528.624 527.686 L
528.93 530.293 L
528.945 530.557 L
529.74 556.609 L
529.755 557.015 L
530.397 569.35 L
530.55 568.799 L
530.565 568.827 L
530.626 568.944 L
531.36 557.77 L
531.375 557.311 L
532.185 534.779 L
532.2 534.451 L
532.995 506.745 L
533.01 506.176 L
533.805 475.4 L
533.82 474.693 L
534.615 441.087 L
534.63 440.522 L
535.425 417.384 L
535.44 417.158 L
536.25 407.077 L
536.265 406.581 L
537.06 392.233 L
537.075 391.872 L
537.625 389.1 L
537.87 390.765 L
537.885 390.592 L
537.946 389.807 L
538.68 394.519 L
538.695 394.571 L
539.49 405.041 L
539.505 405.505 L
540.299 424.706 L
540.315 425.172 L
541.125 454.777 L
541.14 455.375 L
541.935 485.821 L
541.95 486.441 L
542.744 518.234 L
542.76 518.977 L
543.554 556.111 L
543.57 556.85 L
544.364 584.69 L
544.38 585.076 L
545.174 606.13 L
545.189 606.328 L
545.251 607 L
545.999 607 L
546.015 607 L
546.809 607 L
546.825 607 L
547.619 607 L
547.634 607 L
548.429 607 L
548.444 607 L
549.239 607 L
549.254 607 L
550.049 607 L
550.064 607 L
550.874 607 L
550.889 607 L
551.684 607 L
551.699 607 L
552.494 574.728 L
552.509 573.668 L
553.304 531.993 L
553.319 531.266 L
554.114 496.378 L
554.129 495.812 L
554.847 480.687 L
554.924 481.494 L
554.939 481.723 L
555.718 494.449 L
555.749 494.429 L
555.764 494.551 L
555.779 494.686 L
556.559 489.545 L
556.574 489.185 L
557.139 490.856 L
557.369 484.392 L
557.384 483.614 L
558.179 461.706 L
558.194 461.661 L
558.224 461.849 L
558.988 445.618 L
559.004 444.942 L
559.798 419.911 L
559.814 419.364 L
560.624 398.539 L
560.639 398.321 L
561.326 390.787 L
561.433 391.28 L
561.449 391.149 L
561.51 390.977 L
562.243 401.073 L
562.259 401.249 L
563.053 415.988 L
563.069 416.212 L
563.863 426.214 L
563.878 426.398 L
564.673 434.001 L
564.688 434.225 L
565.498 443.848 L
565.514 444.129 L
566.308 457.833 L
566.323 458.602 L
567.118 489.647 L
567.133 490.326 L
567.928 526.371 L
567.943 527.086 L
568.738 561.424 L
568.753 561.939 L
569.548 586.911 L
569.563 587.234 L
570.373 603.467 L
570.388 603.738 L
570.648 606.004 L
571.183 603.174 L
571.198 603.178 L
571.382 602.924 L
571.993 605.878 L
572.008 605.927 L
572.283 607 L
572.803 606.645 L
572.818 606.51 L
573.613 598.855 L
573.628 598.699 L
574.423 591.106 L
574.438 590.93 L
575.248 583.399 L
575.263 583.222 L
576.058 575.689 L
576.073 575.543 L
576.868 567.97 L
576.883 567.823 L
577.677 560.235 L
577.693 560.101 L
578.487 552.47 L
578.503 552.344 L
579.297 544.592 L
579.313 544.339 L
580.123 530.65 L
580.138 530.378 L
580.932 514.678 L
580.948 514.197 L
581.742 473.934 L
581.758 473.234 L
582.552 432.212 L
582.568 431.394 L
583.362 390.823 L
583.378 389.598 L
584.187 349.048 L
584.203 348.357 L
584.997 324.25 L
585.013 324.059 L
585.807 318.752 L
585.823 318.73 L
586.617 295.796 L
586.632 295.57 L
587.213 298.152 L
587.427 290.491 L
587.442 290.147 L
588.237 265.742 L
588.252 265.272 L
589.062 256.086 L
589.077 256.035 L
589.2 255.439 L
589.872 259.92 L
589.887 260.205 L
590.361 263.602 L
590.575 258.033 L
590.682 259.681 L
590.697 258.87 L
590.743 257.493 L
591.492 273.234 L
591.507 273.58 L
592.302 306.014 L
592.317 306.526 L
593.112 337.782 L
593.127 337.942 L
593.937 367.557 L
593.952 368.333 L
594.747 416.809 L
594.762 417.843 L
595.557 474.322 L
595.572 475.371 L
596.367 535.234 L
596.382 536.409 L
597.177 585.691 L
597.192 586.324 L
597.986 599.962 L
598.002 600.146 L
598.43 607 L
598.812 607 L
598.827 607 L
599.622 607 L
599.637 607 L
600.431 607 L
600.447 607 L
601.241 607 L
601.257 607 L
602.051 607 L
602.067 607 L
602.861 607 L
602.876 607 L
603.686 601.089 L
603.702 599.738 L
604.496 551.183 L
604.512 550.384 L
605.306 511.185 L
605.321 510.38 L
606.116 471.316 L
606.131 470.459 L
606.926 424.906 L
606.941 424.719 L
606.957 424.591 L
607.736 462.444 L
607.751 463.145 L
608.561 532.621 L
608.576 533.936 L
609.371 570.475 L
609.386 570.799 L
609.738 570.645 L
610.181 574.344 L
610.196 574.464 L
610.853 586.696 L
610.991 585.916 L
611.006 585.727 L
611.801 556.967 L
611.816 556.332 L
612.611 519.63 L
612.626 518.754 L
613.436 473.927 L
613.451 473.349 L
614.246 451.624 L
614.261 451.398 L
615.056 440.263 L
615.071 439.988 L
615.743 434.29 L
615.866 434.32 L
615.881 434.03 L
616.186 435.768 L
616.66 431.878 L
616.675 432.063 L
616.691 432.364 L
617.485 447.142 L
617.501 447.453 L
618.311 455.184 L
618.326 455.257 L
619.12 476.655 L
619.136 477.261 L
619.93 497.559 L
619.946 497.831 L
620.74 501.504 L
620.756 501.599 L
620.771 501.596 L
621.55 504.045 L
621.565 504.039 L
621.657 504.295 L
622.36 486.067 L
622.375 485.353 L
623.185 453.934 L
623.201 453.879 L
623.995 483.939 L
624.01 484.466 L
624.775 491.511 L
624.805 491.303 L
624.82 491.266 L
625.615 521.773 L
625.63 522.191 L
626.425 554.258 L
626.44 554.82 L
627.235 583.865 L
627.25 584.095 L
627.571 589.729 L
628.06 584.126 L
628.075 583.91 L
628.87 558.871 L
628.885 558.289 L
629.68 541.261 L
629.695 541.019 L
630.49 537.581 L
630.505 537.274 L
631.3 521.281 L
631.315 520.87 L
632.125 493.968 L
632.14 493.53 L
632.935 461.362 L
632.95 460.776 L
633.684 442.482 L
633.745 442.634 L
633.76 442.598 L
633.913 443.205 L
634.555 433.98 L
634.57 433.812 L
634.769 432.654 L
635.319 434.418 L
635.365 434.182 L
635.38 434.113 L
635.471 433.755 L
636.174 443.271 L
636.19 443.677 L
637 465.741 L
637.015 466.15 L
637.81 487.829 L
637.825 487.924 L
638.619 496.206 L
638.635 496.662 L
639.429 508.206 L
639.445 508.203 L
640.239 517 L
640.255 517.141 L
641.019 520.486 L
641.049 520.436 L
641.064 520.428 L
641.08 520.422 L
641.859 522.222 L
641.874 522.186 L
641.89 522.138 L
642.684 513.412 L
642.7 513.251 L
642.914 512.156 L
643.494 523.988 L
643.509 524.132 L
643.83 525.77 L
644.304 524.549 L
644.319 524.558 L
645.099 525.418 L
645.114 525.297 L
645.129 525.15 L
645.924 520.209 L
645.939 520.085 L
646.749 498.831 L
646.764 498.103 L
647.559 449.436 L
647.574 448.687 L
648.369 422.36 L
648.384 422.014 L
648.43 421.67 L
649.179 450.138 L
649.194 450.778 L
649.989 493.287 L
650.004 494.141 L
650.799 536.27 L
650.814 537.201 L
651.624 566.964 L
651.639 567.601 L
652.434 590.439 L
652.449 590.903 L
653.014 606.904 L
653.244 603.944 L
653.259 603.668 L
653.962 597.105 L
654.054 597.209 L
654.069 597.225 L
654.864 607 L
654.879 607 L
655.276 606.893 L
655.673 607 L
655.689 607 L
656.499 607 L
656.514 607 L
657.309 607 L
657.324 607 L
658.118 607 L
658.134 607 L
658.928 607 L
658.944 607 L
659.738 607 L
659.754 607 L
660.548 607 L
660.563 607 L
661.373 607 L
661.389 607 L
662.183 607 L
662.199 607 L
662.993 607 L
663.008 607 L
663.803 607 L
663.818 607 L
664.613 607 L
664.628 607 L
665.423 607 L
665.438 607 L
666.248 607 L
666.263 607 L
667.058 607 L
667.073 607 L
667.868 607 L
667.883 607 L
668.678 607 L
668.693 607 L
669.488 581.469 L
669.503 580.028 L
670.298 513.918 L
670.313 513.08 L
671.123 469.943 L
671.138 469.34 L
671.933 436.892 L
671.948 436.657 L
672.743 421.746 L
672.758 421.594 L
673.553 407.535 L
673.568 407.084 L
674.194 400.238 L
674.362 401.565 L
674.378 401.694 L
675.127 407.419 L
675.172 407.16 L
675.188 407.352 L
675.998 423.771 L
676.013 424.342 L
676.807 459.484 L
676.823 460.397 L
677.617 497.544 L
677.633 498.38 L
678.427 533.16 L
678.443 533.734 L
679.237 565.714 L
679.253 566.316 L
680.062 586.198 L
680.078 586.567 L
680.872 602.943 L
680.888 603.254 L
681.071 607 L
681.682 607 L
681.698 607 L
682.492 607 L
682.507 607 L
683.302 607 L
683.317 607 L
684.112 607 L
684.127 607 L
684.937 607 L
684.952 607 L
685.747 607 L
685.762 607 L
686.557 607 L
686.572 607 L
687.367 589.681 L
687.382 588.884 L
688.177 564.521 L
688.192 564.385 L
688.987 550.441 L
689.002 550.329 L
689.644 545.675 L
689.812 546.208 L
689.827 546.391 L
690.622 554.413 L
690.637 554.622 L
691.432 571.077 L
691.447 571.518 L
692.089 588.719 L
692.242 588.647 L
692.257 588.656 L
692.349 588.791 L
693.052 580.473 L
693.067 580.282 L
693.861 545.041 L
693.877 544.091 L
694.687 506.265 L
694.702 505.589 L
695.497 485.751 L
695.512 485.763 L
696.306 510.393 L
696.322 510.926 L
697.116 532.078 L
697.132 532.144 L
697.743 534.913 L
697.926 531.432 L
697.942 530.861 L
698.507 514.944 L
698.736 516.712 L
698.751 516.9 L
699.042 519.464 L
699.561 510.089 L
699.577 509.665 L
700.371 487.772 L
700.387 487.499 L
700.692 483.74 L
701.12 487.556 L
701.181 486.888 L
701.196 487.019 L
701.991 497.219 L
702.006 497.417 L
702.801 506.933 L
702.816 507.19 L
702.954 507.082 L
703.611 514.666 L
703.626 514.861 L
704.436 532.81 L
704.451 533.296 L
705.246 562.674 L
705.261 563.407 L
706.056 595.363 L
706.071 595.762 L
706.285 599.6 L
706.866 592.551 L
706.881 592.488 L
707.141 592.308 L
707.676 599.213 L
707.691 599.427 L
708.486 601.013 L
708.501 601.06 L
709.158 603.4 L
709.311 603.252 L
709.326 603.273 L
710.075 603.532 L
710.121 603.491 L
710.136 603.509 L
710.931 603.74 L
710.946 603.76 L
711.114 603.678 L
711.741 603.892 L
711.756 603.902 L
712.016 603.84 L
712.55 603.997 L
712.566 604.007 L
712.81 604.055 L
713.36 602.409 L
713.376 602.355 L
714.186 592.372 L
714.201 592.062 L
714.384 589.172 L
714.995 595.505 L
715.011 595.741 L
715.79 607 L
715.805 607 L
715.821 607 L
716.615 607 L
716.631 607 L
717.425 607 L
717.441 607 L
718.235 607 L
718.25 607 L
719.06 607 L
719.076 607 L
719.87 607 L
719.886 607 L
720.68 607 L
720.695 607 L
721.49 607 L
721.505 607 L
722.3 607 L
722.315 607 L
723.11 607 L
723.125 607 L
723.935 588.326 L
723.95 587.678 L
724.745 565.356 L
724.76 564.737 L
725.387 531.277 L
725.555 553.251 L
725.57 555.896 L
726.105 607 L
726.365 604.526 L
726.38 604.302 L
727.007 595.575 L
727.175 599.422 L
727.19 600.018 L
727.358 607 L
728 607 L
728.015 607 L
728.81 607 L
728.825 607 L
729.62 607 L
729.635 607 L
730.43 584.839 L
730.445 583.757 L
731.24 537.895 L
731.255 536.854 L
732.049 500.503 L
732.065 499.553 L
732.875 466.282 L
732.89 465.752 L
733.685 450.553 L
733.7 450.041 L
734.495 433.452 L
734.51 433.138 L
734.708 431.496 L
735.304 436.33 L
735.32 436.312 L
735.472 436.975 L
736.114 427.481 L
736.13 427.34 L
736.389 423.632 L
736.924 426.644 L
736.94 426.665 L
737.749 431.171 L
737.765 431.536 L
738.559 458.382 L
738.575 459.045 L
739.323 483.76 L
739.369 483.73 L
739.385 483.774 L
740.179 486.39 L
740.194 486.575 L
740.989 490.315 L
741.004 490.335 L
741.035 490.428 L
741.799 479.726 L
741.814 479.447 L
742.624 460.655 L
742.639 460.549 L
743.312 454.521 L
743.434 454.635 L
743.449 454.468 L
743.999 446.012 L
744.244 448.791 L
744.259 448.434 L
744.381 446.312 L
744.947 451.201 L
745.054 449.818 L
745.069 449.712 L
745.1 449.502 L
745.436 452.73 L
745.864 452.234 L
745.879 452.162 L
745.894 452.059 L
746.674 456.314 L
746.689 456.346 L
747.3 456.893 L
747.499 455.332 L
747.514 455.189 L
748.309 445.253 L
748.324 444.955 L
748.523 442.274 L
749.119 444.665 L
749.134 444.725 L
749.929 451.247 L
749.944 451.616 L
750.739 472.587 L
750.754 472.923 L
751.548 493.5 L
751.564 493.955 L
752.374 516.444 L
752.389 516.652 L
753.184 534.219 L
753.199 534.745 L
753.993 557.734 L
754.009 558.009 L
754.33 562.557 L
754.803 560.539 L
754.819 560.547 L
754.987 560.06 L
755.613 566.939 L
755.629 567.105 L
756.026 570.726 L
756.423 567.69 L
756.438 567.582 L
756.759 565.35 L
757.248 569.762 L
757.264 570.082 L
757.615 574.516 L
758.058 569.994 L
758.074 569.87 L
758.868 555.245 L
758.883 554.875 L
759.678 531.179 L
759.693 530.742 L
760.228 522.942 L
760.488 524.376 L
760.503 524.516 L
761.298 533.787 L
761.313 534.025 L
762.123 549.371 L
762.138 549.852 L
762.933 585.993 L
762.948 586.727 L
763.392 607 L
763.743 607 L
763.758 607 L
764.553 607 L
764.568 607 L
765.363 607 L
765.378 607 L
766.173 607 L
766.188 607 L
766.998 607 L
767.013 607 L
767.808 607 L
767.823 607 L
768.618 607 L
768.633 607 L
769.428 607 L
769.443 607 L
770.237 607 L
770.253 607 L
771.047 607 L
771.063 607 L
771.873 607 L
771.888 607 L
772.683 607 L
772.698 607 L
773.492 607 L
773.508 607 L
774.302 607 L
774.318 607 L
775.112 607 L
775.128 607 L
775.937 607 L
775.953 607 L
776.747 607 L
776.763 607 L
777.557 607 L
777.573 607 L
778.367 607 L
778.382 607 L
779.177 607 L
779.192 607 L
779.987 607 L
780.002 607 L
780.812 607 L
780.828 607 L
781.622 607 L
781.637 607 L
782.432 607 L
782.447 607 L
783.242 607 L
783.257 607 L
784.052 607 L
784.067 607 L
784.862 607 L
784.877 607 L
785.687 607 L
785.702 607 L
786.497 607 L
786.512 607 L
787.307 607 L
787.322 607 L
788.117 607 L
788.132 607 L
788.927 607 L
788.942 607 L
789.737 607 L
789.752 607 L
790.562 607 L
790.577 607 L
791.372 607 L
791.387 607 L
792.181 607 L
792.197 607 L
792.991 607 L
793.007 607 L
793.801 607 L
793.817 607 L
794.611 607 L
794.627 607 L
795.436 607 L
795.452 607 L
796.246 607 L
796.262 607 L
797.056 607 L
797.072 607 L
797.866 607 L
797.881 607 L
798.676 607 L
798.691 607 L
799.486 607 L
799.501 607 L
800.311 607 L
800.326 607 L
801.121 607 L
801.136 607 L
801.931 607 L
801.946 607 L
802.741 607 L
802.756 607 L
803.551 607 L
803.566 607 L
804.361 607 L
804.376 607 L
805.186 607 L
805.201 607 L
805.996 607 L
806.011 607 L
806.806 607 L
806.821 607 L
807.616 607 L
807.631 607 L
808.426 607 L
808.441 607 L
809.235 607 L
809.251 607 L
810.061 607 L
810.076 607 L
810.871 607 L
810.886 607 L
811.68 607 L
811.696 607 L
812.49 607 L
812.506 607 L
813.3 607 L
813.316 607 L
814.11 607 L
814.125 607 L
814.935 607 L
814.951 607 L
815.745 607 L
815.761 607 L
816.555 607 L
816.57 607 L
817.365 607 L
817.38 607 L
818.175 607 L
818.19 607 L
818.985 607 L
819 607 L
819.81 607 L
819.825 607 L
820.62 607 L
820.635 607 L
821.43 607 L
821.445 607 L
822.24 607 L
822.255 607 L
823.05 607 L
823.065 607 L
823.875 607 L
823.89 607 L
824.084 606.969 L
S
GR
GS
[0.46154 0 0 0.46154 0 0.23077] CT
0.851 0.325 0.098 RC
1 LJ
3.25 LW
N
118 607 M
118.611 607 L
119.223 607 L
119.834 607 L
120.445 607 L
121.056 607 L
121.668 607 L
122.279 607 L
122.89 607 L
123.501 607 L
124.113 607 L
124.724 607 L
125.335 607 L
125.946 607 L
126.558 607 L
127.169 607 L
127.78 607 L
128.391 607 L
129.003 607 L
129.614 607 L
130.225 607 L
130.836 603.207 L
131.448 597.851 L
132.059 594.267 L
132.67 585.425 L
133.281 567.321 L
133.893 557.539 L
134.504 542.274 L
135.115 521.923 L
135.726 498.056 L
136.338 485.656 L
136.949 493.126 L
137.56 522.087 L
138.171 550.249 L
138.783 576.089 L
139.394 596.774 L
140.005 601.887 L
140.616 600.634 L
141.228 591.199 L
141.839 570.415 L
142.45 548.748 L
143.061 516.116 L
143.673 494.333 L
144.284 473.669 L
144.895 467.671 L
145.506 465.657 L
146.118 466.423 L
146.729 477.168 L
147.34 483.357 L
147.952 488.855 L
148.563 504.462 L
149.174 514.891 L
149.785 524.843 L
150.397 519.999 L
151.008 530.307 L
151.619 525.194 L
152.23 524.843 L
152.842 535.019 L
153.453 528.821 L
154.064 549.619 L
154.675 560.363 L
155.287 549.388 L
155.898 549.703 L
156.509 553.873 L
157.12 555.664 L
157.732 546.328 L
158.343 524.522 L
158.954 502.713 L
159.565 485.656 L
160.177 480.902 L
160.788 463.851 L
161.399 443.401 L
162.01 437.279 L
162.622 437.279 L
163.233 439.104 L
163.844 435.886 L
164.455 437.279 L
165.067 438.598 L
165.678 443.401 L
166.289 443.401 L
166.9 441.008 L
167.512 445.883 L
168.123 451.898 L
168.734 461.642 L
169.345 466.489 L
169.957 488.294 L
170.568 500.335 L
171.179 519.747 L
171.79 547.647 L
172.402 574.28 L
173.013 594.267 L
173.624 596.093 L
174.235 601.887 L
174.847 601.887 L
175.458 607 L
176.069 607 L
176.681 607 L
177.292 607 L
177.903 607 L
178.514 607 L
179.126 607 L
179.737 607 L
180.348 596.093 L
180.959 585.187 L
181.571 563.374 L
182.182 536.744 L
182.793 518.357 L
183.404 505.227 L
184.016 505.227 L
184.627 508.022 L
185.238 533.83 L
185.849 545.529 L
186.461 560.984 L
187.072 576.089 L
187.683 607 L
188.294 607 L
188.906 601.887 L
189.517 596.093 L
190.128 589.888 L
190.739 568.127 L
191.351 541.208 L
191.962 514.393 L
192.573 482.05 L
193.184 458.53 L
193.796 437.955 L
194.407 418.824 L
195.018 394.863 L
195.629 385.75 L
196.241 373.317 L
196.852 373.317 L
197.463 374.096 L
198.074 376.635 L
198.686 383.225 L
199.297 386.496 L
199.908 400.635 L
200.519 406.37 L
201.131 417.158 L
201.742 426.291 L
202.353 441.265 L
202.965 451.06 L
203.576 456.173 L
204.187 453.681 L
204.798 440.37 L
205.41 428.841 L
206.021 413.08 L
206.632 404.76 L
207.243 393.913 L
207.855 388.188 L
208.466 379.939 L
209.077 373.319 L
209.688 369.987 L
210.3 372.371 L
210.911 370.816 L
211.522 371.475 L
212.133 368.771 L
212.745 368.771 L
213.356 374.704 L
213.967 377.364 L
214.578 372.372 L
215.19 374.667 L
215.801 374.667 L
216.412 376.872 L
217.023 384.829 L
217.635 382.43 L
218.246 389.062 L
218.857 387.062 L
219.468 390.709 L
220.08 402.893 L
220.691 423.902 L
221.302 448.289 L
221.913 475.544 L
222.525 499.127 L
223.136 530.506 L
223.747 552.029 L
224.358 579.108 L
224.97 597.852 L
225.581 607 L
226.192 607 L
226.803 607 L
227.415 607 L
228.026 607 L
228.637 607 L
229.248 600.634 L
229.86 607 L
230.471 607 L
231.082 607 L
231.694 607 L
232.305 607 L
232.916 607 L
233.527 607 L
234.139 607 L
234.75 601.887 L
235.361 585.425 L
235.972 554.85 L
236.584 529.65 L
237.195 496.426 L
237.806 466.233 L
238.417 458.62 L
239.029 443.363 L
239.64 429.525 L
240.251 412.958 L
240.862 399.098 L
241.474 392.765 L
242.085 383.868 L
242.696 374.951 L
243.307 372.331 L
243.919 366.018 L
244.53 371.208 L
245.141 371.208 L
245.752 372.39 L
246.364 382.611 L
246.975 386.43 L
247.586 392.766 L
248.197 385.094 L
248.809 396.521 L
249.42 396.521 L
250.031 404.666 L
250.642 413.695 L
251.254 430.732 L
251.865 455.979 L
252.476 490.144 L
253.087 517.994 L
253.699 551.217 L
254.31 576.403 L
254.921 594.525 L
255.532 607 L
256.144 607 L
256.755 607 L
257.366 607 L
257.977 607 L
258.589 607 L
259.2 607 L
259.811 607 L
260.423 607 L
261.034 607 L
261.645 607 L
262.256 607 L
262.868 601.887 L
263.479 607 L
264.09 601.887 L
264.701 600.634 L
265.313 594.525 L
265.924 582.609 L
266.535 570.408 L
267.146 564.352 L
267.758 557.101 L
268.369 564.042 L
268.98 557.691 L
269.591 546.541 L
270.203 527.412 L
270.814 487.406 L
271.425 464.937 L
272.036 446.999 L
272.648 432.016 L
273.259 425.665 L
273.87 438.366 L
274.481 449.674 L
275.093 464.937 L
275.704 495.435 L
276.315 515.209 L
276.926 539.164 L
277.538 560.192 L
278.149 575.399 L
278.76 591.661 L
279.371 586.2 L
279.983 586.2 L
280.594 591.661 L
281.205 591.661 L
281.816 596.094 L
282.428 607 L
283.039 607 L
283.65 607 L
284.261 607 L
284.873 607 L
285.484 607 L
286.095 603.207 L
286.707 603.207 L
287.318 607 L
287.929 607 L
288.54 607 L
289.152 607 L
289.763 607 L
290.374 607 L
290.985 607 L
291.597 607 L
292.208 607 L
292.819 603.207 L
293.43 607 L
294.042 601.887 L
294.653 600.634 L
295.264 579.556 L
295.875 538.547 L
296.487 497.06 L
297.098 469.778 L
297.709 445.465 L
298.32 418.131 L
298.932 399.727 L
299.543 390.656 L
300.154 396.783 L
300.765 408.613 L
301.377 417.706 L
301.988 430.088 L
302.599 439.192 L
303.21 457.683 L
303.822 479.055 L
304.433 503.257 L
305.044 530.839 L
305.655 552.03 L
306.267 570.142 L
306.878 582.05 L
307.489 588.704 L
308.1 597.852 L
308.712 599.414 L
309.323 597.852 L
309.934 599.414 L
310.545 579.555 L
311.157 545.805 L
311.768 506.14 L
312.379 481.764 L
312.99 456.813 L
313.602 430.088 L
314.213 414.352 L
314.824 414.352 L
315.435 401.875 L
316.047 395.625 L
316.658 386.576 L
317.269 374.071 L
317.881 358.774 L
318.492 355.271 L
319.103 358.774 L
319.714 358.001 L
320.326 367.809 L
320.937 385.852 L
321.548 407.42 L
322.159 432.471 L
322.771 462.277 L
323.382 487.404 L
323.993 505.425 L
324.604 520.701 L
325.216 542.934 L
325.827 552.029 L
326.438 572.773 L
327.049 585.453 L
327.661 597.852 L
328.272 600.634 L
328.883 597.852 L
329.494 601.887 L
330.106 603.207 L
330.717 607 L
331.328 607 L
331.939 607 L
332.551 603.207 L
333.162 603.207 L
333.773 601.887 L
334.384 607 L
334.996 607 L
335.607 607 L
336.218 607 L
336.829 607 L
337.441 607 L
338.052 607 L
338.663 607 L
339.274 607 L
339.886 607 L
340.497 607 L
341.108 607 L
341.719 607 L
342.331 607 L
342.942 601.887 L
343.553 607 L
344.164 607 L
344.776 607 L
345.387 607 L
345.998 607 L
346.61 594.268 L
347.221 570.407 L
347.832 533.284 L
348.443 499.909 L
349.055 465.842 L
349.666 450.549 L
350.277 425.423 L
350.888 410.141 L
351.5 398.398 L
352.111 391.252 L
352.722 384.948 L
353.333 384.948 L
353.945 378.74 L
354.556 374.822 L
355.167 375.536 L
355.778 369.525 L
356.39 373.69 L
357.001 375.889 L
357.612 375.889 L
358.223 380.055 L
358.835 380.055 L
359.446 385.944 L
360.057 388.953 L
360.668 395.296 L
361.28 410.487 L
361.891 430.486 L
362.502 439.19 L
363.113 443.709 L
363.725 450.044 L
364.336 451.059 L
364.947 448.317 L
365.558 444.815 L
366.17 462.046 L
366.781 461.912 L
367.392 457.708 L
368.003 448.553 L
368.615 430.293 L
369.226 405.909 L
369.837 390.706 L
370.448 372.422 L
371.06 363.279 L
371.671 357.1 L
372.282 360.2 L
372.894 357.136 L
373.505 348.008 L
374.116 350.998 L
374.727 347.801 L
375.339 360.242 L
375.95 360.243 L
376.561 363.281 L
377.172 366.34 L
377.784 369.241 L
378.395 372.395 L
379.006 390.652 L
379.617 402.75 L
380.229 412.028 L
380.84 415.068 L
381.451 418.129 L
382.062 415.068 L
382.674 405.911 L
383.285 396.2 L
383.896 393.319 L
384.507 396.78 L
385.119 402.893 L
385.73 408.903 L
386.341 442.415 L
386.952 485.041 L
387.564 517.993 L
388.175 536.734 L
388.786 539.97 L
389.397 533.814 L
390.009 518.637 L
390.62 521.437 L
391.231 533.284 L
391.842 539.971 L
392.454 539.971 L
393.065 536.927 L
393.676 533.814 L
394.287 515.518 L
394.899 494.284 L
395.51 475.762 L
396.121 454.477 L
396.732 439.427 L
397.344 436.406 L
397.955 436.406 L
398.566 439.421 L
399.177 442.497 L
399.789 445.463 L
400.4 439.421 L
401.011 439.421 L
401.622 445.464 L
402.234 463.811 L
402.845 491.633 L
403.456 501.353 L
404.068 508.679 L
404.679 502.592 L
405.29 490.109 L
405.901 480.191 L
406.513 459.88 L
407.124 449.574 L
407.735 443.213 L
408.346 432.827 L
408.958 424.616 L
409.569 418.25 L
410.18 416.015 L
410.791 414.073 L
411.403 424.616 L
412.014 424.616 L
412.625 422.382 L
413.236 420.097 L
413.848 428.748 L
414.459 432.827 L
415.07 436.851 L
415.681 441.48 L
416.293 441.641 L
416.904 430.999 L
417.515 424.648 L
418.126 422.569 L
418.738 420.436 L
419.349 418.251 L
419.96 417.764 L
420.571 420.436 L
421.183 428.748 L
421.794 426.799 L
422.405 428.927 L
423.016 439.193 L
423.628 451.923 L
424.239 473.311 L
424.85 484.046 L
425.461 494.092 L
426.073 495.435 L
426.684 492.822 L
427.295 478.368 L
427.906 465.845 L
428.518 464.938 L
429.129 486.51 L
429.74 497.224 L
430.352 499.128 L
430.963 507.07 L
431.574 499.63 L
432.185 493.476 L
432.797 464.653 L
433.408 435.869 L
434.019 410.493 L
434.63 401.643 L
435.242 392.768 L
435.853 392.768 L
436.464 411.763 L
437.075 434.406 L
437.687 457.686 L
438.298 478.92 L
438.909 485.627 L
439.52 489.647 L
440.132 476.002 L
440.743 460.25 L
441.354 465.846 L
441.965 457.41 L
442.577 455.937 L
443.188 456.393 L
443.799 459.254 L
444.41 459.093 L
445.022 452.95 L
445.633 438.6 L
446.244 445.884 L
446.855 445.884 L
447.467 435.888 L
448.078 429.614 L
448.689 410.771 L
449.3 411.943 L
449.912 401.347 L
450.523 405.521 L
451.134 396.918 L
451.745 401.002 L
452.357 403.284 L
452.968 394.984 L
453.579 392.878 L
454.19 386.424 L
454.802 388.62 L
455.413 384.185 L
456.024 378.05 L
456.635 382.256 L
457.247 386.521 L
457.858 386.24 L
458.469 386.424 L
459.081 396.917 L
459.692 388.17 L
460.303 407.71 L
460.914 418.251 L
461.526 426.67 L
462.137 452.246 L
462.748 483.745 L
463.359 521.925 L
463.971 553.724 L
464.582 575.169 L
465.193 570.934 L
465.804 549.619 L
466.416 513.727 L
467.027 486.111 L
467.638 453.287 L
468.249 432.472 L
468.861 414.802 L
469.472 405.927 L
470.083 402.838 L
470.694 405.74 L
471.306 423.638 L
471.917 436.997 L
472.528 442.332 L
473.139 445.464 L
473.751 436.316 L
474.362 435.989 L
474.973 424.036 L
475.584 424.036 L
476.196 424.213 L
476.807 424.035 L
477.418 424.035 L
478.029 420.409 L
478.641 420.878 L
479.252 423.019 L
479.863 415.069 L
480.474 418.13 L
481.086 408.903 L
481.697 399.85 L
482.308 398.889 L
482.919 394.866 L
483.531 389.752 L
484.142 386.498 L
484.753 387.061 L
485.365 384.619 L
485.976 387.637 L
486.587 387.637 L
487.198 390.576 L
487.81 387.441 L
488.421 393.689 L
489.032 390.576 L
489.643 396.589 L
490.255 396.205 L
490.866 396.589 L
491.477 396.779 L
492.088 393.632 L
492.7 396.779 L
493.311 399.778 L
493.922 402.835 L
494.533 408.549 L
495.145 411.267 L
495.756 405.348 L
496.367 404.76 L
496.978 402.127 L
497.59 399.722 L
498.201 402.834 L
498.812 411.981 L
499.423 427.165 L
500.035 445.461 L
500.646 460.244 L
501.257 485.04 L
501.868 506.454 L
502.48 539.97 L
503.091 570.142 L
503.702 594.268 L
504.313 603.207 L
504.925 607 L
505.536 603.207 L
506.147 607 L
506.758 607 L
507.37 607 L
507.981 607 L
508.592 607 L
509.203 607 L
509.815 607 L
510.426 607 L
511.037 607 L
511.648 607 L
512.26 607 L
512.871 607 L
513.482 607 L
514.094 607 L
514.705 607 L
515.316 607 L
515.927 607 L
516.539 607 L
517.15 607 L
517.761 607 L
518.372 607 L
518.984 601.887 L
519.595 607 L
520.206 607 L
520.817 607 L
521.429 607 L
522.04 607 L
522.651 607 L
523.262 607 L
523.874 607 L
524.485 607 L
525.096 603.207 L
525.707 596.093 L
526.319 585.425 L
526.93 557.539 L
527.541 529.649 L
528.152 513.154 L
528.764 505.424 L
529.375 500.315 L
529.986 515.583 L
530.597 532.148 L
531.209 526.945 L
531.82 515.392 L
532.431 492.532 L
533.042 472.673 L
533.654 453.284 L
534.265 433.319 L
534.876 410.487 L
535.487 392.307 L
536.099 381.901 L
536.71 375.535 L
537.321 371.449 L
537.932 371.449 L
538.544 373.689 L
539.155 375.889 L
539.766 390.769 L
540.378 407.708 L
540.989 428.925 L
541.6 450.075 L
542.211 477.686 L
542.823 507.354 L
543.434 532.803 L
544.045 564.587 L
544.656 587.901 L
545.268 600.634 L
545.879 607 L
546.49 607 L
547.101 607 L
547.713 607 L
548.324 607 L
548.935 607 L
549.546 607 L
550.158 601.887 L
550.769 601.887 L
551.38 607 L
551.991 587.901 L
552.603 557.54 L
553.214 515.562 L
553.825 485.284 L
554.436 449.671 L
555.048 437.998 L
555.659 431.713 L
556.27 429.649 L
556.881 426.792 L
557.493 417.704 L
558.104 398.398 L
558.715 385.852 L
559.326 376.835 L
559.938 355.27 L
560.549 348.994 L
561.16 337.218 L
561.771 337.218 L
562.383 350.311 L
562.994 362.221 L
563.605 374.071 L
564.216 386.576 L
564.828 401.874 L
565.439 410.922 L
566.05 426.219 L
566.661 438.715 L
567.273 463.068 L
567.884 490.143 L
568.495 521.437 L
569.107 548.572 L
569.718 573.485 L
570.329 585.425 L
570.94 599.414 L
571.552 597.852 L
572.163 607 L
572.774 603.207 L
573.385 607 L
573.997 607 L
574.608 607 L
575.219 607 L
575.83 607 L
576.442 607 L
577.053 607 L
577.664 607 L
578.275 607 L
578.887 607 L
579.498 603.207 L
580.109 603.207 L
580.72 600.634 L
581.332 585.425 L
581.943 570.142 L
582.554 542.934 L
583.165 517.993 L
583.777 493.664 L
584.388 465.843 L
584.999 441.517 L
585.61 438.715 L
586.222 426.22 L
586.833 410.923 L
587.444 398.4 L
588.055 385.854 L
588.667 355.272 L
589.278 346.924 L
589.889 337.22 L
590.5 337.22 L
591.112 337.22 L
591.723 346.251 L
592.334 359.389 L
592.945 374.073 L
593.557 396.203 L
594.168 408.614 L
594.779 439.428 L
595.391 477.553 L
596.002 509.435 L
596.613 553.724 L
597.224 587.902 L
597.836 600.634 L
598.447 603.207 L
599.058 607 L
599.669 607 L
600.281 607 L
600.892 607 L
601.503 607 L
602.114 607 L
602.726 603.207 L
603.337 591.701 L
603.948 561.259 L
604.559 518.544 L
605.171 475.927 L
605.782 445.979 L
606.393 412.83 L
607.004 380.094 L
607.616 374.687 L
608.227 402.755 L
608.838 439.823 L
609.449 484.259 L
610.061 495.917 L
610.672 506.285 L
611.283 507.197 L
611.894 475.928 L
612.506 444.715 L
613.117 413.732 L
613.728 377.819 L
614.339 366.855 L
614.951 345.868 L
615.562 352.354 L
616.173 347.762 L
616.784 344.07 L
617.396 350.435 L
618.007 358.72 L
618.618 374.825 L
619.229 391.444 L
619.841 406.604 L
620.452 421.742 L
621.063 426.798 L
621.674 428.635 L
622.286 424.647 L
622.897 405.519 L
623.508 393.894 L
624.119 406.604 L
624.731 416.836 L
625.342 432.015 L
625.953 451.061 L
626.565 480.191 L
627.176 508.961 L
627.787 520.701 L
628.398 527.645 L
629.01 502.7 L
629.621 494.153 L
630.232 478.366 L
630.843 469.312 L
631.455 463.579 L
632.066 442.415 L
632.677 415.041 L
633.288 393.434 L
633.9 380.615 L
634.511 371.965 L
635.122 368.23 L
635.733 375.738 L
636.345 379.091 L
636.956 399.602 L
637.567 416.412 L
638.178 432.144 L
638.79 441.921 L
639.401 451.062 L
640.012 466.087 L
640.623 471.704 L
641.235 480.731 L
641.846 481.047 L
642.457 481.047 L
643.068 480.068 L
643.68 484.345 L
644.291 494.724 L
644.902 498.513 L
645.513 495.936 L
646.125 496.452 L
646.736 483.456 L
647.347 459.32 L
647.958 425.521 L
648.57 416.411 L
649.181 423.018 L
649.792 449.455 L
650.403 489.127 L
651.015 519.674 L
651.626 546.07 L
652.237 567.322 L
652.849 588.703 L
653.46 601.887 L
654.071 597.852 L
654.682 601.887 L
655.294 603.207 L
655.905 607 L
656.516 607 L
657.127 607 L
657.739 607 L
658.35 607 L
658.961 607 L
659.572 607 L
660.184 607 L
660.795 607 L
661.406 607 L
662.017 607 L
662.629 607 L
663.24 607 L
663.851 607 L
664.462 607 L
665.074 607 L
665.685 607 L
666.296 607 L
666.907 607 L
667.519 607 L
668.13 607 L
668.741 600.634 L
669.352 591.701 L
669.964 560.533 L
670.575 510.646 L
671.186 475.292 L
671.797 442.661 L
672.409 422.182 L
673.02 415.454 L
673.631 400.635 L
674.242 396.194 L
674.854 396.194 L
675.465 399.6 L
676.076 407.396 L
676.687 431.279 L
677.299 447.818 L
677.91 484.344 L
678.521 511.705 L
679.133 538.997 L
679.744 557.099 L
680.355 570.407 L
680.966 582.049 L
681.578 591.701 L
682.189 599.414 L
682.8 600.634 L
683.411 599.414 L
684.023 599.414 L
684.634 603.207 L
685.245 607 L
685.856 607 L
686.468 603.207 L
687.079 594.268 L
687.69 582.049 L
688.301 567.205 L
688.913 554.795 L
689.524 551.456 L
690.135 551.456 L
690.746 552.11 L
691.358 567.205 L
691.969 576.336 L
692.58 585.453 L
693.191 582.608 L
693.803 563.906 L
694.414 533.25 L
695.025 505.88 L
695.636 490.159 L
696.248 496.748 L
696.859 518.272 L
697.47 527.409 L
698.081 527.409 L
698.693 524.132 L
699.304 515.008 L
699.915 504.996 L
700.526 491.252 L
701.138 481.708 L
701.749 488.071 L
702.36 493.662 L
702.971 507.353 L
703.583 512.165 L
704.194 523.025 L
704.805 535.019 L
705.416 560.984 L
706.028 581.436 L
706.639 596.093 L
707.25 596.093 L
707.861 601.887 L
708.473 607 L
709.084 607 L
709.695 607 L
710.306 607 L
710.918 607 L
711.529 607 L
712.14 607 L
712.752 607 L
713.363 607 L
713.974 596.774 L
714.585 591.199 L
715.197 591.199 L
715.808 601.887 L
716.419 601.887 L
717.03 607 L
717.642 607 L
718.253 607 L
718.864 607 L
719.475 607 L
720.087 607 L
720.698 607 L
721.309 607 L
721.92 607 L
722.532 607 L
723.143 591.661 L
723.754 580.334 L
724.365 565.4 L
724.977 539.566 L
725.588 527.997 L
726.199 553.668 L
726.81 570.415 L
727.422 574.28 L
728.033 579.017 L
728.644 596.093 L
729.255 589.888 L
729.867 585.187 L
730.478 558.547 L
731.089 529.253 L
731.7 487.028 L
732.312 457.687 L
732.923 435.886 L
733.534 420.235 L
734.145 414.082 L
734.757 404.561 L
735.368 401.738 L
735.979 404.561 L
736.59 404.561 L
737.202 404.561 L
737.813 407.916 L
738.424 426.373 L
739.036 443.401 L
739.647 461.642 L
740.258 467.671 L
740.869 466.489 L
741.481 468.586 L
742.092 460.41 L
742.703 444.682 L
743.314 444.681 L
743.926 438.598 L
744.537 433.777 L
745.148 431.217 L
745.759 442.095 L
746.371 439.049 L
746.982 453.952 L
747.593 450.641 L
748.204 426.091 L
748.816 433.163 L
749.427 428.05 L
750.038 432.791 L
750.649 426.091 L
751.261 451.333 L
751.872 477.168 L
752.483 496.396 L
753.094 517.151 L
753.706 527.001 L
754.317 542.781 L
754.928 551.035 L
755.539 551.035 L
756.151 558.234 L
756.762 551.879 L
757.373 551.879 L
757.984 553.873 L
758.596 547.365 L
759.207 532.802 L
759.818 521.923 L
760.429 505.139 L
761.041 503.114 L
761.652 508.883 L
762.263 519.691 L
762.875 529.253 L
763.486 575.399 L
764.097 600.634 L
764.708 607 L
765.319 607 L
765.931 607 L
766.542 607 L
767.153 607 L
767.765 607 L
768.376 607 L
768.987 607 L
769.598 607 L
770.21 607 L
770.821 607 L
771.432 607 L
772.043 607 L
772.655 607 L
773.266 607 L
773.877 607 L
774.488 607 L
775.1 603.207 L
775.711 607 L
776.322 607 L
776.933 607 L
777.545 607 L
778.156 600.634 L
778.767 601.887 L
779.378 607 L
779.99 607 L
780.601 607 L
781.212 607 L
781.823 607 L
782.435 607 L
783.046 607 L
783.657 607 L
784.268 607 L
784.88 607 L
785.491 607 L
786.102 607 L
786.713 607 L
787.325 607 L
787.936 607 L
788.547 607 L
789.158 607 L
789.77 607 L
790.381 607 L
790.992 607 L
791.603 607 L
792.215 607 L
792.826 607 L
793.437 607 L
794.048 607 L
794.66 607 L
795.271 607 L
795.882 607 L
796.493 607 L
797.105 607 L
797.716 607 L
798.327 607 L
798.939 607 L
799.55 607 L
800.161 607 L
800.772 607 L
801.384 607 L
801.995 607 L
802.606 607 L
803.217 607 L
803.829 603.207 L
804.44 607 L
805.051 607 L
805.662 607 L
806.274 607 L
806.885 607 L
807.496 607 L
808.107 607 L
808.719 607 L
809.33 607 L
809.941 607 L
810.552 607 L
811.164 607 L
811.775 607 L
812.386 607 L
812.997 607 L
813.609 607 L
814.22 607 L
814.831 607 L
815.442 607 L
816.054 607 L
816.665 607 L
817.276 607 L
817.887 607 L
818.499 607 L
819.11 607 L
819.721 607 L
820.332 607 L
820.944 607 L
821.555 607 L
822.166 607 L
822.778 607 L
823.389 607 L
824 607 L
S
GR
GS
[0.46154 0 0 0.46154 0 0.23077] CT
1 GC
N
807 121 M
807 68 L
508 68 L
508 121 L
cp
f
GR
GS
[0.46154 0 0 0.46154 267.69231 38.13846] CT
/Helvetica 19.5 F
GS
[1 0 0 1 0 0] CT
0 7 moveto 
1 -1 scale
(Forward Velocity - IMU) t 
GR
GR
GS
[0.46154 0 0 0.46154 0 0.23077] CT
0 0.447 0.741 RC
1 LJ
3.25 LW
N
512 82.133 M
577 82.133 L
S
GR
GS
[0.46154 0 0 0.46154 267.69231 49.55385] CT
/Helvetica 19.5 F
GS
[1 0 0 1 0 0] CT
0 7 moveto 
1 -1 scale
(Forward Velocity - GPS) t 
GR
GR
GS
[0.46154 0 0 0.46154 0 0.23077] CT
0.851 0.325 0.098 RC
1 LJ
3.25 LW
N
512 106.867 M
577 106.867 L
S
GR
GS
[0.46154 0 0 0.46154 0 0.23077] CT
0.149 GC
10.0 ML
1.083 LW
N
508 121 M
508 68 L
807 68 L
807 121 L
cp
S
GR
%%Trailer
%%Pages: 1
%%EOF
