%!PS-Adobe-3.0 EPSF-3.0
%%Creator: (MATLAB, The Mathworks, Inc. Version 9.11.0.1769968 \(R2021b\). Operating System: Linux)
%%Title: ./forwardVelBeforeAdjust.eps
%%CreationDate: 2022-03-11T18:41:06
%%Pages: (atend)
%%BoundingBox:    19     4   382   304
%%LanguageLevel: 3
%%EndComments
%%BeginProlog
%%BeginResource: procset (Apache XML Graphics Std ProcSet) 1.2 0
%%Version: 1.2 0
%%Copyright: (Copyright 2001-2003,2010 The Apache Software Foundation. License terms: http://www.apache.org/licenses/LICENSE-2.0)
/bd{bind def}bind def
/ld{load def}bd
/GR/grestore ld
/GS/gsave ld
/RM/rmoveto ld
/C/curveto ld
/t/show ld
/L/lineto ld
/ML/setmiterlimit ld
/CT/concat ld
/f/fill ld
/N/newpath ld
/S/stroke ld
/CC/setcmykcolor ld
/A/ashow ld
/cp/closepath ld
/RC/setrgbcolor ld
/LJ/setlinejoin ld
/GC/setgray ld
/LW/setlinewidth ld
/M/moveto ld
/re {4 2 roll M
1 index 0 rlineto
0 exch rlineto
neg 0 rlineto
cp } bd
/_ctm matrix def
/_tm matrix def
/BT { _ctm currentmatrix pop matrix _tm copy pop 0 0 moveto } bd
/ET { _ctm setmatrix } bd
/iTm { _ctm setmatrix _tm concat } bd
/Tm { _tm astore pop iTm 0 0 moveto } bd
/ux 0.0 def
/uy 0.0 def
/F {
  /Tp exch def
  /Tf exch def
  Tf findfont Tp scalefont setfont
  /cf Tf def  /cs Tp def
} bd
/ULS {currentpoint /uy exch def /ux exch def} bd
/ULE {
  /Tcx currentpoint pop def
  gsave
  newpath
  cf findfont cs scalefont dup
  /FontMatrix get 0 get /Ts exch def /FontInfo get dup
  /UnderlinePosition get Ts mul /To exch def
  /UnderlineThickness get Ts mul /Tt exch def
  ux uy To add moveto  Tcx uy To add lineto
  Tt setlinewidth stroke
  grestore
} bd
/OLE {
  /Tcx currentpoint pop def
  gsave
  newpath
  cf findfont cs scalefont dup
  /FontMatrix get 0 get /Ts exch def /FontInfo get dup
  /UnderlinePosition get Ts mul /To exch def
  /UnderlineThickness get Ts mul /Tt exch def
  ux uy To add cs add moveto Tcx uy To add cs add lineto
  Tt setlinewidth stroke
  grestore
} bd
/SOE {
  /Tcx currentpoint pop def
  gsave
  newpath
  cf findfont cs scalefont dup
  /FontMatrix get 0 get /Ts exch def /FontInfo get dup
  /UnderlinePosition get Ts mul /To exch def
  /UnderlineThickness get Ts mul /Tt exch def
  ux uy To add cs 10 mul 26 idiv add moveto Tcx uy To add cs 10 mul 26 idiv add lineto
  Tt setlinewidth stroke
  grestore
} bd
/QT {
/Y22 exch store
/X22 exch store
/Y21 exch store
/X21 exch store
currentpoint
/Y21 load 2 mul add 3 div exch
/X21 load 2 mul add 3 div exch
/X21 load 2 mul /X22 load add 3 div
/Y21 load 2 mul /Y22 load add 3 div
/X22 load /Y22 load curveto
} bd
/SSPD {
dup length /d exch dict def
{
/v exch def
/k exch def
currentpagedevice k known {
/cpdv currentpagedevice k get def
v cpdv ne {
/upd false def
/nullv v type /nulltype eq def
/nullcpdv cpdv type /nulltype eq def
nullv nullcpdv or
{
/upd true def
} {
/sametype v type cpdv type eq def
sametype {
v type /arraytype eq {
/vlen v length def
/cpdvlen cpdv length def
vlen cpdvlen eq {
0 1 vlen 1 sub {
/i exch def
/obj v i get def
/cpdobj cpdv i get def
obj cpdobj ne {
/upd true def
exit
} if
} for
} {
/upd true def
} ifelse
} {
v type /dicttype eq {
v {
/dv exch def
/dk exch def
/cpddv cpdv dk get def
dv cpddv ne {
/upd true def
exit
} if
} forall
} {
/upd true def
} ifelse
} ifelse
} if
} ifelse
upd true eq {
d k v put
} if
} if
} if
} forall
d length 0 gt {
d setpagedevice
} if
} bd
/RE { % /NewFontName [NewEncodingArray] /FontName RE -
  findfont dup length dict begin
  {
    1 index /FID ne
    {def} {pop pop} ifelse
  } forall
  /Encoding exch def
  /FontName 1 index def
  currentdict definefont pop
  end
} bind def
%%EndResource
%%BeginResource: procset (Apache XML Graphics EPS ProcSet) 1.0 0
%%Version: 1.0 0
%%Copyright: (Copyright 2002-2003 The Apache Software Foundation. License terms: http://www.apache.org/licenses/LICENSE-2.0)
/BeginEPSF { %def
/b4_Inc_state save def         % Save state for cleanup
/dict_count countdictstack def % Count objects on dict stack
/op_count count 1 sub def      % Count objects on operand stack
userdict begin                 % Push userdict on dict stack
/showpage { } def              % Redefine showpage, { } = null proc
0 setgray 0 setlinecap         % Prepare graphics state
1 setlinewidth 0 setlinejoin
10 setmiterlimit [ ] 0 setdash newpath
/languagelevel where           % If level not equal to 1 then
{pop languagelevel             % set strokeadjust and
1 ne                           % overprint to their defaults.
{false setstrokeadjust false setoverprint
} if
} if
} bd
/EndEPSF { %def
count op_count sub {pop} repeat            % Clean up stacks
countdictstack dict_count sub {end} repeat
b4_Inc_state restore
} bd
%%EndResource
%FOPBeginFontDict
%%IncludeResource: font Courier-Oblique
%%IncludeResource: font Courier-BoldOblique
%%IncludeResource: font Courier-Bold
%%IncludeResource: font ZapfDingbats
%%IncludeResource: font Symbol
%%IncludeResource: font Helvetica
%%IncludeResource: font Helvetica-Oblique
%%IncludeResource: font Helvetica-Bold
%%IncludeResource: font Helvetica-BoldOblique
%%IncludeResource: font Times-Roman
%%IncludeResource: font Times-Italic
%%IncludeResource: font Times-Bold
%%IncludeResource: font Times-BoldItalic
%%IncludeResource: font Courier
%FOPEndFontDict
%%BeginResource: encoding WinAnsiEncoding
/WinAnsiEncoding [
/.notdef /.notdef /.notdef /.notdef /.notdef
/.notdef /.notdef /.notdef /.notdef /.notdef
/.notdef /.notdef /.notdef /.notdef /.notdef
/.notdef /.notdef /.notdef /.notdef /.notdef
/.notdef /.notdef /.notdef /.notdef /.notdef
/.notdef /.notdef /.notdef /.notdef /.notdef
/.notdef /.notdef /space /exclam /quotedbl
/numbersign /dollar /percent /ampersand /quotesingle
/parenleft /parenright /asterisk /plus /comma
/hyphen /period /slash /zero /one
/two /three /four /five /six
/seven /eight /nine /colon /semicolon
/less /equal /greater /question /at
/A /B /C /D /E
/F /G /H /I /J
/K /L /M /N /O
/P /Q /R /S /T
/U /V /W /X /Y
/Z /bracketleft /backslash /bracketright /asciicircum
/underscore /quoteleft /a /b /c
/d /e /f /g /h
/i /j /k /l /m
/n /o /p /q /r
/s /t /u /v /w
/x /y /z /braceleft /bar
/braceright /asciitilde /bullet /Euro /bullet
/quotesinglbase /florin /quotedblbase /ellipsis /dagger
/daggerdbl /circumflex /perthousand /Scaron /guilsinglleft
/OE /bullet /Zcaron /bullet /bullet
/quoteleft /quoteright /quotedblleft /quotedblright /bullet
/endash /emdash /asciitilde /trademark /scaron
/guilsinglright /oe /bullet /zcaron /Ydieresis
/space /exclamdown /cent /sterling /currency
/yen /brokenbar /section /dieresis /copyright
/ordfeminine /guillemotleft /logicalnot /sfthyphen /registered
/macron /degree /plusminus /twosuperior /threesuperior
/acute /mu /paragraph /middot /cedilla
/onesuperior /ordmasculine /guillemotright /onequarter /onehalf
/threequarters /questiondown /Agrave /Aacute /Acircumflex
/Atilde /Adieresis /Aring /AE /Ccedilla
/Egrave /Eacute /Ecircumflex /Edieresis /Igrave
/Iacute /Icircumflex /Idieresis /Eth /Ntilde
/Ograve /Oacute /Ocircumflex /Otilde /Odieresis
/multiply /Oslash /Ugrave /Uacute /Ucircumflex
/Udieresis /Yacute /Thorn /germandbls /agrave
/aacute /acircumflex /atilde /adieresis /aring
/ae /ccedilla /egrave /eacute /ecircumflex
/edieresis /igrave /iacute /icircumflex /idieresis
/eth /ntilde /ograve /oacute /ocircumflex
/otilde /odieresis /divide /oslash /ugrave
/uacute /ucircumflex /udieresis /yacute /thorn
/ydieresis
] def
%%EndResource
%FOPBeginFontReencode
/Courier-Oblique findfont
dup length dict begin
  {1 index /FID ne {def} {pop pop} ifelse} forall
  /Encoding WinAnsiEncoding def
  currentdict
end
/Courier-Oblique exch definefont pop
/Courier-BoldOblique findfont
dup length dict begin
  {1 index /FID ne {def} {pop pop} ifelse} forall
  /Encoding WinAnsiEncoding def
  currentdict
end
/Courier-BoldOblique exch definefont pop
/Courier-Bold findfont
dup length dict begin
  {1 index /FID ne {def} {pop pop} ifelse} forall
  /Encoding WinAnsiEncoding def
  currentdict
end
/Courier-Bold exch definefont pop
/Helvetica findfont
dup length dict begin
  {1 index /FID ne {def} {pop pop} ifelse} forall
  /Encoding WinAnsiEncoding def
  currentdict
end
/Helvetica exch definefont pop
/Helvetica-Oblique findfont
dup length dict begin
  {1 index /FID ne {def} {pop pop} ifelse} forall
  /Encoding WinAnsiEncoding def
  currentdict
end
/Helvetica-Oblique exch definefont pop
/Helvetica-Bold findfont
dup length dict begin
  {1 index /FID ne {def} {pop pop} ifelse} forall
  /Encoding WinAnsiEncoding def
  currentdict
end
/Helvetica-Bold exch definefont pop
/Helvetica-BoldOblique findfont
dup length dict begin
  {1 index /FID ne {def} {pop pop} ifelse} forall
  /Encoding WinAnsiEncoding def
  currentdict
end
/Helvetica-BoldOblique exch definefont pop
/Times-Roman findfont
dup length dict begin
  {1 index /FID ne {def} {pop pop} ifelse} forall
  /Encoding WinAnsiEncoding def
  currentdict
end
/Times-Roman exch definefont pop
/Times-Italic findfont
dup length dict begin
  {1 index /FID ne {def} {pop pop} ifelse} forall
  /Encoding WinAnsiEncoding def
  currentdict
end
/Times-Italic exch definefont pop
/Times-Bold findfont
dup length dict begin
  {1 index /FID ne {def} {pop pop} ifelse} forall
  /Encoding WinAnsiEncoding def
  currentdict
end
/Times-Bold exch definefont pop
/Times-BoldItalic findfont
dup length dict begin
  {1 index /FID ne {def} {pop pop} ifelse} forall
  /Encoding WinAnsiEncoding def
  currentdict
end
/Times-BoldItalic exch definefont pop
/Courier findfont
dup length dict begin
  {1 index /FID ne {def} {pop pop} ifelse} forall
  /Encoding WinAnsiEncoding def
  currentdict
end
/Courier exch definefont pop
%FOPEndFontReencode
%%EndProlog
%%Page: 1 1
%%PageBoundingBox: 0 0 420 315
%%BeginPageSetup
[1 0 0 -1 0 315] CT
%%EndPageSetup
GS
[0.46154 0 0 0.46154 0 0.23077] CT
N
0 0 M
910 0 L
910 682 L
0 682 L
0 0 L
cp
clip
1 GC
N
0 0 910 682 re
f
GR
GS
[0.46154 0 0 0.46154 0 0.23077] CT
1 GC
N
0 0 910 682 re
f
GR
GS
[0.46154 0 0 0.46154 0 0.23077] CT
1 GC
N
118 607 M
824 607 L
824 51 L
118 51 L
cp
f
GR
GS
[0.46154 0 0 0.46154 0 0.23077] CT
0.149 GC
2 setlinecap
1 LJ
1.083 LW
N
118 607 M
824 607 L
S
GR
GS
[0.46154 0 0 0.46154 0 0.23077] CT
0.149 GC
2 setlinecap
1 LJ
1.083 LW
N
118 51 M
824 51 L
S
GR
GS
[0.46154 0 0 0.46154 0 0.23077] CT
0.149 GC
2 setlinecap
1 LJ
1.083 LW
N
118 607 M
118 599.94 L
S
GR
GS
[0.46154 0 0 0.46154 0 0.23077] CT
0.149 GC
2 setlinecap
1 LJ
1.083 LW
N
240.252 607 M
240.252 599.94 L
S
GR
GS
[0.46154 0 0 0.46154 0 0.23077] CT
0.149 GC
2 setlinecap
1 LJ
1.083 LW
N
362.504 607 M
362.504 599.94 L
S
GR
GS
[0.46154 0 0 0.46154 0 0.23077] CT
0.149 GC
2 setlinecap
1 LJ
1.083 LW
N
484.756 607 M
484.756 599.94 L
S
GR
GS
[0.46154 0 0 0.46154 0 0.23077] CT
0.149 GC
2 setlinecap
1 LJ
1.083 LW
N
607.008 607 M
607.008 599.94 L
S
GR
GS
[0.46154 0 0 0.46154 0 0.23077] CT
0.149 GC
2 setlinecap
1 LJ
1.083 LW
N
729.26 607 M
729.26 599.94 L
S
GR
GS
[0.46154 0 0 0.46154 0 0.23077] CT
0.149 GC
2 setlinecap
1 LJ
1.083 LW
N
118 51 M
118 58.06 L
S
GR
GS
[0.46154 0 0 0.46154 0 0.23077] CT
0.149 GC
2 setlinecap
1 LJ
1.083 LW
N
240.252 51 M
240.252 58.06 L
S
GR
GS
[0.46154 0 0 0.46154 0 0.23077] CT
0.149 GC
2 setlinecap
1 LJ
1.083 LW
N
362.504 51 M
362.504 58.06 L
S
GR
GS
[0.46154 0 0 0.46154 0 0.23077] CT
0.149 GC
2 setlinecap
1 LJ
1.083 LW
N
484.756 51 M
484.756 58.06 L
S
GR
GS
[0.46154 0 0 0.46154 0 0.23077] CT
0.149 GC
2 setlinecap
1 LJ
1.083 LW
N
607.008 51 M
607.008 58.06 L
S
GR
GS
[0.46154 0 0 0.46154 0 0.23077] CT
0.149 GC
2 setlinecap
1 LJ
1.083 LW
N
729.26 51 M
729.26 58.06 L
S
GR
GS
[0.46154 0 0 0.46154 54.46154 284.38463] CT
0.149 GC
/Helvetica 21.667 F
GS
[1 0 0 1 0 0] CT
-7 21 moveto 
1 -1 scale
(0) t 
GR
GR
GS
[0.46154 0 0 0.46154 110.88553 284.38463] CT
0.149 GC
/Helvetica 21.667 F
GS
[1 0 0 1 0 0] CT
-21 21 moveto 
1 -1 scale
(200) t 
GR
GR
GS
[0.46154 0 0 0.46154 167.30952 284.38463] CT
0.149 GC
/Helvetica 21.667 F
GS
[1 0 0 1 0 0] CT
-21 21 moveto 
1 -1 scale
(400) t 
GR
GR
GS
[0.46154 0 0 0.46154 223.73352 284.38463] CT
0.149 GC
/Helvetica 21.667 F
GS
[1 0 0 1 0 0] CT
-21 21 moveto 
1 -1 scale
(600) t 
GR
GR
GS
[0.46154 0 0 0.46154 280.15751 284.38463] CT
0.149 GC
/Helvetica 21.667 F
GS
[1 0 0 1 0 0] CT
-21 21 moveto 
1 -1 scale
(800) t 
GR
GR
GS
[0.46154 0 0 0.46154 336.58149 284.38463] CT
0.149 GC
/Helvetica 21.667 F
GS
[1 0 0 1 0 0] CT
-28 21 moveto 
1 -1 scale
(1000) t 
GR
GR
GS
[0.46154 0 0 0.46154 217.38478 297.84614] CT
0.149 GC
/Helvetica 23.833 F
GS
[1 0 0 1 0 0] CT
-143.5 23 moveto 
1 -1 scale
(Time Elapsed \(Seconds\)) t 
GR
GR
GS
[0.46154 0 0 0.46154 0 0.23077] CT
0.149 GC
2 setlinecap
1 LJ
1.083 LW
N
118 607 M
118 51 L
S
GR
GS
[0.46154 0 0 0.46154 0 0.23077] CT
0.149 GC
2 setlinecap
1 LJ
1.083 LW
N
824 607 M
824 51 L
S
GR
GS
[0.46154 0 0 0.46154 0 0.23077] CT
0.149 GC
2 setlinecap
1 LJ
1.083 LW
N
118 597.615 M
125.06 597.615 L
S
GR
GS
[0.46154 0 0 0.46154 0 0.23077] CT
0.149 GC
2 setlinecap
1 LJ
1.083 LW
N
118 522.313 M
125.06 522.313 L
S
GR
GS
[0.46154 0 0 0.46154 0 0.23077] CT
0.149 GC
2 setlinecap
1 LJ
1.083 LW
N
118 447.011 M
125.06 447.011 L
S
GR
GS
[0.46154 0 0 0.46154 0 0.23077] CT
0.149 GC
2 setlinecap
1 LJ
1.083 LW
N
118 371.709 M
125.06 371.709 L
S
GR
GS
[0.46154 0 0 0.46154 0 0.23077] CT
0.149 GC
2 setlinecap
1 LJ
1.083 LW
N
118 296.407 M
125.06 296.407 L
S
GR
GS
[0.46154 0 0 0.46154 0 0.23077] CT
0.149 GC
2 setlinecap
1 LJ
1.083 LW
N
118 221.105 M
125.06 221.105 L
S
GR
GS
[0.46154 0 0 0.46154 0 0.23077] CT
0.149 GC
2 setlinecap
1 LJ
1.083 LW
N
118 145.803 M
125.06 145.803 L
S
GR
GS
[0.46154 0 0 0.46154 0 0.23077] CT
0.149 GC
2 setlinecap
1 LJ
1.083 LW
N
118 70.501 M
125.06 70.501 L
S
GR
GS
[0.46154 0 0 0.46154 0 0.23077] CT
0.149 GC
2 setlinecap
1 LJ
1.083 LW
N
824 597.615 M
816.94 597.615 L
S
GR
GS
[0.46154 0 0 0.46154 0 0.23077] CT
0.149 GC
2 setlinecap
1 LJ
1.083 LW
N
824 522.313 M
816.94 522.313 L
S
GR
GS
[0.46154 0 0 0.46154 0 0.23077] CT
0.149 GC
2 setlinecap
1 LJ
1.083 LW
N
824 447.011 M
816.94 447.011 L
S
GR
GS
[0.46154 0 0 0.46154 0 0.23077] CT
0.149 GC
2 setlinecap
1 LJ
1.083 LW
N
824 371.709 M
816.94 371.709 L
S
GR
GS
[0.46154 0 0 0.46154 0 0.23077] CT
0.149 GC
2 setlinecap
1 LJ
1.083 LW
N
824 296.407 M
816.94 296.407 L
S
GR
GS
[0.46154 0 0 0.46154 0 0.23077] CT
0.149 GC
2 setlinecap
1 LJ
1.083 LW
N
824 221.105 M
816.94 221.105 L
S
GR
GS
[0.46154 0 0 0.46154 0 0.23077] CT
0.149 GC
2 setlinecap
1 LJ
1.083 LW
N
824 145.803 M
816.94 145.803 L
S
GR
GS
[0.46154 0 0 0.46154 0 0.23077] CT
0.149 GC
2 setlinecap
1 LJ
1.083 LW
N
824 70.501 M
816.94 70.501 L
S
GR
GS
[0.46154 0 0 0.46154 50.46154 276.05285] CT
0.149 GC
/Helvetica 21.667 F
GS
[1 0 0 1 0 0] CT
-36 7.5 moveto 
1 -1 scale
(-10) t 
GR
GR
GS
[0.46154 0 0 0.46154 50.46154 241.29813] CT
0.149 GC
/Helvetica 21.667 F
GS
[1 0 0 1 0 0] CT
-22 7.5 moveto 
1 -1 scale
(-5) t 
GR
GR
GS
[0.46154 0 0 0.46154 50.46154 206.54344] CT
0.149 GC
/Helvetica 21.667 F
GS
[1 0 0 1 0 0] CT
-14 7.5 moveto 
1 -1 scale
(0) t 
GR
GR
GS
[0.46154 0 0 0.46154 50.46154 171.78874] CT
0.149 GC
/Helvetica 21.667 F
GS
[1 0 0 1 0 0] CT
-14 7.5 moveto 
1 -1 scale
(5) t 
GR
GR
GS
[0.46154 0 0 0.46154 50.46154 137.03404] CT
0.149 GC
/Helvetica 21.667 F
GS
[1 0 0 1 0 0] CT
-28 7.5 moveto 
1 -1 scale
(10) t 
GR
GR
GS
[0.46154 0 0 0.46154 50.46154 102.27932] CT
0.149 GC
/Helvetica 21.667 F
GS
[1 0 0 1 0 0] CT
-28 7.5 moveto 
1 -1 scale
(15) t 
GR
GR
GS
[0.46154 0 0 0.46154 50.46154 67.52462] CT
0.149 GC
/Helvetica 21.667 F
GS
[1 0 0 1 0 0] CT
-28 7.5 moveto 
1 -1 scale
(20) t 
GR
GR
GS
[0.46154 0 0 0.46154 50.46154 32.76991] CT
0.149 GC
/Helvetica 21.667 F
GS
[1 0 0 1 0 0] CT
-28 7.5 moveto 
1 -1 scale
(25) t 
GR
GR
GS
[0 -0.46154 0.46154 0 30.84616 152.0768] CT
0.149 GC
/Helvetica 23.833 F
GS
[1 0 0 1 0 0] CT
-123.5 -6 moveto 
1 -1 scale
(Linear Velocity \(m/s\)) t 
GR
GR
GS
[0.46154 0 0 0.46154 217.38483 22.5] CT
/Helvetica-Bold 23.833 F
GS
[1 0 0 1 0 0] CT
-318 -6 moveto 
1 -1 scale
(Forward Velocity Comparison - No Adjustments) t 
GR
GR
GS
[0.46154 0 0 0.46154 0 0.23077] CT
0 0.447 0.741 RC
1 LJ
3.25 LW
N
118 447.011 M
118.596 446.854 L
118.611 446.857 L
118.627 446.863 L
118.642 446.864 L
119.436 446.635 L
119.452 446.634 L
119.62 446.653 L
120.246 446.441 L
120.262 446.439 L
121.056 446.221 L
121.072 446.222 L
121.866 446.026 L
121.881 446.014 L
122.676 445.822 L
122.691 445.823 L
123.486 445.613 L
123.501 445.603 L
124.311 445.421 L
124.326 445.413 L
125.121 445.229 L
125.136 445.228 L
125.198 445.231 L
125.931 445.001 L
125.946 445.001 L
126.741 444.812 L
126.756 444.812 L
127.001 444.831 L
127.551 444.621 L
127.566 444.578 L
127.918 441.833 L
128.223 444.739 L
128.361 444.096 L
128.376 444.12 L
128.483 444.275 L
129.171 443.883 L
129.186 443.886 L
129.201 443.882 L
129.935 443.558 L
129.996 443.575 L
130.011 443.57 L
130.057 443.596 L
130.806 441.091 L
130.821 441.002 L
131.616 434.855 L
131.631 434.734 L
132.426 427.298 L
132.441 427.105 L
133.235 418.043 L
133.251 417.925 L
134.061 406.698 L
134.076 406.449 L
134.871 392.523 L
134.886 392.239 L
135.68 377.02 L
135.696 376.81 L
136.246 370.867 L
136.49 373.175 L
136.506 373.386 L
137.3 395.245 L
137.316 395.709 L
138.11 415.012 L
138.126 415.231 L
138.935 429.455 L
138.951 429.761 L
139.547 437.032 L
139.745 436.146 L
139.761 436.028 L
140.555 429.182 L
140.571 429.034 L
141.365 418.639 L
141.38 418.275 L
142.175 397.672 L
142.19 397.279 L
142.985 375.034 L
143 374.633 L
143.81 357.07 L
143.825 356.864 L
144.391 350.388 L
144.62 350.634 L
144.635 350.617 L
144.681 350.799 L
145.43 347.5 L
145.445 347.481 L
145.476 347.463 L
146.24 351.759 L
146.255 351.833 L
146.943 354.62 L
147.05 354.393 L
147.065 354.36 L
147.31 354.03 L
147.875 361.875 L
147.89 362.21 L
148.685 370.834 L
148.7 370.884 L
149.495 375.072 L
149.51 375.174 L
149.862 376.874 L
150.305 375.153 L
150.32 375.116 L
150.748 373.399 L
151.115 374.603 L
151.13 374.694 L
151.237 374.941 L
151.925 372.209 L
151.94 372.198 L
152.75 376.265 L
152.765 376.356 L
153.56 386.151 L
153.575 386.365 L
154.37 394.535 L
154.385 394.648 L
155.179 400.711 L
155.195 400.895 L
155.714 406.07 L
155.989 404.954 L
156.005 404.885 L
156.799 399.964 L
156.815 399.854 L
157.624 389.793 L
157.64 389.556 L
158.434 372.598 L
158.45 372.312 L
159.244 358.495 L
159.26 358.376 L
160.054 353.735 L
160.069 353.352 L
160.864 339.299 L
160.879 339.028 L
161.643 330.671 L
161.674 330.69 L
161.689 330.736 L
162.499 327.134 L
162.514 327.028 L
162.545 327.074 L
163.049 325.379 L
163.309 326.052 L
163.324 326.103 L
164.119 328.144 L
164.134 328.197 L
164.929 330.618 L
164.944 330.677 L
165.219 330.523 L
165.739 331.052 L
165.754 331.099 L
165.785 331.094 L
166.258 331.956 L
166.549 331.198 L
166.564 330.853 L
166.595 330.624 L
166.747 332.739 L
167.374 331.903 L
167.389 331.928 L
168.184 335.432 L
168.199 335.657 L
168.994 346.627 L
169.009 346.724 L
169.804 356.143 L
169.819 356.373 L
170.614 368.719 L
170.629 369.045 L
171.424 388.174 L
171.439 388.559 L
172.249 407.715 L
172.264 407.945 L
173.059 419.827 L
173.074 419.989 L
173.869 421.76 L
173.884 421.791 L
174.189 422.534 L
174.678 421.991 L
174.694 422.025 L
175.488 425.613 L
175.504 425.618 L
175.595 425.428 L
176.161 425.621 L
176.298 425.554 L
176.314 425.547 L
176.375 425.605 L
177.123 425.467 L
177.139 425.45 L
177.307 425.498 L
177.933 425.368 L
177.949 425.354 L
178.025 425.365 L
178.743 425.297 L
178.759 425.285 L
178.82 425.317 L
179.553 423.57 L
179.568 423.446 L
180.363 416.474 L
180.378 416.338 L
181.173 401.712 L
181.188 401.348 L
181.998 383.326 L
182.013 382.935 L
182.808 366.713 L
182.823 366.484 L
183.098 363.866 L
183.618 366.124 L
183.633 366.206 L
184.428 373.21 L
184.443 373.514 L
185.238 384.902 L
185.253 385.139 L
186.048 396.858 L
186.063 397.008 L
186.873 409.008 L
186.888 409.284 L
187.637 419.637 L
187.683 419.564 L
187.698 419.527 L
188.493 417.239 L
188.508 417.199 L
189.303 414.488 L
189.318 414.366 L
190.113 405.908 L
190.128 405.581 L
190.922 388.783 L
190.938 388.464 L
191.748 371.003 L
191.763 370.663 L
192.558 352.519 L
192.573 352.135 L
193.367 335.976 L
193.383 335.71 L
194.177 318.778 L
194.193 318.535 L
194.987 306.364 L
195.003 306.134 L
195.797 297.23 L
195.813 297.102 L
196.347 294.434 L
196.622 294.843 L
196.638 294.936 L
197.356 297.308 L
197.432 297.262 L
197.448 297.306 L
198.227 299.82 L
198.242 299.802 L
198.258 299.828 L
198.364 299.692 L
199.052 305.406 L
199.067 305.465 L
199.862 312.683 L
199.877 312.875 L
200.687 320.189 L
200.703 320.251 L
201.497 327.622 L
201.512 327.724 L
202.307 336.074 L
202.322 336.098 L
203.117 339.711 L
203.132 339.68 L
203.637 340.521 L
203.927 338.767 L
203.942 338.653 L
204.737 327.984 L
204.752 327.744 L
205.562 318.019 L
205.577 318.024 L
206.372 310.3 L
206.387 310.223 L
207.182 303.408 L
207.197 303.295 L
207.992 298.16 L
208.007 298.142 L
208.802 293.459 L
208.817 293.378 L
209.612 290.539 L
209.627 290.484 L
209.719 290.345 L
209.978 290.994 L
210.437 290.685 L
210.452 290.672 L
210.528 290.924 L
211.247 289.08 L
211.262 289.011 L
211.781 286.322 L
212.057 286.891 L
212.072 286.946 L
212.866 290.097 L
212.882 290.124 L
212.943 289.994 L
213.676 291.942 L
213.692 292.019 L
213.722 292.05 L
214.471 287.398 L
214.486 287.415 L
214.502 287.515 L
215.311 290.525 L
215.327 290.644 L
215.357 290.539 L
216.121 292.689 L
216.137 292.729 L
216.916 296.003 L
216.931 295.99 L
216.947 296.053 L
216.962 296.146 L
217.497 294.855 L
217.741 295.871 L
217.756 295.876 L
218.352 297.052 L
218.551 296.205 L
218.566 296.42 L
219.361 299.291 L
219.376 299.301 L
219.407 299.268 L
220.186 310.105 L
220.201 310.475 L
220.996 329.085 L
221.011 329.47 L
221.806 348.923 L
221.821 349.298 L
222.616 368.258 L
222.631 368.548 L
223.426 389.1 L
223.441 389.552 L
224.236 408.199 L
224.251 408.596 L
225.061 424.946 L
225.076 424.943 L
225.168 424.682 L
225.871 425.422 L
225.886 425.432 L
226.681 426.334 L
226.696 426.363 L
227.491 427.169 L
227.506 427.185 L
228.301 427.917 L
228.316 427.917 L
229.111 428.828 L
229.126 428.833 L
229.936 429.765 L
229.951 429.771 L
230.746 430.575 L
230.761 430.581 L
231.556 431.443 L
231.571 431.444 L
232.365 432.278 L
232.381 432.294 L
233.175 433.154 L
233.191 433.15 L
233.985 433.974 L
234.001 433.971 L
234.062 433.976 L
234.81 426.612 L
234.826 426.36 L
235.62 405.528 L
235.636 405.117 L
236.43 383.303 L
236.446 382.955 L
237.24 359.654 L
237.255 359.165 L
238.05 347.516 L
238.065 347.352 L
238.86 338.56 L
238.875 338.319 L
238.921 338.577 L
239.685 327.601 L
239.7 327.308 L
240.495 315.213 L
240.51 314.791 L
241.305 305.932 L
241.32 305.768 L
242.115 298.48 L
242.13 298.293 L
242.145 298.299 L
242.91 291.953 L
242.925 291.982 L
242.94 291.914 L
243.154 290.838 L
243.597 292.153 L
243.735 291.153 L
243.75 291.051 L
243.811 290.794 L
244.56 292.222 L
244.575 292.264 L
244.896 292.11 L
245.125 296.73 L
245.37 295.785 L
245.385 296.273 L
246.18 301.96 L
246.195 302.221 L
246.44 301.801 L
246.929 303.886 L
246.99 303.764 L
247.005 303.791 L
247.036 303.773 L
247.479 305.487 L
247.8 305.297 L
247.815 305.39 L
248.625 308.176 L
248.64 308.262 L
249.435 311.072 L
249.45 311.173 L
250.245 318.534 L
250.26 318.899 L
251.055 332.537 L
251.07 332.786 L
251.864 351.054 L
251.88 351.41 L
252.674 372.824 L
252.69 373.405 L
253.5 396.727 L
253.515 397.062 L
254.309 410.56 L
254.325 410.786 L
255.058 424.498 L
255.119 424.088 L
255.135 423.902 L
255.929 422.172 L
255.945 422.148 L
256.739 420.55 L
256.754 420.527 L
257.549 418.939 L
257.564 418.906 L
258.374 417.212 L
258.39 417.174 L
259.184 415.616 L
259.199 415.584 L
259.994 414.102 L
260.009 414.068 L
260.804 412.472 L
260.819 412.435 L
261.614 410.986 L
261.629 410.958 L
262.424 409.339 L
262.439 409.308 L
263.249 407.677 L
263.264 407.635 L
264.059 403.267 L
264.074 403.16 L
264.869 396.663 L
264.884 396.553 L
265.679 383.972 L
265.694 383.6 L
266.489 375.141 L
266.504 374.848 L
267.1 365.781 L
267.299 366.313 L
267.314 366.371 L
267.39 366.565 L
267.925 364.079 L
268.124 365.919 L
268.139 366.142 L
268.552 368.85 L
268.934 364.414 L
268.949 364.241 L
269.744 349.735 L
269.759 349.246 L
270.553 324.87 L
270.569 324.348 L
271.363 302.264 L
271.379 301.935 L
272.173 288.542 L
272.189 288.45 L
272.998 284.634 L
273.014 284.553 L
273.732 282.265 L
273.808 282.423 L
273.824 282.482 L
273.854 282.432 L
274.618 285.673 L
274.634 285.837 L
275.428 300.485 L
275.443 300.793 L
276.238 311.179 L
276.253 311.38 L
277.048 327.223 L
277.063 327.524 L
277.873 336.192 L
277.889 336.3 L
278.683 340.463 L
278.698 340.462 L
279.493 335.947 L
279.508 335.865 L
280.303 333.057 L
280.318 333.051 L
281.113 331.038 L
281.128 330.979 L
281.923 329.683 L
281.938 329.645 L
282.748 327.329 L
282.763 327.258 L
283.558 323.103 L
283.573 323.034 L
284.368 318.859 L
284.383 318.793 L
285.178 314.755 L
285.193 314.669 L
285.988 310.586 L
286.003 310.517 L
286.798 306.349 L
286.813 306.255 L
287.623 302.054 L
287.638 301.97 L
288.433 297.812 L
288.448 297.728 L
289.243 293.601 L
289.258 293.516 L
290.052 289.339 L
290.068 289.245 L
290.862 285.074 L
290.878 284.985 L
291.672 280.855 L
291.688 280.768 L
292.497 276.528 L
292.513 276.441 L
293.307 272.274 L
293.323 272.189 L
294.117 266.541 L
294.133 266.41 L
294.927 251.029 L
294.942 250.495 L
295.737 212.482 L
295.752 211.762 L
296.562 183.24 L
296.578 182.892 L
297.372 156.163 L
297.387 155.749 L
298.182 139.447 L
298.197 139.356 L
298.213 139.358 L
298.992 126.43 L
299.007 126.261 L
299.603 120.8 L
299.802 121.737 L
299.817 121.604 L
299.955 120.834 L
300.612 122.929 L
300.627 122.99 L
301.437 124.832 L
301.452 124.861 L
301.483 124.857 L
302.247 127.076 L
302.262 127.133 L
303.057 135.673 L
303.072 135.854 L
303.867 149.274 L
303.882 149.596 L
304.677 163.735 L
304.692 164.03 L
305.487 177.217 L
305.502 177.366 L
306.312 181.622 L
306.327 181.66 L
307.122 182.369 L
307.137 182.416 L
307.763 184.134 L
307.932 183.315 L
307.947 183.203 L
308.741 179.926 L
308.757 179.894 L
309.551 174.442 L
309.567 174.279 L
310.361 158.291 L
310.377 157.716 L
311.186 122.877 L
311.202 122.454 L
311.996 100.192 L
312.012 99.697 L
312.806 79.105 L
312.822 78.799 L
313.616 63.469 L
313.632 63.273 L
314.243 60.248 L
314.426 61.199 L
314.441 61.299 L
314.671 61.785 L
315.19 59.384 L
315.236 59.648 L
315.251 59.714 L
315.282 59.755 L
316.061 58.459 L
316.077 58.555 L
316.184 58.894 L
316.871 54.166 L
316.886 54.028 L
317.33 51 L
317.681 51.542 L
317.696 51.619 L
318.399 54.597 L
318.491 54.461 L
318.506 54.529 L
319.301 62.008 L
319.316 62.268 L
320.111 74.624 L
320.126 74.93 L
320.936 94.32 L
320.951 94.788 L
321.746 117.265 L
321.761 117.774 L
322.556 142.999 L
322.571 143.467 L
323.366 165.383 L
323.381 165.682 L
324.176 181.625 L
324.191 182.028 L
324.986 199.839 L
325.001 200.213 L
325.811 217.713 L
325.826 218.019 L
326.621 234.472 L
326.636 234.755 L
327.431 248.49 L
327.446 248.722 L
328.24 253.789 L
328.256 253.885 L
329.05 260.577 L
329.066 260.767 L
329.86 268.817 L
329.876 268.962 L
330.685 277.527 L
330.701 277.653 L
331.495 283.295 L
331.511 283.401 L
332.305 287.295 L
332.321 287.347 L
333.115 292.516 L
333.13 292.636 L
333.925 300.299 L
333.94 300.466 L
334.735 307.327 L
334.75 307.45 L
335.56 313.654 L
335.576 313.777 L
336.37 319.815 L
336.385 319.929 L
337.18 325.992 L
337.195 326.094 L
337.99 332.219 L
338.005 332.317 L
338.8 338.325 L
338.815 338.452 L
339.61 344.498 L
339.625 344.609 L
340.435 350.849 L
340.45 350.961 L
341.245 357.062 L
341.26 357.182 L
342.055 363.233 L
342.07 363.35 L
342.865 369.432 L
342.88 369.556 L
343.675 375.634 L
343.69 375.761 L
344.5 381.929 L
344.515 382.039 L
345.31 388.13 L
345.325 388.238 L
345.814 391.429 L
346.12 389.09 L
346.135 388.975 L
346.93 379.618 L
346.945 379.247 L
347.739 354.659 L
347.755 354.183 L
348.549 336.993 L
348.565 336.723 L
349.375 320.017 L
349.39 319.635 L
350.184 306.631 L
350.2 306.425 L
350.872 298.933 L
350.994 299.464 L
351.01 299.649 L
351.055 299.974 L
351.804 295.893 L
351.82 295.803 L
352.614 288.177 L
352.629 288.191 L
352.905 287.613 L
353.348 288.454 L
353.424 288.395 L
353.439 288.448 L
353.73 288.461 L
354.249 287.252 L
354.265 287.236 L
354.631 288.242 L
355.059 286.059 L
355.074 285.949 L
355.258 284.6 L
355.869 286.276 L
355.884 286.314 L
356.618 290.501 L
356.679 290.407 L
356.694 290.451 L
356.786 290.325 L
357.474 295.182 L
357.489 295.156 L
357.504 295.216 L
358.222 298.918 L
358.299 297.55 L
358.314 297.58 L
358.329 297.467 L
359.124 301.069 L
359.139 301.13 L
359.781 305.435 L
359.934 304.54 L
359.949 304.61 L
360.744 315.368 L
360.759 315.586 L
361.554 331.69 L
361.569 332.078 L
362.364 339.723 L
362.379 339.837 L
363.174 343.676 L
363.189 343.78 L
363.938 346.83 L
363.999 346.79 L
364.014 346.777 L
364.304 348.741 L
364.809 341.465 L
364.824 341.298 L
364.87 341.171 L
365.619 352.133 L
365.634 352.552 L
366.428 364.542 L
366.444 364.614 L
366.948 366.226 L
367.238 365.326 L
367.254 365.191 L
368.048 353.824 L
368.064 353.45 L
368.874 335.442 L
368.889 335.137 L
369.683 319.893 L
369.699 319.769 L
370.493 309.699 L
370.509 309.615 L
371.212 306.279 L
371.303 306.417 L
371.319 306.536 L
371.67 306.321 L
372.113 309.657 L
372.128 309.37 L
372.19 309.69 L
372.923 303.132 L
372.938 303.057 L
373.565 300.912 L
373.748 301.088 L
373.764 301.099 L
374.543 303.368 L
374.558 303.289 L
374.573 303.312 L
375.215 314.069 L
375.368 313.785 L
375.383 313.826 L
376.178 315.88 L
376.193 316.053 L
376.911 320.263 L
376.988 319.689 L
377.003 319.54 L
377.064 319.315 L
377.798 325.452 L
377.813 325.602 L
378.623 335.027 L
378.638 335.387 L
379.433 347.079 L
379.448 347.113 L
379.463 347.072 L
380.243 348.513 L
380.258 348.578 L
381.037 350.095 L
381.053 350.086 L
381.068 350.129 L
381.282 350.323 L
381.863 348.585 L
381.878 348.872 L
381.893 349.056 L
382.673 341.408 L
382.688 341.192 L
382.902 341.713 L
383.437 339.813 L
383.498 340.057 L
383.513 340.066 L
383.712 339.61 L
384.277 341.558 L
384.308 341.453 L
384.323 341.36 L
384.445 340.769 L
385.118 343.155 L
385.133 343.297 L
385.927 360.885 L
385.943 361.394 L
386.737 394.378 L
386.753 394.909 L
387.547 415.729 L
387.563 416.045 L
388.021 420.289 L
388.372 419.22 L
388.388 419.183 L
389.182 411.753 L
389.198 411.491 L
389.763 403.81 L
389.992 405.342 L
390.008 405.464 L
390.802 417.087 L
390.817 417.198 L
391.582 420.42 L
391.612 420.418 L
391.627 420.419 L
391.796 420.498 L
392.269 420.232 L
392.437 420.392 L
392.453 420.412 L
392.651 420.271 L
393.14 421.546 L
393.247 421.03 L
393.263 420.937 L
394.057 407.178 L
394.072 406.867 L
394.867 392.92 L
394.882 392.552 L
395.677 378.505 L
395.692 378.23 L
396.487 369.613 L
396.502 369.46 L
396.976 365.962 L
397.312 366.309 L
397.327 366.355 L
398.046 368.117 L
398.122 367.374 L
398.137 367.437 L
398.886 369.11 L
398.932 369.017 L
398.947 368.95 L
399.406 366.572 L
399.742 367.608 L
399.757 367.667 L
399.94 367.717 L
400.552 365.427 L
400.567 365.389 L
400.903 364.419 L
401.362 365.449 L
401.377 365.483 L
402.187 384.658 L
402.202 385.122 L
402.997 401.289 L
403.012 401.407 L
403.807 413.727 L
403.822 413.991 L
404.066 413.843 L
404.617 414.853 L
404.632 414.778 L
405.426 408.728 L
405.442 408.534 L
406.236 394.008 L
406.252 393.766 L
407.062 388.143 L
407.077 388.044 L
407.871 377.744 L
407.887 377.601 L
408.681 368.96 L
408.697 368.974 L
409.491 362.784 L
409.507 362.709 L
409.614 362.318 L
410.209 365.566 L
410.301 363.967 L
410.316 363.43 L
410.454 362.881 L
411.111 366.843 L
411.126 366.912 L
411.356 367.747 L
411.936 367.326 L
411.952 367.323 L
412.746 365.001 L
412.761 364.928 L
413.205 364.521 L
413.495 366.324 L
413.556 366.245 L
413.571 366.227 L
414.366 369.039 L
414.381 369.435 L
414.58 368.83 L
415.176 371.932 L
415.191 371.962 L
415.206 371.957 L
415.726 373.413 L
415.986 372.275 L
416.001 372.203 L
416.811 365.741 L
416.826 365.588 L
417.422 361.155 L
417.621 361.346 L
417.636 361.236 L
418.171 359.945 L
418.431 360.392 L
418.446 360.333 L
418.798 361.841 L
419.241 358.842 L
419.256 358.432 L
419.394 358.477 L
419.776 355.48 L
420.051 356.427 L
420.066 356.694 L
420.861 360.747 L
420.876 360.843 L
421.579 363.253 L
421.686 362.486 L
421.701 362.72 L
422.496 367.836 L
422.511 368.029 L
423.306 380.326 L
423.321 380.642 L
424.116 393.482 L
424.131 393.852 L
424.925 403.084 L
424.941 403.143 L
424.971 402.983 L
425.735 405.171 L
425.751 405.259 L
425.873 405.51 L
426.561 403.044 L
426.576 402.979 L
427.37 395.062 L
427.386 394.921 L
427.844 390.591 L
428.18 392.85 L
428.196 392.998 L
428.929 407.031 L
428.99 406.717 L
429.006 406.608 L
429.021 406.599 L
429.8 414.326 L
429.815 414.475 L
430.61 421.378 L
430.625 421.488 L
431.374 429.242 L
431.435 428.957 L
431.451 428.824 L
431.68 428.905 L
432.245 423.395 L
432.26 423.127 L
433.055 399.354 L
433.07 398.893 L
433.865 379.326 L
433.88 379.117 L
434.675 370.904 L
434.69 370.83 L
435.087 368.981 L
435.485 370.251 L
435.5 370.277 L
435.638 370.116 L
436.31 381.449 L
436.325 381.831 L
437.12 405.946 L
437.135 406.516 L
437.93 429.051 L
437.945 429.468 L
438.74 442.469 L
438.755 442.833 L
439.336 449.487 L
439.55 448.775 L
439.565 448.688 L
440.375 436.031 L
440.39 435.99 L
440.436 435.963 L
441.185 440.42 L
441.2 440.518 L
441.246 440.756 L
441.949 433.088 L
441.995 433.182 L
442.01 433.231 L
442.392 432.963 L
442.805 435.427 L
442.82 435.374 L
443.614 443.281 L
443.63 443.234 L
444.424 437.22 L
444.44 436.866 L
445.112 428.263 L
445.25 429.019 L
445.265 428.919 L
445.372 427.88 L
445.708 431.326 L
446.059 430.525 L
446.075 430.43 L
446.869 423.724 L
446.885 423.495 L
447.679 416.343 L
447.695 416.203 L
448.489 412.525 L
448.505 412.305 L
449.284 406.01 L
449.299 406.266 L
449.314 406.344 L
450.124 404.404 L
450.14 404.411 L
450.705 400.176 L
450.934 401.409 L
450.949 401.428 L
451.133 400.461 L
451.652 404.204 L
451.744 403.985 L
451.759 403.981 L
451.775 403.986 L
452.432 400.054 L
452.554 400.395 L
452.569 400.381 L
453.318 396.067 L
453.364 396.805 L
453.379 396.777 L
453.715 397.056 L
454.174 396.181 L
454.189 396.128 L
454.586 394.933 L
454.999 394.94 L
455.014 394.929 L
455.809 392.923 L
455.824 392.766 L
455.84 392.756 L
456.619 396.733 L
456.634 396.864 L
456.924 396.73 L
457.429 399.618 L
457.444 399.788 L
458.239 402.409 L
458.254 402.469 L
458.865 405.357 L
459.049 405.307 L
459.064 405.479 L
459.874 411.866 L
459.889 412.24 L
460.684 424.576 L
460.699 424.816 L
461.494 436.754 L
461.509 436.973 L
462.304 461.782 L
462.319 462.385 L
463.113 486.66 L
463.129 487.128 L
463.923 510.205 L
463.939 510.75 L
464.229 519.094 L
464.749 515.865 L
464.764 515.695 L
465.558 496.526 L
465.574 496.195 L
466.368 480.287 L
466.384 480.07 L
467.178 465.499 L
467.194 465.135 L
467.988 446.654 L
468.003 446.407 L
468.798 434.81 L
468.813 434.682 L
469.348 431.831 L
469.623 432.006 L
469.639 431.993 L
470.418 429.897 L
470.433 429.92 L
470.448 429.9 L
470.464 429.895 L
471.243 445.915 L
471.258 446.057 L
471.946 450.146 L
472.053 450.055 L
472.068 450.142 L
472.863 453.065 L
472.878 453.179 L
473.169 454.125 L
473.673 450.444 L
473.688 450.313 L
474.498 442.479 L
474.513 442.337 L
474.712 441.212 L
475.308 443.271 L
475.323 443.296 L
475.369 443.341 L
475.996 441.61 L
476.118 442.108 L
476.133 442.192 L
476.76 444.42 L
476.928 444.399 L
476.943 444.405 L
477.126 444.951 L
477.738 439.934 L
477.753 439.755 L
477.906 439.012 L
478.502 442.075 L
478.548 441.915 L
478.563 441.75 L
479.373 438.819 L
479.388 438.453 L
480.183 434.422 L
480.198 434.412 L
480.229 434.443 L
480.993 429.654 L
481.008 429.513 L
481.573 424.151 L
481.802 424.96 L
481.818 424.843 L
481.894 425.454 L
482.612 423.458 L
482.628 423.492 L
482.643 423.5 L
483.422 420.117 L
483.438 420.023 L
484.247 418.979 L
484.263 418.989 L
484.721 417.049 L
485.057 418.285 L
485.073 418.358 L
485.653 417.108 L
485.867 419.067 L
485.883 419.368 L
486.081 420.999 L
486.677 418.576 L
486.693 418.493 L
487.013 417.681 L
487.487 419.13 L
487.502 419.156 L
488.267 421.913 L
488.312 421.61 L
488.328 421.598 L
488.725 420.458 L
489.122 421.168 L
489.138 421.149 L
489.153 421.087 L
489.932 422.912 L
489.947 422.959 L
490.681 420.389 L
490.742 420.569 L
490.757 420.777 L
491.002 419.667 L
491.476 421.739 L
491.552 421.675 L
491.567 421.644 L
491.583 421.641 L
492.362 424.858 L
492.377 424.94 L
492.408 424.871 L
493.111 428.093 L
493.187 427.756 L
493.202 427.82 L
493.523 425.063 L
493.722 429.106 L
493.997 428.892 L
494.012 429.121 L
494.41 430.332 L
494.807 429.601 L
494.822 429.637 L
495.082 429.23 L
495.586 430.806 L
495.617 430.677 L
495.632 430.612 L
496.427 424.453 L
496.442 424.311 L
496.503 423.552 L
496.748 426.114 L
497.237 425.449 L
497.252 425.618 L
497.344 425.226 L
498.062 429.744 L
498.077 429.721 L
498.872 436.883 L
498.887 437.074 L
499.682 450.141 L
499.697 450.434 L
500.492 462.53 L
500.507 462.704 L
501.301 480.44 L
501.317 480.848 L
502.111 502.642 L
502.127 503.095 L
502.937 523.894 L
502.952 524.332 L
503.746 544.296 L
503.762 544.564 L
504.556 548.67 L
504.572 548.706 L
505.366 550.538 L
505.382 550.571 L
506.176 552.393 L
506.191 552.441 L
506.986 554.273 L
507.001 554.302 L
507.811 556.188 L
507.827 556.221 L
508.621 558.104 L
508.637 558.141 L
509.431 560.012 L
509.446 560.046 L
510.241 561.979 L
510.256 562.017 L
511.051 563.841 L
511.066 563.867 L
511.861 565.723 L
511.876 565.752 L
512.686 567.613 L
512.701 567.654 L
513.496 569.576 L
513.511 569.615 L
514.306 571.495 L
514.321 571.544 L
515.116 573.42 L
515.131 573.468 L
515.926 575.271 L
515.941 575.307 L
516.736 577.158 L
516.751 577.199 L
517.561 579.096 L
517.576 579.142 L
518.371 581.023 L
518.386 581.061 L
519.181 582.347 L
519.196 582.352 L
519.991 584.373 L
520.006 584.425 L
520.8 586.769 L
520.816 586.796 L
521.61 588.629 L
521.626 588.681 L
522.436 590.564 L
522.451 590.603 L
523.245 592.479 L
523.261 592.505 L
524.055 594.404 L
524.071 594.431 L
524.865 595.925 L
524.881 595.937 L
524.957 596.074 L
525.675 590.679 L
525.69 590.557 L
526.485 574.593 L
526.5 574.135 L
527.31 557.433 L
527.326 557.373 L
528.12 546.519 L
528.135 546.315 L
528.609 537.407 L
528.93 539.232 L
528.945 539.396 L
529.74 554.647 L
529.755 554.888 L
530.397 562.458 L
530.55 562.359 L
530.565 562.394 L
530.978 562.692 L
531.36 557.408 L
531.375 557.178 L
532.185 545.956 L
532.2 545.797 L
532.995 531.733 L
533.01 531.442 L
533.805 515.704 L
533.82 515.339 L
534.615 498.058 L
534.63 497.769 L
535.425 486.196 L
535.44 486.093 L
536.25 481.66 L
536.265 481.41 L
537.06 474.63 L
537.075 474.453 L
537.625 473.664 L
537.824 475.056 L
537.87 474.894 L
537.885 474.82 L
537.946 474.472 L
538.68 478.005 L
538.695 478.054 L
539.49 484.807 L
539.505 485.08 L
540.299 496.595 L
540.315 496.869 L
541.125 514.078 L
541.14 514.423 L
541.935 532.07 L
541.95 532.429 L
542.744 550.809 L
542.76 551.235 L
543.554 572.529 L
543.57 572.952 L
544.364 589.177 L
544.38 589.408 L
545.174 601.933 L
545.189 602.061 L
545.281 602.534 L
545.999 601.939 L
546.015 601.904 L
546.809 601.685 L
546.825 601.692 L
547.543 601.466 L
547.619 601.498 L
547.634 601.483 L
548.383 601.144 L
548.429 601.155 L
548.444 601.146 L
549.208 600.771 L
549.239 600.785 L
549.254 600.771 L
550.034 598.436 L
550.049 598.439 L
550.064 598.44 L
550.248 598.451 L
550.813 598.269 L
550.874 598.289 L
550.889 598.282 L
550.951 598.289 L
551.684 591.572 L
551.699 591.288 L
552.494 560.945 L
552.509 560.317 L
553.304 534.964 L
553.319 534.518 L
554.114 512.867 L
554.129 512.507 L
554.863 501.871 L
554.924 502.073 L
554.939 502.148 L
555.718 506.512 L
555.749 506.4 L
555.764 506.416 L
555.779 506.438 L
556.559 501.059 L
556.574 500.813 L
557.369 495.573 L
557.384 495.098 L
558.179 480.525 L
558.194 480.45 L
558.209 480.454 L
558.988 469.075 L
559.004 468.656 L
559.798 452.38 L
559.814 452.031 L
560.624 437.998 L
560.639 437.829 L
561.388 431.308 L
561.433 431.363 L
561.449 431.241 L
561.51 430.945 L
562.228 434.032 L
562.243 434.027 L
562.259 434.072 L
562.427 434.012 L
563.053 439.483 L
563.069 439.554 L
563.451 442.789 L
563.863 442.382 L
563.878 442.432 L
564.673 443.952 L
564.688 444.023 L
565.498 446.594 L
565.514 446.697 L
566.308 451.543 L
566.323 451.912 L
567.118 466.215 L
567.133 466.534 L
567.928 483.564 L
567.943 483.903 L
568.738 500.002 L
568.753 500.232 L
569.548 511.223 L
569.563 511.348 L
570.373 517.524 L
570.388 517.621 L
570.556 518.155 L
571.183 514.686 L
571.198 514.638 L
571.993 513.484 L
572.008 513.461 L
572.803 511.318 L
572.818 511.239 L
573.613 506.839 L
573.628 506.749 L
574.423 502.383 L
574.438 502.282 L
575.248 497.945 L
575.263 497.844 L
576.058 493.51 L
576.073 493.426 L
576.868 489.07 L
576.883 488.986 L
577.677 484.621 L
577.693 484.544 L
578.487 480.156 L
578.503 480.083 L
579.297 475.63 L
579.313 475.487 L
580.123 467.792 L
580.138 467.639 L
580.932 458.852 L
580.948 458.585 L
581.742 436.403 L
581.758 436.017 L
582.552 413.421 L
582.568 412.97 L
583.362 390.62 L
583.378 389.948 L
584.187 367.606 L
584.203 367.224 L
584.997 353.852 L
585.013 353.743 L
585.807 350.623 L
585.823 350.607 L
586.617 337.874 L
586.632 337.747 L
587.213 338.99 L
587.427 334.751 L
587.442 334.559 L
588.237 321.025 L
588.252 320.764 L
589.062 315.524 L
589.077 315.492 L
589.215 315.129 L
589.872 317.384 L
589.887 317.535 L
590.361 319.253 L
590.575 316.155 L
590.682 317.023 L
590.697 316.577 L
590.743 315.812 L
591.492 324.183 L
591.507 324.367 L
592.302 341.827 L
592.317 342.102 L
593.112 358.92 L
593.127 359.003 L
593.937 374.922 L
593.952 375.34 L
594.747 401.548 L
594.762 402.108 L
595.557 432.68 L
595.572 433.248 L
596.367 465.665 L
596.382 466.301 L
597.177 492.949 L
597.192 493.29 L
597.986 500.5 L
598.002 500.597 L
598.812 508.207 L
598.827 508.365 L
599.622 512.746 L
599.637 512.82 L
600.431 517.321 L
600.447 517.408 L
601.241 521.82 L
601.257 521.915 L
602.051 526.347 L
602.067 526.443 L
602.433 528.282 L
602.861 525.801 L
602.876 525.695 L
603.686 506.567 L
603.702 505.846 L
604.496 480.219 L
604.512 479.8 L
605.306 459.275 L
605.321 458.852 L
606.116 438.4 L
606.131 437.95 L
606.926 413.959 L
606.941 413.874 L
606.957 413.821 L
607.736 435.296 L
607.751 435.695 L
608.561 474.447 L
608.576 475.18 L
609.371 495.955 L
609.386 496.148 L
610.181 498.932 L
610.196 499.014 L
610.869 506.396 L
610.991 506.109 L
611.006 506.022 L
611.801 491.189 L
611.816 490.859 L
612.611 471.695 L
612.626 471.234 L
613.436 447.656 L
613.451 447.358 L
614.246 436.361 L
614.261 436.254 L
615.056 431.032 L
615.071 430.899 L
615.728 428.499 L
615.866 428.658 L
615.881 428.516 L
615.973 427.544 L
616.186 429.791 L
616.675 428.294 L
616.691 428.474 L
617.485 437.383 L
617.501 437.569 L
618.311 442.651 L
618.326 442.707 L
619.12 455.226 L
619.136 455.573 L
619.93 467.492 L
619.946 467.657 L
620.74 470.51 L
620.756 470.578 L
621.55 472.762 L
621.565 472.775 L
621.657 473.013 L
622.36 463.825 L
622.375 463.452 L
623.185 447.185 L
623.201 447.172 L
623.995 464.414 L
624.01 464.718 L
624.775 469.377 L
624.805 469.297 L
624.82 469.293 L
625.615 486.778 L
625.63 487.023 L
626.425 505.359 L
626.44 505.682 L
627.235 522.371 L
627.25 522.513 L
627.571 525.928 L
628.06 523.396 L
628.075 523.294 L
628.87 510.491 L
628.885 510.19 L
629.68 501.755 L
629.695 501.639 L
629.955 500.29 L
630.49 500.614 L
630.505 500.463 L
631.3 492.593 L
631.315 492.385 L
632.125 478.581 L
632.14 478.359 L
632.935 461.667 L
632.95 461.364 L
633.607 452.117 L
633.745 452.322 L
633.76 452.319 L
633.928 452.814 L
634.555 448.469 L
634.57 448.394 L
634.769 447.975 L
635.319 449.526 L
635.365 449.446 L
635.38 449.425 L
635.471 449.328 L
636.174 455.269 L
636.19 455.506 L
637 468.405 L
637.015 468.644 L
637.81 481.316 L
637.825 481.384 L
638.619 486.751 L
638.635 487.016 L
639.429 494.161 L
639.445 494.176 L
640.239 499.823 L
640.255 499.916 L
641.049 502.563 L
641.064 502.575 L
641.859 504.404 L
641.874 504.401 L
641.89 504.391 L
641.951 504.41 L
642.684 500.483 L
642.7 500.411 L
642.822 499.984 L
643.494 507.116 L
643.509 507.211 L
643.846 508.457 L
644.304 508.289 L
644.319 508.31 L
645.099 509.613 L
645.114 509.563 L
645.129 509.499 L
645.924 507.655 L
645.939 507.604 L
646.749 496.881 L
646.764 496.5 L
647.559 470.812 L
647.574 470.419 L
648.369 456.914 L
648.384 456.741 L
648.415 456.593 L
649.179 472.928 L
649.194 473.293 L
649.989 497.324 L
650.004 497.806 L
650.799 521.629 L
650.814 522.153 L
651.624 539.25 L
651.639 539.614 L
652.434 552.918 L
652.449 553.187 L
653.03 562.527 L
653.244 561.148 L
653.259 561.014 L
653.885 558.128 L
654.054 558.342 L
654.069 558.367 L
654.864 564.581 L
654.879 564.712 L
654.97 565.153 L
655.673 564.921 L
655.689 564.927 L
655.78 564.901 L
656.132 564.981 L
656.499 564.913 L
656.514 564.92 L
656.697 564.911 L
657.14 564.97 L
657.309 564.942 L
657.324 564.957 L
657.385 564.94 L
658.073 565.077 L
658.118 565.028 L
658.134 565.035 L
658.256 565.058 L
658.745 564.975 L
658.928 565.012 L
658.944 565.018 L
659.035 564.985 L
659.692 565.09 L
659.738 565.074 L
659.754 565.08 L
659.845 565.057 L
660.441 565.124 L
660.548 565.1 L
660.563 565.082 L
660.762 565.106 L
661.007 565.058 L
661.373 565.096 L
661.389 565.089 L
661.404 565.075 L
662.137 565.182 L
662.183 565.147 L
662.199 565.152 L
662.932 565.164 L
662.993 565.116 L
663.008 565.13 L
663.436 565.155 L
663.803 565.087 L
663.818 565.098 L
664.002 565.077 L
664.552 565.165 L
664.613 565.157 L
664.628 565.168 L
664.98 565.2 L
665.408 565.143 L
665.423 565.15 L
665.438 565.164 L
665.515 565.159 L
666.172 565.263 L
666.248 565.25 L
666.263 565.256 L
666.279 565.261 L
666.951 565.193 L
667.058 565.203 L
667.073 565.211 L
667.822 565.311 L
667.868 565.297 L
667.883 565.29 L
668.219 565.342 L
668.678 562.91 L
668.693 562.806 L
669.488 544.869 L
669.503 544.076 L
670.298 507.683 L
670.313 507.219 L
671.123 483.346 L
671.138 483.011 L
671.933 464.974 L
671.948 464.839 L
672.743 456.365 L
672.758 456.275 L
673.553 448.265 L
673.568 448.013 L
674.194 444.009 L
674.362 444.66 L
674.378 444.724 L
675.127 447.522 L
675.172 447.361 L
675.188 447.459 L
675.998 456.063 L
676.013 456.367 L
676.807 475.187 L
676.823 475.678 L
677.617 495.591 L
677.633 496.041 L
678.427 514.664 L
678.443 514.97 L
679.237 532.065 L
679.253 532.387 L
680.062 542.879 L
680.078 543.073 L
680.872 551.66 L
680.888 551.823 L
681.591 558.633 L
681.682 558.372 L
681.698 558.366 L
682.4 557.516 L
682.492 557.545 L
682.507 557.543 L
682.767 557.64 L
683.302 556.775 L
683.317 556.731 L
683.852 555.894 L
684.112 556.187 L
684.127 556.21 L
684.937 556.937 L
684.952 556.953 L
685.059 557.01 L
685.747 556.771 L
685.762 556.776 L
686.557 551.664 L
686.572 551.54 L
687.367 541.622 L
687.382 541.181 L
688.177 527.553 L
688.192 527.472 L
688.987 519.524 L
689.002 519.457 L
689.69 516.634 L
689.812 516.86 L
689.827 516.953 L
690.622 520.984 L
690.637 521.091 L
691.432 529.721 L
691.447 529.955 L
692.089 539.058 L
692.242 538.952 L
692.257 538.951 L
692.349 538.985 L
693.052 534.145 L
693.067 534.034 L
693.861 514.474 L
693.877 513.949 L
694.687 492.973 L
694.702 492.598 L
695.497 481.436 L
695.512 481.436 L
696.306 494.524 L
696.322 494.808 L
697.116 505.999 L
697.132 506.028 L
697.743 507.274 L
697.926 505.296 L
697.942 504.979 L
698.507 496.055 L
698.736 496.92 L
698.751 497.016 L
699.042 498.288 L
699.561 492.951 L
699.577 492.714 L
700.371 480.432 L
700.387 480.277 L
700.692 478.095 L
701.181 479.6 L
701.196 479.665 L
701.991 484.884 L
702.006 484.985 L
702.801 489.831 L
702.816 489.965 L
703.015 489.835 L
703.611 493.698 L
703.626 493.798 L
704.436 503.235 L
704.451 503.494 L
705.246 519.171 L
705.261 519.564 L
706.056 536.647 L
706.071 536.857 L
706.285 538.858 L
706.866 534.763 L
706.881 534.722 L
707.141 534.512 L
707.676 538.046 L
707.691 538.156 L
707.813 538.798 L
708.486 538.677 L
708.501 538.697 L
709.143 539.69 L
709.311 539.542 L
709.326 539.547 L
709.372 539.572 L
710.121 539.322 L
710.136 539.326 L
710.151 539.327 L
710.915 539.099 L
710.931 539.108 L
710.946 539.112 L
711.741 538.841 L
711.756 538.84 L
712.535 538.539 L
712.55 538.549 L
712.566 538.547 L
713.36 537.333 L
713.376 537.297 L
714.186 531.503 L
714.201 531.327 L
714.384 529.672 L
714.995 532.861 L
715.011 532.984 L
715.805 538.826 L
715.821 538.916 L
716.615 541.722 L
716.631 541.748 L
717.425 543.205 L
717.441 543.228 L
718.235 544.69 L
718.25 544.723 L
719.06 546.267 L
719.076 546.3 L
719.87 547.716 L
719.886 547.755 L
720.68 549.177 L
720.695 549.211 L
721.49 550.612 L
721.505 550.643 L
722.3 552.113 L
722.315 552.103 L
723.11 548.063 L
723.125 547.953 L
723.935 533.678 L
723.95 533.335 L
724.745 521.662 L
724.76 521.335 L
725.387 503.483 L
725.555 515.571 L
725.57 517.023 L
726.151 545.617 L
726.365 544.041 L
726.38 543.929 L
727.007 539.564 L
727.175 541.768 L
727.19 542.102 L
728 557.241 L
728.015 557.315 L
728.81 561.444 L
728.825 561.528 L
728.947 562.033 L
729.62 555.816 L
729.635 555.688 L
730.43 535.864 L
730.445 535.283 L
731.24 510.774 L
731.255 510.216 L
732.049 490.894 L
732.065 490.386 L
732.875 472.752 L
732.89 472.473 L
733.685 464.685 L
733.7 464.415 L
734.495 455.869 L
734.51 455.707 L
734.663 454.93 L
735.304 457.948 L
735.32 457.948 L
735.472 458.406 L
736.114 453.632 L
736.13 453.565 L
736.389 451.706 L
736.924 453.686 L
736.94 453.707 L
737.749 456.673 L
737.765 456.882 L
738.559 472.022 L
738.575 472.393 L
739.369 486.354 L
739.385 486.387 L
740.179 488.314 L
740.194 488.424 L
740.989 490.964 L
741.004 490.984 L
741.035 491.054 L
741.799 485.699 L
741.814 485.557 L
742.624 475.819 L
742.639 475.771 L
743.312 472.907 L
743.434 473.046 L
743.449 472.964 L
743.999 468.699 L
744.244 470.368 L
744.259 470.184 L
744.381 469.104 L
744.947 472.125 L
745.054 471.438 L
745.069 471.39 L
745.1 471.295 L
745.849 473.369 L
745.864 473.265 L
745.879 473.236 L
745.894 473.189 L
746.674 476 L
746.689 476.027 L
746.781 475.933 L
747.3 476.71 L
747.499 475.984 L
747.514 475.915 L
748.309 470.997 L
748.324 470.844 L
748.523 469.507 L
749.119 471.186 L
749.134 471.229 L
749.929 475.285 L
749.944 475.496 L
750.739 487.431 L
750.754 487.625 L
751.548 499.345 L
751.564 499.603 L
752.374 512.376 L
752.389 512.499 L
753.184 522.578 L
753.199 522.875 L
753.993 535.911 L
754.009 536.071 L
754.33 538.753 L
754.803 537.95 L
754.819 537.964 L
754.987 537.804 L
755.613 541.95 L
755.629 542.05 L
756.026 544.275 L
756.423 542.869 L
756.438 542.82 L
756.759 541.805 L
757.248 544.518 L
757.264 544.702 L
757.615 547.341 L
758.058 545.155 L
758.074 545.096 L
758.868 537.621 L
758.883 537.429 L
759.678 525.008 L
759.693 524.779 L
760.228 520.862 L
760.488 521.808 L
760.503 521.894 L
761.298 527.449 L
761.313 527.588 L
762.123 536.466 L
762.138 536.738 L
762.933 556.946 L
762.948 557.356 L
763.743 578.196 L
763.758 578.598 L
764.064 586.376 L
764.553 585.443 L
764.568 585.448 L
764.904 585.074 L
765.363 585.596 L
765.378 585.614 L
766.173 585.821 L
766.188 585.837 L
766.998 586.167 L
767.013 586.167 L
767.808 586.39 L
767.823 586.397 L
768.587 586.679 L
768.618 586.676 L
768.633 586.684 L
769.428 587.019 L
769.443 587.023 L
770.192 587.252 L
770.237 587.242 L
770.253 587.247 L
770.986 587.504 L
771.047 587.494 L
771.063 587.498 L
771.078 587.494 L
771.873 587.765 L
771.888 587.768 L
771.903 587.766 L
772.667 588.02 L
772.683 588.01 L
772.698 588.014 L
773.477 588.313 L
773.492 588.311 L
773.508 588.308 L
773.523 588.308 L
774.302 588.593 L
774.318 588.587 L
774.333 588.582 L
775.097 588.846 L
775.112 588.843 L
775.128 588.833 L
775.922 589.137 L
775.937 589.135 L
775.953 589.138 L
776.701 589.435 L
776.747 589.431 L
776.763 589.439 L
776.778 589.439 L
777.557 589.738 L
777.573 589.734 L
778.367 589.975 L
778.382 589.983 L
779.177 590.219 L
779.192 590.231 L
779.208 590.231 L
779.987 590.466 L
780.002 590.476 L
780.812 590.725 L
780.828 590.72 L
781.622 590.972 L
781.637 590.98 L
782.401 591.289 L
782.432 591.282 L
782.447 591.287 L
783.242 591.54 L
783.257 591.554 L
784.052 591.793 L
784.067 591.803 L
784.862 592.064 L
784.877 592.071 L
785.687 592.375 L
785.702 592.379 L
786.497 592.665 L
786.512 592.673 L
787.307 592.951 L
787.322 592.97 L
788.117 593.302 L
788.132 593.311 L
788.927 593.554 L
788.942 593.561 L
788.972 593.56 L
789.737 593.875 L
789.752 593.887 L
790.562 594.203 L
790.577 594.203 L
791.372 594.507 L
791.387 594.504 L
792.181 594.7 L
792.197 594.707 L
792.991 594.963 L
793.007 594.968 L
793.801 595.208 L
793.817 595.213 L
794.55 595.442 L
794.611 595.431 L
794.627 595.432 L
795.436 595.733 L
795.452 595.732 L
795.467 595.732 L
796.246 596.009 L
796.262 596.014 L
797.056 596.298 L
797.072 596.298 L
797.117 596.292 L
797.866 596.557 L
797.881 596.563 L
797.912 596.562 L
798.676 596.85 L
798.691 596.857 L
799.486 597.15 L
799.501 597.163 L
800.311 597.48 L
800.326 597.488 L
801.121 597.859 L
801.136 597.863 L
801.931 598.198 L
801.946 598.206 L
802.741 598.429 L
802.756 598.445 L
803.551 598.77 L
803.566 598.779 L
804.361 599.139 L
804.376 599.145 L
805.186 599.47 L
805.201 599.478 L
805.996 599.716 L
806.011 599.718 L
806.806 600.091 L
806.821 600.103 L
807.616 600.447 L
807.631 600.458 L
807.661 600.456 L
808.426 600.734 L
808.441 600.741 L
808.471 600.741 L
809.235 600.979 L
809.251 600.989 L
810.061 601.303 L
810.076 601.307 L
810.871 601.606 L
810.886 601.616 L
811.68 601.932 L
811.696 601.934 L
812.46 602.244 L
812.49 602.24 L
812.506 602.245 L
813.3 602.64 L
813.316 602.642 L
814.11 602.927 L
814.125 602.939 L
814.935 603.279 L
814.951 603.286 L
815.745 603.493 L
815.761 603.501 L
816.509 603.839 L
816.555 603.835 L
816.57 603.852 L
817.319 604.133 L
817.365 604.13 L
817.38 604.141 L
818.175 604.451 L
818.19 604.452 L
818.985 604.788 L
819 604.795 L
819.321 604.788 L
819.81 605.062 L
819.825 605.082 L
820.406 605.459 L
820.62 605.427 L
820.635 605.431 L
821.43 605.71 L
821.445 605.721 L
822.24 606.177 L
822.255 606.184 L
823.004 606.497 L
823.05 606.486 L
823.065 606.492 L
823.875 606.842 L
823.89 606.845 L
824.084 606.913 L
S
GR
GS
[0.46154 0 0 0.46154 0 0.23077] CT
0.851 0.325 0.098 RC
1 LJ
3.25 LW
N
118 447.011 M
118.611 447.011 L
119.223 447.011 L
119.834 447.011 L
120.445 447.011 L
121.056 447.011 L
121.668 447.011 L
122.279 447.011 L
122.89 447.011 L
123.501 447.011 L
124.113 447.011 L
124.724 447.011 L
125.335 447.011 L
125.946 447.011 L
126.558 447.011 L
127.169 447.011 L
127.78 447.011 L
128.391 447.011 L
129.003 447.011 L
129.614 447.011 L
130.225 447.011 L
130.836 444.942 L
131.448 442.022 L
132.059 440.068 L
132.67 435.246 L
133.281 425.373 L
133.893 420.039 L
134.504 411.715 L
135.115 400.618 L
135.726 387.603 L
136.338 380.841 L
136.949 384.915 L
137.56 400.707 L
138.171 416.064 L
138.783 430.155 L
139.394 441.435 L
140.005 444.223 L
140.616 443.539 L
141.228 438.395 L
141.839 427.061 L
142.45 415.245 L
143.061 397.451 L
143.673 385.573 L
144.284 374.304 L
144.895 371.034 L
145.506 369.935 L
146.118 370.353 L
146.729 376.213 L
147.34 379.587 L
147.952 382.586 L
148.563 391.096 L
149.174 396.783 L
149.785 402.21 L
150.397 399.568 L
151.008 405.19 L
151.619 402.402 L
152.23 402.21 L
152.842 407.759 L
153.453 404.379 L
154.064 415.72 L
154.675 421.579 L
155.287 415.594 L
155.898 415.766 L
156.509 418.04 L
157.12 419.017 L
157.732 413.926 L
158.343 402.035 L
158.954 390.142 L
159.565 380.841 L
160.177 378.249 L
160.788 368.951 L
161.399 357.799 L
162.01 354.461 L
162.622 354.461 L
163.233 355.456 L
163.844 353.701 L
164.455 354.461 L
165.067 355.18 L
165.678 357.799 L
166.289 357.799 L
166.9 356.494 L
167.512 359.152 L
168.123 362.432 L
168.734 367.746 L
169.345 370.389 L
169.957 382.279 L
170.568 388.846 L
171.179 399.431 L
171.79 414.645 L
172.402 429.168 L
173.013 440.068 L
173.624 441.063 L
174.235 444.223 L
174.847 444.223 L
175.458 447.011 L
176.069 447.011 L
176.681 447.011 L
177.292 447.011 L
177.903 447.011 L
178.514 447.011 L
179.126 447.011 L
179.737 447.011 L
180.348 441.063 L
180.959 435.116 L
181.571 423.221 L
182.182 408.7 L
182.793 398.673 L
183.404 391.513 L
184.016 391.513 L
184.627 393.037 L
185.238 407.11 L
185.849 413.49 L
186.461 421.918 L
187.072 430.155 L
187.683 447.011 L
188.294 447.011 L
188.906 444.223 L
189.517 441.063 L
190.128 437.679 L
190.739 425.813 L
191.351 411.134 L
191.962 396.512 L
192.573 378.874 L
193.184 366.049 L
193.796 354.829 L
194.407 344.397 L
195.018 331.331 L
195.629 326.362 L
196.241 319.582 L
196.852 319.582 L
197.463 320.006 L
198.074 321.391 L
198.686 324.985 L
199.297 326.768 L
199.908 334.478 L
200.519 337.606 L
201.131 343.488 L
201.742 348.469 L
202.353 356.634 L
202.965 361.976 L
203.576 364.764 L
204.187 363.405 L
204.798 356.146 L
205.41 349.859 L
206.021 341.265 L
206.632 336.728 L
207.243 330.813 L
207.855 327.691 L
208.466 323.193 L
209.077 319.583 L
209.688 317.766 L
210.3 319.066 L
210.911 318.218 L
211.522 318.577 L
212.133 317.103 L
212.745 317.103 L
213.356 320.338 L
213.967 321.789 L
214.578 319.066 L
215.19 320.318 L
215.801 320.318 L
216.412 321.52 L
217.023 325.859 L
217.635 324.551 L
218.246 328.168 L
218.857 327.077 L
219.468 329.066 L
220.08 335.71 L
220.691 347.166 L
221.302 360.465 L
221.913 375.327 L
222.525 388.187 L
223.136 405.298 L
223.747 417.035 L
224.358 431.801 L
224.97 442.022 L
225.581 447.011 L
226.192 447.011 L
226.803 447.011 L
227.415 447.011 L
228.026 447.011 L
228.637 447.011 L
229.248 443.539 L
229.86 447.011 L
230.471 447.011 L
231.082 447.011 L
231.694 447.011 L
232.305 447.011 L
232.916 447.011 L
233.527 447.011 L
234.139 447.011 L
234.75 444.223 L
235.361 435.246 L
235.972 418.573 L
236.584 404.831 L
237.195 386.714 L
237.806 370.25 L
238.417 366.098 L
239.029 357.778 L
239.64 350.232 L
240.251 341.198 L
240.862 333.641 L
241.474 330.187 L
242.085 325.335 L
242.696 320.473 L
243.307 319.044 L
243.919 315.601 L
244.53 318.432 L
245.141 318.432 L
245.752 319.076 L
246.364 324.65 L
246.975 326.733 L
247.586 330.187 L
248.197 326.004 L
248.809 332.235 L
249.42 332.235 L
250.031 336.676 L
250.642 341.6 L
251.254 350.891 L
251.865 364.658 L
252.476 383.288 L
253.087 398.475 L
253.699 416.592 L
254.31 430.326 L
254.921 440.208 L
255.532 447.011 L
256.144 447.011 L
256.755 447.011 L
257.366 447.011 L
257.977 447.011 L
258.589 447.011 L
259.2 447.011 L
259.811 447.011 L
260.423 447.011 L
261.034 447.011 L
261.645 447.011 L
262.256 447.011 L
262.868 444.223 L
263.479 447.011 L
264.09 444.223 L
264.701 443.539 L
265.313 440.208 L
265.924 433.71 L
266.535 427.057 L
267.146 423.755 L
267.758 419.8 L
268.369 423.586 L
268.98 420.122 L
269.591 414.042 L
270.203 403.611 L
270.814 381.795 L
271.425 369.543 L
272.036 359.761 L
272.648 351.591 L
273.259 348.127 L
273.87 355.053 L
274.481 361.22 L
275.093 369.543 L
275.704 386.173 L
276.315 396.956 L
276.926 410.019 L
277.538 421.486 L
278.149 429.778 L
278.76 438.647 L
279.371 435.668 L
279.983 435.668 L
280.594 438.647 L
281.205 438.647 L
281.816 441.063 L
282.428 447.011 L
283.039 447.011 L
283.65 447.011 L
284.261 447.011 L
284.873 447.011 L
285.484 447.011 L
286.095 444.942 L
286.707 444.942 L
287.318 447.011 L
287.929 447.011 L
288.54 447.011 L
289.152 447.011 L
289.763 447.011 L
290.374 447.011 L
290.985 447.011 L
291.597 447.011 L
292.208 447.011 L
292.819 444.942 L
293.43 447.011 L
294.042 444.223 L
294.653 443.539 L
295.264 432.045 L
295.875 409.683 L
296.487 387.059 L
297.098 372.183 L
297.709 358.924 L
298.32 344.019 L
298.932 333.983 L
299.543 329.037 L
300.154 332.378 L
300.765 338.829 L
301.377 343.788 L
301.988 350.539 L
302.599 355.504 L
303.21 365.587 L
303.822 377.242 L
304.433 390.439 L
305.044 405.48 L
305.655 417.035 L
306.267 426.912 L
306.878 433.405 L
307.489 437.034 L
308.1 442.022 L
308.712 442.874 L
309.323 442.022 L
309.934 442.874 L
310.545 432.045 L
311.157 413.641 L
311.768 392.011 L
312.379 378.719 L
312.99 365.113 L
313.602 350.539 L
314.213 341.958 L
314.824 341.958 L
315.435 335.155 L
316.047 331.746 L
316.658 326.812 L
317.269 319.993 L
317.881 311.652 L
318.492 309.741 L
319.103 311.651 L
319.714 311.23 L
320.326 316.578 L
320.937 326.417 L
321.548 338.178 L
322.159 351.839 L
322.771 368.092 L
323.382 381.794 L
323.993 391.621 L
324.604 399.951 L
325.216 412.075 L
325.827 417.035 L
326.438 428.347 L
327.049 435.261 L
327.661 442.022 L
328.272 443.539 L
328.883 442.022 L
329.494 444.223 L
330.106 444.942 L
330.717 447.011 L
331.328 447.011 L
331.939 447.011 L
332.551 444.942 L
333.162 444.942 L
333.773 444.223 L
334.384 447.011 L
334.996 447.011 L
335.607 447.011 L
336.218 447.011 L
336.829 447.011 L
337.441 447.011 L
338.052 447.011 L
338.663 447.011 L
339.274 447.011 L
339.886 447.011 L
340.497 447.011 L
341.108 447.011 L
341.719 447.011 L
342.331 447.011 L
342.942 444.223 L
343.553 447.011 L
344.164 447.011 L
344.776 447.011 L
345.387 447.011 L
345.998 447.011 L
346.61 440.068 L
347.221 427.056 L
347.832 406.813 L
348.443 388.613 L
349.055 370.037 L
349.666 361.697 L
350.277 347.996 L
350.888 339.662 L
351.5 333.259 L
352.111 329.362 L
352.722 325.924 L
353.333 325.924 L
353.945 322.539 L
354.556 320.403 L
355.167 320.792 L
355.778 317.514 L
356.39 319.785 L
357.001 320.984 L
357.612 320.984 L
358.223 323.256 L
358.835 323.256 L
359.446 326.467 L
360.057 328.108 L
360.668 331.567 L
361.28 339.851 L
361.891 350.756 L
362.502 355.503 L
363.113 357.967 L
363.725 361.422 L
364.336 361.975 L
364.947 360.48 L
365.558 358.57 L
366.17 367.966 L
366.781 367.893 L
367.392 365.601 L
368.003 360.608 L
368.615 350.651 L
369.226 337.354 L
369.837 329.064 L
370.448 319.094 L
371.06 314.108 L
371.671 310.739 L
372.282 312.429 L
372.894 310.758 L
373.505 305.781 L
374.116 307.411 L
374.727 305.668 L
375.339 312.452 L
375.95 312.452 L
376.561 314.109 L
377.172 315.777 L
377.784 317.359 L
378.395 319.079 L
379.006 329.035 L
379.617 335.632 L
380.229 340.691 L
380.84 342.349 L
381.451 344.018 L
382.062 342.349 L
382.674 337.355 L
383.285 332.06 L
383.896 330.489 L
384.507 332.376 L
385.119 335.71 L
385.73 338.987 L
386.341 357.261 L
386.952 380.506 L
387.564 398.475 L
388.175 408.694 L
388.786 410.459 L
389.397 407.102 L
390.009 398.826 L
390.62 400.353 L
391.231 406.813 L
391.842 410.459 L
392.454 410.459 L
393.065 408.8 L
393.676 407.102 L
394.287 397.125 L
394.899 385.546 L
395.51 375.446 L
396.121 363.839 L
396.732 355.632 L
397.344 353.985 L
397.955 353.985 L
398.566 355.629 L
399.177 357.306 L
399.789 358.924 L
400.4 355.629 L
401.011 355.629 L
401.622 358.924 L
402.234 368.929 L
402.845 384.1 L
403.456 389.4 L
404.068 393.395 L
404.679 390.076 L
405.29 383.269 L
405.901 377.861 L
406.513 366.785 L
407.124 361.165 L
407.735 357.696 L
408.346 352.033 L
408.958 347.555 L
409.569 344.084 L
410.18 342.865 L
410.791 341.806 L
411.403 347.555 L
412.014 347.555 L
412.625 346.337 L
413.236 345.091 L
413.848 349.809 L
414.459 352.033 L
415.07 354.227 L
415.681 356.752 L
416.293 356.839 L
416.904 351.036 L
417.515 347.573 L
418.126 346.439 L
418.738 345.276 L
419.349 344.085 L
419.96 343.819 L
420.571 345.276 L
421.183 349.809 L
421.794 348.746 L
422.405 349.906 L
423.016 355.505 L
423.628 362.446 L
424.239 374.109 L
424.85 379.963 L
425.461 385.441 L
426.073 386.174 L
426.684 384.749 L
427.295 376.867 L
427.906 370.038 L
428.518 369.543 L
429.129 381.307 L
429.74 387.149 L
430.352 388.188 L
430.963 392.518 L
431.574 388.461 L
432.185 385.105 L
432.797 369.388 L
433.408 353.692 L
434.019 339.854 L
434.63 335.028 L
435.242 330.189 L
435.853 330.189 L
436.464 340.546 L
437.075 352.894 L
437.687 365.589 L
438.298 377.168 L
438.909 380.825 L
439.52 383.017 L
440.132 375.577 L
440.743 366.987 L
441.354 370.039 L
441.965 365.438 L
442.577 364.635 L
443.188 364.884 L
443.799 366.444 L
444.41 366.356 L
445.022 363.006 L
445.633 355.181 L
446.244 359.153 L
446.855 359.153 L
447.467 353.702 L
448.078 350.281 L
448.689 340.006 L
449.3 340.645 L
449.912 334.867 L
450.523 337.143 L
451.134 332.452 L
451.745 334.678 L
452.357 335.923 L
452.968 331.397 L
453.579 330.248 L
454.19 326.729 L
454.802 327.927 L
455.413 325.508 L
456.024 322.163 L
456.635 324.456 L
457.247 326.782 L
457.858 326.629 L
458.469 326.729 L
459.081 332.451 L
459.692 327.681 L
460.303 338.336 L
460.914 344.084 L
461.526 348.676 L
462.137 362.622 L
462.748 379.799 L
463.359 400.619 L
463.971 417.959 L
464.582 429.653 L
465.193 427.344 L
465.804 415.721 L
466.416 396.148 L
467.027 381.089 L
467.638 363.19 L
468.249 351.839 L
468.861 342.204 L
469.472 337.364 L
470.083 335.68 L
470.694 337.262 L
471.306 347.022 L
471.917 354.307 L
472.528 357.216 L
473.139 358.924 L
473.751 353.936 L
474.362 353.757 L
474.973 347.239 L
475.584 347.239 L
476.196 347.336 L
476.807 347.239 L
477.418 347.239 L
478.029 345.262 L
478.641 345.517 L
479.252 346.685 L
479.863 342.35 L
480.474 344.018 L
481.086 338.987 L
481.697 334.05 L
482.308 333.527 L
482.919 331.333 L
483.531 328.544 L
484.142 326.77 L
484.753 327.077 L
485.365 325.745 L
485.976 327.39 L
486.587 327.39 L
487.198 328.993 L
487.81 327.284 L
488.421 330.691 L
489.032 328.993 L
489.643 332.272 L
490.255 332.063 L
490.866 332.272 L
491.477 332.376 L
492.088 330.66 L
492.7 332.376 L
493.311 334.011 L
493.922 335.678 L
494.533 338.794 L
495.145 340.276 L
495.756 337.048 L
496.367 336.728 L
496.978 335.292 L
497.59 333.981 L
498.201 335.678 L
498.812 340.665 L
499.423 348.946 L
500.035 358.922 L
500.646 366.984 L
501.257 380.505 L
501.868 392.183 L
502.48 410.459 L
503.091 426.912 L
503.702 440.068 L
504.313 444.942 L
504.925 447.011 L
505.536 444.942 L
506.147 447.011 L
506.758 447.011 L
507.37 447.011 L
507.981 447.011 L
508.592 447.011 L
509.203 447.011 L
509.815 447.011 L
510.426 447.011 L
511.037 447.011 L
511.648 447.011 L
512.26 447.011 L
512.871 447.011 L
513.482 447.011 L
514.094 447.011 L
514.705 447.011 L
515.316 447.011 L
515.927 447.011 L
516.539 447.011 L
517.15 447.011 L
517.761 447.011 L
518.372 447.011 L
518.984 444.223 L
519.595 447.011 L
520.206 447.011 L
520.817 447.011 L
521.429 447.011 L
522.04 447.011 L
522.651 447.011 L
523.262 447.011 L
523.874 447.011 L
524.485 447.011 L
525.096 444.942 L
525.707 441.063 L
526.319 435.246 L
526.93 420.04 L
527.541 404.831 L
528.152 395.836 L
528.764 391.621 L
529.375 388.835 L
529.986 397.16 L
530.597 406.194 L
531.209 403.356 L
531.82 397.056 L
532.431 384.59 L
533.042 373.761 L
533.654 363.188 L
534.265 352.301 L
534.876 339.851 L
535.487 329.937 L
536.099 324.263 L
536.71 320.791 L
537.321 318.563 L
537.932 318.563 L
538.544 319.785 L
539.155 320.984 L
539.766 329.098 L
540.378 338.335 L
540.989 349.905 L
541.6 361.438 L
542.211 376.495 L
542.823 392.673 L
543.434 406.551 L
544.045 423.883 L
544.656 436.596 L
545.268 443.539 L
545.879 447.011 L
546.49 447.011 L
547.101 447.011 L
547.713 447.011 L
548.324 447.011 L
548.935 447.011 L
549.546 447.011 L
550.158 444.223 L
550.769 444.223 L
551.38 447.011 L
551.991 436.596 L
552.603 420.04 L
553.214 397.149 L
553.825 380.638 L
554.436 361.218 L
555.048 354.853 L
555.659 351.426 L
556.27 350.3 L
556.881 348.742 L
557.493 343.786 L
558.104 333.259 L
558.715 326.417 L
559.326 321.5 L
559.938 309.741 L
560.549 306.318 L
561.16 299.897 L
561.771 299.897 L
562.383 307.036 L
562.994 313.531 L
563.605 319.993 L
564.216 326.812 L
564.828 335.154 L
565.439 340.088 L
566.05 348.43 L
566.661 355.244 L
567.273 368.523 L
567.884 383.288 L
568.495 400.353 L
569.107 415.149 L
569.718 428.735 L
570.329 435.246 L
570.94 442.874 L
571.552 442.022 L
572.163 447.011 L
572.774 444.942 L
573.385 447.011 L
573.997 447.011 L
574.608 447.011 L
575.219 447.011 L
575.83 447.011 L
576.442 447.011 L
577.053 447.011 L
577.664 447.011 L
578.275 447.011 L
578.887 447.011 L
579.498 444.942 L
580.109 444.942 L
580.72 443.539 L
581.332 435.246 L
581.943 426.912 L
582.554 412.075 L
583.165 398.475 L
583.777 385.208 L
584.388 370.037 L
584.999 356.772 L
585.61 355.244 L
586.222 348.43 L
586.833 340.088 L
587.444 333.26 L
588.055 326.418 L
588.667 309.742 L
589.278 305.189 L
589.889 299.898 L
590.5 299.898 L
591.112 299.898 L
591.723 304.822 L
592.334 311.987 L
592.945 319.994 L
593.557 332.062 L
594.168 338.829 L
594.779 355.633 L
595.391 376.422 L
596.002 393.808 L
596.613 417.959 L
597.224 436.596 L
597.836 443.539 L
598.447 444.942 L
599.058 447.011 L
599.669 447.011 L
600.281 447.011 L
600.892 447.011 L
601.503 447.011 L
602.114 447.011 L
602.726 444.942 L
603.337 438.668 L
603.948 422.068 L
604.559 398.775 L
605.171 375.536 L
605.782 359.205 L
606.393 341.128 L
607.004 323.277 L
607.616 320.329 L
608.227 335.634 L
608.838 355.848 L
609.449 380.079 L
610.061 386.436 L
610.672 392.09 L
611.283 392.588 L
611.894 375.536 L
612.506 358.516 L
613.117 341.62 L
613.728 322.037 L
614.339 316.058 L
614.951 304.613 L
615.562 308.15 L
616.173 305.647 L
616.784 303.633 L
617.396 307.104 L
618.007 311.622 L
618.618 320.404 L
619.229 329.467 L
619.841 337.734 L
620.452 345.988 L
621.063 348.745 L
621.674 349.747 L
622.286 347.572 L
622.897 337.142 L
623.508 330.802 L
624.119 337.733 L
624.731 343.313 L
625.342 351.59 L
625.953 361.976 L
626.565 377.861 L
627.176 393.549 L
627.787 399.952 L
628.398 403.738 L
629.01 390.135 L
629.621 385.474 L
630.232 376.865 L
630.843 371.928 L
631.455 368.803 L
632.066 357.261 L
632.677 342.334 L
633.288 330.552 L
633.9 323.561 L
634.511 318.844 L
635.122 316.808 L
635.733 320.902 L
636.345 322.73 L
636.956 333.915 L
637.567 343.082 L
638.178 351.66 L
638.79 356.992 L
639.401 361.976 L
640.012 370.17 L
640.623 373.233 L
641.235 378.155 L
641.846 378.328 L
642.457 378.328 L
643.068 377.794 L
643.68 380.126 L
644.291 385.786 L
644.902 387.852 L
645.513 386.447 L
646.125 386.728 L
646.736 379.642 L
647.347 366.48 L
647.958 348.049 L
648.57 343.081 L
649.181 346.684 L
649.792 361.101 L
650.403 382.734 L
651.015 399.391 L
651.626 413.785 L
652.237 425.374 L
652.849 437.033 L
653.46 444.223 L
654.071 442.022 L
654.682 444.223 L
655.294 444.942 L
655.905 447.011 L
656.516 447.011 L
657.127 447.011 L
657.739 447.011 L
658.35 447.011 L
658.961 447.011 L
659.572 447.011 L
660.184 447.011 L
660.795 447.011 L
661.406 447.011 L
662.017 447.011 L
662.629 447.011 L
663.24 447.011 L
663.851 447.011 L
664.462 447.011 L
665.074 447.011 L
665.685 447.011 L
666.296 447.011 L
666.907 447.011 L
667.519 447.011 L
668.13 447.011 L
668.741 443.539 L
669.352 438.668 L
669.964 421.672 L
670.575 394.468 L
671.186 375.189 L
671.797 357.395 L
672.409 346.228 L
673.02 342.559 L
673.631 334.479 L
674.242 332.057 L
674.854 332.057 L
675.465 333.914 L
676.076 338.165 L
676.687 351.189 L
677.299 360.208 L
677.91 380.126 L
678.521 395.046 L
679.133 409.928 L
679.744 419.799 L
680.355 427.056 L
680.966 433.405 L
681.578 438.668 L
682.189 442.874 L
682.8 443.539 L
683.411 442.874 L
684.023 442.874 L
684.634 444.942 L
685.245 447.011 L
685.856 447.011 L
686.468 444.942 L
687.079 440.068 L
687.69 433.405 L
688.301 425.31 L
688.913 418.543 L
689.524 416.723 L
690.135 416.723 L
690.746 417.079 L
691.358 425.31 L
691.969 430.29 L
692.58 435.261 L
693.191 433.71 L
693.803 423.512 L
694.414 406.795 L
695.025 391.869 L
695.636 383.296 L
696.248 386.889 L
696.859 398.627 L
697.47 403.609 L
698.081 403.609 L
698.693 401.822 L
699.304 396.847 L
699.915 391.387 L
700.526 383.893 L
701.138 378.688 L
701.749 382.158 L
702.36 385.207 L
702.971 392.673 L
703.583 395.297 L
704.194 401.218 L
704.805 407.759 L
705.416 421.918 L
706.028 433.07 L
706.639 441.063 L
707.25 441.063 L
707.861 444.223 L
708.473 447.011 L
709.084 447.011 L
709.695 447.011 L
710.306 447.011 L
710.918 447.011 L
711.529 447.011 L
712.14 447.011 L
712.752 447.011 L
713.363 447.011 L
713.974 441.435 L
714.585 438.395 L
715.197 438.395 L
715.808 444.223 L
716.419 444.223 L
717.03 447.011 L
717.642 447.011 L
718.253 447.011 L
718.864 447.011 L
719.475 447.011 L
720.087 447.011 L
720.698 447.011 L
721.309 447.011 L
721.92 447.011 L
722.532 447.011 L
723.143 438.647 L
723.754 432.47 L
724.365 424.326 L
724.977 410.238 L
725.588 403.93 L
726.199 417.928 L
726.81 427.061 L
727.422 429.168 L
728.033 431.752 L
728.644 441.063 L
729.255 437.679 L
729.867 435.116 L
730.478 420.589 L
731.089 404.615 L
731.7 381.589 L
732.312 365.589 L
732.923 353.701 L
733.534 345.167 L
734.145 341.811 L
734.757 336.619 L
735.368 335.08 L
735.979 336.619 L
736.59 336.619 L
737.202 336.619 L
737.813 338.449 L
738.424 348.514 L
739.036 357.799 L
739.647 367.746 L
740.258 371.034 L
740.869 370.389 L
741.481 371.533 L
742.092 367.074 L
742.703 358.497 L
743.314 358.497 L
743.926 355.18 L
744.537 352.551 L
745.148 351.155 L
745.759 357.087 L
746.371 355.426 L
746.982 363.553 L
747.593 361.747 L
748.204 348.36 L
748.816 352.216 L
749.427 349.428 L
750.038 352.013 L
750.649 348.36 L
751.261 362.125 L
751.872 376.213 L
752.483 386.697 L
753.094 398.016 L
753.706 403.387 L
754.317 411.992 L
754.928 416.492 L
755.539 416.492 L
756.151 420.418 L
756.762 416.953 L
757.373 416.953 L
757.984 418.04 L
758.596 414.491 L
759.207 406.55 L
759.818 400.618 L
760.429 391.465 L
761.041 390.361 L
761.652 393.507 L
762.263 399.401 L
762.875 404.615 L
763.486 429.778 L
764.097 443.539 L
764.708 447.011 L
765.319 447.011 L
765.931 447.011 L
766.542 447.011 L
767.153 447.011 L
767.765 447.011 L
768.376 447.011 L
768.987 447.011 L
769.598 447.011 L
770.21 447.011 L
770.821 447.011 L
771.432 447.011 L
772.043 447.011 L
772.655 447.011 L
773.266 447.011 L
773.877 447.011 L
774.488 447.011 L
775.1 444.942 L
775.711 447.011 L
776.322 447.011 L
776.933 447.011 L
777.545 447.011 L
778.156 443.539 L
778.767 444.223 L
779.378 447.011 L
779.99 447.011 L
780.601 447.011 L
781.212 447.011 L
781.823 447.011 L
782.435 447.011 L
783.046 447.011 L
783.657 447.011 L
784.268 447.011 L
784.88 447.011 L
785.491 447.011 L
786.102 447.011 L
786.713 447.011 L
787.325 447.011 L
787.936 447.011 L
788.547 447.011 L
789.158 447.011 L
789.77 447.011 L
790.381 447.011 L
790.992 447.011 L
791.603 447.011 L
792.215 447.011 L
792.826 447.011 L
793.437 447.011 L
794.048 447.011 L
794.66 447.011 L
795.271 447.011 L
795.882 447.011 L
796.493 447.011 L
797.105 447.011 L
797.716 447.011 L
798.327 447.011 L
798.939 447.011 L
799.55 447.011 L
800.161 447.011 L
800.772 447.011 L
801.384 447.011 L
801.995 447.011 L
802.606 447.011 L
803.217 447.011 L
803.829 444.942 L
804.44 447.011 L
805.051 447.011 L
805.662 447.011 L
806.274 447.011 L
806.885 447.011 L
807.496 447.011 L
808.107 447.011 L
808.719 447.011 L
809.33 447.011 L
809.941 447.011 L
810.552 447.011 L
811.164 447.011 L
811.775 447.011 L
812.386 447.011 L
812.997 447.011 L
813.609 447.011 L
814.22 447.011 L
814.831 447.011 L
815.442 447.011 L
816.054 447.011 L
816.665 447.011 L
817.276 447.011 L
817.887 447.011 L
818.499 447.011 L
819.11 447.011 L
819.721 447.011 L
820.332 447.011 L
820.944 447.011 L
821.555 447.011 L
822.166 447.011 L
822.778 447.011 L
823.389 447.011 L
824 447.011 L
S
GR
GS
[0.46154 0 0 0.46154 0 0.23077] CT
1 GC
N
807 121 M
807 68 L
508 68 L
508 121 L
cp
f
GR
GS
[0.46154 0 0 0.46154 267.69231 38.13846] CT
/Helvetica 19.5 F
GS
[1 0 0 1 0 0] CT
0 7 moveto 
1 -1 scale
(Forward Velocity - IMU) t 
GR
GR
GS
[0.46154 0 0 0.46154 0 0.23077] CT
0 0.447 0.741 RC
1 LJ
3.25 LW
N
512 82.133 M
577 82.133 L
S
GR
GS
[0.46154 0 0 0.46154 267.69231 49.55385] CT
/Helvetica 19.5 F
GS
[1 0 0 1 0 0] CT
0 7 moveto 
1 -1 scale
(Forward Velocity - GPS) t 
GR
GR
GS
[0.46154 0 0 0.46154 0 0.23077] CT
0.851 0.325 0.098 RC
1 LJ
3.25 LW
N
512 106.867 M
577 106.867 L
S
GR
GS
[0.46154 0 0 0.46154 0 0.23077] CT
0.149 GC
10.0 ML
1.083 LW
N
508 121 M
508 68 L
807 68 L
807 121 L
cp
S
GR
%%Trailer
%%Pages: 1
%%EOF
