<< /PageSize [612 792] >> setpagedevice
%!PS-Adobe-3.0 EPSF-3.0
%%Creator: (MATLAB, The Mathworks, Inc. Version 9.11.0.1769968 \(R2021b\). Operating System: Linux)
%%Title: ./forwardvel.eps
%%CreationDate: 2022-03-08T10:23:30
%%Pages: (atend)
%%BoundingBox:     0     0   427   275
%%LanguageLevel: 2
%%EndComments
%%BeginProlog
%%BeginResource: procset (Apache XML Graphics Std ProcSet) 1.2 0
%%Version: 1.2 0
%%Copyright: (Copyright 2001-2003,2010 The Apache Software Foundation. License terms: http://www.apache.org/licenses/LICENSE-2.0)
/bd{bind def}bind def
/ld{load def}bd
/GR/grestore ld
/GS/gsave ld
/RM/rmoveto ld
/C/curveto ld
/t/show ld
/L/lineto ld
/ML/setmiterlimit ld
/CT/concat ld
/f/fill ld
/N/newpath ld
/S/stroke ld
/CC/setcmykcolor ld
/A/ashow ld
/cp/closepath ld
/RC/setrgbcolor ld
/LJ/setlinejoin ld
/GC/setgray ld
/LW/setlinewidth ld
/M/moveto ld
/re {4 2 roll M
1 index 0 rlineto
0 exch rlineto
neg 0 rlineto
cp } bd
/_ctm matrix def
/_tm matrix def
/BT { _ctm currentmatrix pop matrix _tm copy pop 0 0 moveto } bd
/ET { _ctm setmatrix } bd
/iTm { _ctm setmatrix _tm concat } bd
/Tm { _tm astore pop iTm 0 0 moveto } bd
/ux 0.0 def
/uy 0.0 def
/F {
  /Tp exch def
  /Tf exch def
  Tf findfont Tp scalefont setfont
  /cf Tf def  /cs Tp def
} bd
/ULS {currentpoint /uy exch def /ux exch def} bd
/ULE {
  /Tcx currentpoint pop def
  gsave
  newpath
  cf findfont cs scalefont dup
  /FontMatrix get 0 get /Ts exch def /FontInfo get dup
  /UnderlinePosition get Ts mul /To exch def
  /UnderlineThickness get Ts mul /Tt exch def
  ux uy To add moveto  Tcx uy To add lineto
  Tt setlinewidth stroke
  grestore
} bd
/OLE {
  /Tcx currentpoint pop def
  gsave
  newpath
  cf findfont cs scalefont dup
  /FontMatrix get 0 get /Ts exch def /FontInfo get dup
  /UnderlinePosition get Ts mul /To exch def
  /UnderlineThickness get Ts mul /Tt exch def
  ux uy To add cs add moveto Tcx uy To add cs add lineto
  Tt setlinewidth stroke
  grestore
} bd
/SOE {
  /Tcx currentpoint pop def
  gsave
  newpath
  cf findfont cs scalefont dup
  /FontMatrix get 0 get /Ts exch def /FontInfo get dup
  /UnderlinePosition get Ts mul /To exch def
  /UnderlineThickness get Ts mul /Tt exch def
  ux uy To add cs 10 mul 26 idiv add moveto Tcx uy To add cs 10 mul 26 idiv add lineto
  Tt setlinewidth stroke
  grestore
} bd
/QT {
/Y22 exch store
/X22 exch store
/Y21 exch store
/X21 exch store
currentpoint
/Y21 load 2 mul add 3 div exch
/X21 load 2 mul add 3 div exch
/X21 load 2 mul /X22 load add 3 div
/Y21 load 2 mul /Y22 load add 3 div
/X22 load /Y22 load curveto
} bd
/SSPD {
dup length /d exch dict def
{
/v exch def
/k exch def
currentpagedevice k known {
/cpdv currentpagedevice k get def
v cpdv ne {
/upd false def
/nullv v type /nulltype eq def
/nullcpdv cpdv type /nulltype eq def
nullv nullcpdv or
{
/upd true def
} {
/sametype v type cpdv type eq def
sametype {
v type /arraytype eq {
/vlen v length def
/cpdvlen cpdv length def
vlen cpdvlen eq {
0 1 vlen 1 sub {
/i exch def
/obj v i get def
/cpdobj cpdv i get def
obj cpdobj ne {
/upd true def
exit
} if
} for
} {
/upd true def
} ifelse
} {
v type /dicttype eq {
v {
/dv exch def
/dk exch def
/cpddv cpdv dk get def
dv cpddv ne {
/upd true def
exit
} if
} forall
} {
/upd true def
} ifelse
} ifelse
} if
} ifelse
upd true eq {
d k v put
} if
} if
} if
} forall
d length 0 gt {
d setpagedevice
} if
} bd
/RE { % /NewFontName [NewEncodingArray] /FontName RE -
  findfont dup length dict begin
  {
    1 index /FID ne
    {def} {pop pop} ifelse
  } forall
  /Encoding exch def
  /FontName 1 index def
  currentdict definefont pop
  end
} bind def
%%EndResource
%%BeginResource: procset (Apache XML Graphics EPS ProcSet) 1.0 0
%%Version: 1.0 0
%%Copyright: (Copyright 2002-2003 The Apache Software Foundation. License terms: http://www.apache.org/licenses/LICENSE-2.0)
/BeginEPSF { %def
/b4_Inc_state save def         % Save state for cleanup
/dict_count countdictstack def % Count objects on dict stack
/op_count count 1 sub def      % Count objects on operand stack
userdict begin                 % Push userdict on dict stack
/showpage { } def              % Redefine showpage, { } = null proc
0 setgray 0 setlinecap         % Prepare graphics state
1 setlinewidth 0 setlinejoin
10 setmiterlimit [ ] 0 setdash newpath
/languagelevel where           % If level not equal to 1 then
{pop languagelevel             % set strokeadjust and
1 ne                           % overprint to their defaults.
{false setstrokeadjust false setoverprint
} if
} if
} bd
/EndEPSF { %def
count op_count sub {pop} repeat            % Clean up stacks
countdictstack dict_count sub {end} repeat
b4_Inc_state restore
} bd
%%EndResource
%FOPBeginFontDict
%%IncludeResource: font Courier-Oblique
%%IncludeResource: font Courier-BoldOblique
%%IncludeResource: font Courier-Bold
%%IncludeResource: font ZapfDingbats
%%IncludeResource: font Symbol
%%IncludeResource: font Helvetica
%%IncludeResource: font Helvetica-Oblique
%%IncludeResource: font Helvetica-Bold
%%IncludeResource: font Helvetica-BoldOblique
%%IncludeResource: font Times-Roman
%%IncludeResource: font Times-Italic
%%IncludeResource: font Times-Bold
%%IncludeResource: font Times-BoldItalic
%%IncludeResource: font Courier
%FOPEndFontDict
%%BeginResource: encoding WinAnsiEncoding
/WinAnsiEncoding [
/.notdef /.notdef /.notdef /.notdef /.notdef
/.notdef /.notdef /.notdef /.notdef /.notdef
/.notdef /.notdef /.notdef /.notdef /.notdef
/.notdef /.notdef /.notdef /.notdef /.notdef
/.notdef /.notdef /.notdef /.notdef /.notdef
/.notdef /.notdef /.notdef /.notdef /.notdef
/.notdef /.notdef /space /exclam /quotedbl
/numbersign /dollar /percent /ampersand /quotesingle
/parenleft /parenright /asterisk /plus /comma
/hyphen /period /slash /zero /one
/two /three /four /five /six
/seven /eight /nine /colon /semicolon
/less /equal /greater /question /at
/A /B /C /D /E
/F /G /H /I /J
/K /L /M /N /O
/P /Q /R /S /T
/U /V /W /X /Y
/Z /bracketleft /backslash /bracketright /asciicircum
/underscore /quoteleft /a /b /c
/d /e /f /g /h
/i /j /k /l /m
/n /o /p /q /r
/s /t /u /v /w
/x /y /z /braceleft /bar
/braceright /asciitilde /bullet /Euro /bullet
/quotesinglbase /florin /quotedblbase /ellipsis /dagger
/daggerdbl /circumflex /perthousand /Scaron /guilsinglleft
/OE /bullet /Zcaron /bullet /bullet
/quoteleft /quoteright /quotedblleft /quotedblright /bullet
/endash /emdash /asciitilde /trademark /scaron
/guilsinglright /oe /bullet /zcaron /Ydieresis
/space /exclamdown /cent /sterling /currency
/yen /brokenbar /section /dieresis /copyright
/ordfeminine /guillemotleft /logicalnot /sfthyphen /registered
/macron /degree /plusminus /twosuperior /threesuperior
/acute /mu /paragraph /middot /cedilla
/onesuperior /ordmasculine /guillemotright /onequarter /onehalf
/threequarters /questiondown /Agrave /Aacute /Acircumflex
/Atilde /Adieresis /Aring /AE /Ccedilla
/Egrave /Eacute /Ecircumflex /Edieresis /Igrave
/Iacute /Icircumflex /Idieresis /Eth /Ntilde
/Ograve /Oacute /Ocircumflex /Otilde /Odieresis
/multiply /Oslash /Ugrave /Uacute /Ucircumflex
/Udieresis /Yacute /Thorn /germandbls /agrave
/aacute /acircumflex /atilde /adieresis /aring
/ae /ccedilla /egrave /eacute /ecircumflex
/edieresis /igrave /iacute /icircumflex /idieresis
/eth /ntilde /ograve /oacute /ocircumflex
/otilde /odieresis /divide /oslash /ugrave
/uacute /ucircumflex /udieresis /yacute /thorn
/ydieresis
] def
%%EndResource
%FOPBeginFontReencode
/Courier-Oblique findfont
dup length dict begin
  {1 index /FID ne {def} {pop pop} ifelse} forall
  /Encoding WinAnsiEncoding def
  currentdict
end
/Courier-Oblique exch definefont pop
/Courier-BoldOblique findfont
dup length dict begin
  {1 index /FID ne {def} {pop pop} ifelse} forall
  /Encoding WinAnsiEncoding def
  currentdict
end
/Courier-BoldOblique exch definefont pop
/Courier-Bold findfont
dup length dict begin
  {1 index /FID ne {def} {pop pop} ifelse} forall
  /Encoding WinAnsiEncoding def
  currentdict
end
/Courier-Bold exch definefont pop
/Helvetica findfont
dup length dict begin
  {1 index /FID ne {def} {pop pop} ifelse} forall
  /Encoding WinAnsiEncoding def
  currentdict
end
/Helvetica exch definefont pop
/Helvetica-Oblique findfont
dup length dict begin
  {1 index /FID ne {def} {pop pop} ifelse} forall
  /Encoding WinAnsiEncoding def
  currentdict
end
/Helvetica-Oblique exch definefont pop
/Helvetica-Bold findfont
dup length dict begin
  {1 index /FID ne {def} {pop pop} ifelse} forall
  /Encoding WinAnsiEncoding def
  currentdict
end
/Helvetica-Bold exch definefont pop
/Helvetica-BoldOblique findfont
dup length dict begin
  {1 index /FID ne {def} {pop pop} ifelse} forall
  /Encoding WinAnsiEncoding def
  currentdict
end
/Helvetica-BoldOblique exch definefont pop
/Times-Roman findfont
dup length dict begin
  {1 index /FID ne {def} {pop pop} ifelse} forall
  /Encoding WinAnsiEncoding def
  currentdict
end
/Times-Roman exch definefont pop
/Times-Italic findfont
dup length dict begin
  {1 index /FID ne {def} {pop pop} ifelse} forall
  /Encoding WinAnsiEncoding def
  currentdict
end
/Times-Italic exch definefont pop
/Times-Bold findfont
dup length dict begin
  {1 index /FID ne {def} {pop pop} ifelse} forall
  /Encoding WinAnsiEncoding def
  currentdict
end
/Times-Bold exch definefont pop
/Times-BoldItalic findfont
dup length dict begin
  {1 index /FID ne {def} {pop pop} ifelse} forall
  /Encoding WinAnsiEncoding def
  currentdict
end
/Times-BoldItalic exch definefont pop
/Courier findfont
dup length dict begin
  {1 index /FID ne {def} {pop pop} ifelse} forall
  /Encoding WinAnsiEncoding def
  currentdict
end
/Courier exch definefont pop
%FOPEndFontReencode
%%EndProlog
%%Page: 1 1
%%PageBoundingBox: 0 0 427 275
%%BeginPageSetup
[1 0 0 -1 0 275] CT
%%EndPageSetup
GS
[0.74227 0 0 0.74227 0 0.36081] CT
1 GC
N
0 0 575 370 re
f
GR
GS
[0.74227 0 0 0.74227 0 0.36081] CT
1 GC
N
0 0 575 370 re
f
GR
GS
[0.74227 0 0 0.74227 0 0.36081] CT
1 GC
N
75 329 M
520 329 L
520 28 L
75 28 L
cp
f
GR
GS
[0.74227 0 0 0.74227 0 0.36081] CT
0.149 GC
2 setlinecap
1 LJ
0.674 LW
N
75 329 M
520 329 L
S
GR
GS
[0.74227 0 0 0.74227 0 0.36081] CT
0.149 GC
2 setlinecap
1 LJ
0.674 LW
N
75 28 M
520 28 L
S
GR
GS
[0.74227 0 0 0.74227 0 0.36081] CT
0.149 GC
2 setlinecap
1 LJ
0.674 LW
N
75 329 M
75 324.55 L
S
GR
GS
[0.74227 0 0 0.74227 0 0.36081] CT
0.149 GC
2 setlinecap
1 LJ
0.674 LW
N
152.057 329 M
152.057 324.55 L
S
GR
GS
[0.74227 0 0 0.74227 0 0.36081] CT
0.149 GC
2 setlinecap
1 LJ
0.674 LW
N
229.114 329 M
229.114 324.55 L
S
GR
GS
[0.74227 0 0 0.74227 0 0.36081] CT
0.149 GC
2 setlinecap
1 LJ
0.674 LW
N
306.171 329 M
306.171 324.55 L
S
GR
GS
[0.74227 0 0 0.74227 0 0.36081] CT
0.149 GC
2 setlinecap
1 LJ
0.674 LW
N
383.227 329 M
383.227 324.55 L
S
GR
GS
[0.74227 0 0 0.74227 0 0.36081] CT
0.149 GC
2 setlinecap
1 LJ
0.674 LW
N
460.284 329 M
460.284 324.55 L
S
GR
GS
[0.74227 0 0 0.74227 0 0.36081] CT
0.149 GC
2 setlinecap
1 LJ
0.674 LW
N
75 28 M
75 32.45 L
S
GR
GS
[0.74227 0 0 0.74227 0 0.36081] CT
0.149 GC
2 setlinecap
1 LJ
0.674 LW
N
152.057 28 M
152.057 32.45 L
S
GR
GS
[0.74227 0 0 0.74227 0 0.36081] CT
0.149 GC
2 setlinecap
1 LJ
0.674 LW
N
229.114 28 M
229.114 32.45 L
S
GR
GS
[0.74227 0 0 0.74227 0 0.36081] CT
0.149 GC
2 setlinecap
1 LJ
0.674 LW
N
306.171 28 M
306.171 32.45 L
S
GR
GS
[0.74227 0 0 0.74227 0 0.36081] CT
0.149 GC
2 setlinecap
1 LJ
0.674 LW
N
383.227 28 M
383.227 32.45 L
S
GR
GS
[0.74227 0 0 0.74227 0 0.36081] CT
0.149 GC
2 setlinecap
1 LJ
0.674 LW
N
460.284 28 M
460.284 32.45 L
S
GR
GS
[0.74227 0 0 0.74227 55.6701 248.56701] CT
0.149 GC
/Helvetica 13.472 F
GS
[1 0 0 1 0 0] CT
-4.5 13 moveto 
1 -1 scale
(0) t 
GR
GR
GS
[0.74227 0 0 0.74227 112.86693 248.56701] CT
0.149 GC
/Helvetica 13.472 F
GS
[1 0 0 1 0 0] CT
-13 13 moveto 
1 -1 scale
(200) t 
GR
GR
GS
[0.74227 0 0 0.74227 170.06375 248.56701] CT
0.149 GC
/Helvetica 13.472 F
GS
[1 0 0 1 0 0] CT
-13 13 moveto 
1 -1 scale
(400) t 
GR
GR
GS
[0.74227 0 0 0.74227 227.26059 248.56701] CT
0.149 GC
/Helvetica 13.472 F
GS
[1 0 0 1 0 0] CT
-13 13 moveto 
1 -1 scale
(600) t 
GR
GR
GS
[0.74227 0 0 0.74227 284.45741 248.56701] CT
0.149 GC
/Helvetica 13.472 F
GS
[1 0 0 1 0 0] CT
-13 13 moveto 
1 -1 scale
(800) t 
GR
GR
GS
[0.74227 0 0 0.74227 341.65425 248.56701] CT
0.149 GC
/Helvetica 13.472 F
GS
[1 0 0 1 0 0] CT
-17.5 13 moveto 
1 -1 scale
(1000) t 
GR
GR
GS
[0.74227 0 0 0.74227 0 0.36081] CT
0.149 GC
2 setlinecap
1 LJ
0.674 LW
N
75 329 M
75 28 L
S
GR
GS
[0.74227 0 0 0.74227 0 0.36081] CT
0.149 GC
2 setlinecap
1 LJ
0.674 LW
N
520 329 M
520 28 L
S
GR
GS
[0.74227 0 0 0.74227 0 0.36081] CT
0.149 GC
2 setlinecap
1 LJ
0.674 LW
N
75 323.919 M
79.45 323.919 L
S
GR
GS
[0.74227 0 0 0.74227 0 0.36081] CT
0.149 GC
2 setlinecap
1 LJ
0.674 LW
N
75 283.153 M
79.45 283.153 L
S
GR
GS
[0.74227 0 0 0.74227 0 0.36081] CT
0.149 GC
2 setlinecap
1 LJ
0.674 LW
N
75 242.387 M
79.45 242.387 L
S
GR
GS
[0.74227 0 0 0.74227 0 0.36081] CT
0.149 GC
2 setlinecap
1 LJ
0.674 LW
N
75 201.621 M
79.45 201.621 L
S
GR
GS
[0.74227 0 0 0.74227 0 0.36081] CT
0.149 GC
2 setlinecap
1 LJ
0.674 LW
N
75 160.855 M
79.45 160.855 L
S
GR
GS
[0.74227 0 0 0.74227 0 0.36081] CT
0.149 GC
2 setlinecap
1 LJ
0.674 LW
N
75 120.089 M
79.45 120.089 L
S
GR
GS
[0.74227 0 0 0.74227 0 0.36081] CT
0.149 GC
2 setlinecap
1 LJ
0.674 LW
N
75 79.323 M
79.45 79.323 L
S
GR
GS
[0.74227 0 0 0.74227 0 0.36081] CT
0.149 GC
2 setlinecap
1 LJ
0.674 LW
N
75 38.557 M
79.45 38.557 L
S
GR
GS
[0.74227 0 0 0.74227 0 0.36081] CT
0.149 GC
2 setlinecap
1 LJ
0.674 LW
N
520 323.919 M
515.55 323.919 L
S
GR
GS
[0.74227 0 0 0.74227 0 0.36081] CT
0.149 GC
2 setlinecap
1 LJ
0.674 LW
N
520 283.153 M
515.55 283.153 L
S
GR
GS
[0.74227 0 0 0.74227 0 0.36081] CT
0.149 GC
2 setlinecap
1 LJ
0.674 LW
N
520 242.387 M
515.55 242.387 L
S
GR
GS
[0.74227 0 0 0.74227 0 0.36081] CT
0.149 GC
2 setlinecap
1 LJ
0.674 LW
N
520 201.621 M
515.55 201.621 L
S
GR
GS
[0.74227 0 0 0.74227 0 0.36081] CT
0.149 GC
2 setlinecap
1 LJ
0.674 LW
N
520 160.855 M
515.55 160.855 L
S
GR
GS
[0.74227 0 0 0.74227 0 0.36081] CT
0.149 GC
2 setlinecap
1 LJ
0.674 LW
N
520 120.089 M
515.55 120.089 L
S
GR
GS
[0.74227 0 0 0.74227 0 0.36081] CT
0.149 GC
2 setlinecap
1 LJ
0.674 LW
N
520 79.323 M
515.55 79.323 L
S
GR
GS
[0.74227 0 0 0.74227 0 0.36081] CT
0.149 GC
2 setlinecap
1 LJ
0.674 LW
N
520 38.557 M
515.55 38.557 L
S
GR
GS
[0.74227 0 0 0.74227 51.6701 240.79555] CT
0.149 GC
/Helvetica 13.472 F
GS
[1 0 0 1 0 0] CT
-22 4.5 moveto 
1 -1 scale
(-10) t 
GR
GR
GS
[0.74227 0 0 0.74227 51.6701 210.5363] CT
0.149 GC
/Helvetica 13.472 F
GS
[1 0 0 1 0 0] CT
-14 4.5 moveto 
1 -1 scale
(-5) t 
GR
GR
GS
[0.74227 0 0 0.74227 51.6701 180.27704] CT
0.149 GC
/Helvetica 13.472 F
GS
[1 0 0 1 0 0] CT
-9 4.5 moveto 
1 -1 scale
(0) t 
GR
GR
GS
[0.74227 0 0 0.74227 51.6701 150.01779] CT
0.149 GC
/Helvetica 13.472 F
GS
[1 0 0 1 0 0] CT
-9 4.5 moveto 
1 -1 scale
(5) t 
GR
GR
GS
[0.74227 0 0 0.74227 51.6701 119.75853] CT
0.149 GC
/Helvetica 13.472 F
GS
[1 0 0 1 0 0] CT
-18 4.5 moveto 
1 -1 scale
(10) t 
GR
GR
GS
[0.74227 0 0 0.74227 51.6701 89.49928] CT
0.149 GC
/Helvetica 13.472 F
GS
[1 0 0 1 0 0] CT
-18 4.5 moveto 
1 -1 scale
(15) t 
GR
GR
GS
[0.74227 0 0 0.74227 51.6701 59.24003] CT
0.149 GC
/Helvetica 13.472 F
GS
[1 0 0 1 0 0] CT
-18 4.5 moveto 
1 -1 scale
(20) t 
GR
GR
GS
[0.74227 0 0 0.74227 51.6701 28.98078] CT
0.149 GC
/Helvetica 13.472 F
GS
[1 0 0 1 0 0] CT
-18 4.5 moveto 
1 -1 scale
(25) t 
GR
GR
GS
[0.74227 0 0 0.74227 220.82496 19.10307] CT
/Helvetica-Bold 14.819 F
GS
[1 0 0 1 0 0] CT
-198 -4 moveto 
1 -1 scale
(Forward Velocity Comparison - No Adjustments) t 
GR
GR
GS
[0.74227 0 0 0.74227 0 0.36081] CT
0 0.447 0.741 RC
1 LJ
2.021 LW
N
75 242.387 M
75.279 242.329 L
75.289 242.329 L
75.79 242.211 L
75.799 242.204 L
76.291 242.113 L
76.3 242.112 L
76.31 242.113 L
76.801 242 L
76.811 241.995 L
77.292 241.88 L
77.302 241.88 L
77.312 241.879 L
77.803 241.78 L
77.813 241.782 L
77.822 241.782 L
78.313 241.676 L
78.323 241.677 L
78.814 241.56 L
78.824 241.557 L
79.325 241.446 L
79.334 241.442 L
79.392 241.448 L
79.816 241.353 L
79.826 241.353 L
79.835 241.351 L
80.336 241.232 L
80.346 241.23 L
80.827 241.159 L
80.837 241.16 L
80.847 241.157 L
81.251 239.584 L
81.347 240.247 L
81.357 240.357 L
81.444 241.157 L
81.848 240.768 L
81.858 240.767 L
81.877 240.769 L
82.349 240.591 L
82.359 240.592 L
82.368 240.59 L
82.86 240.181 L
82.869 240.133 L
83.361 237.402 L
83.37 237.345 L
83.871 233.538 L
83.881 233.459 L
84.372 228.491 L
84.382 228.39 L
84.882 223.106 L
84.892 222.974 L
85.383 217.119 L
85.393 216.975 L
85.894 208.117 L
85.903 207.915 L
86.395 201.862 L
86.404 201.769 L
86.501 201.165 L
86.905 207.633 L
86.915 207.879 L
87.406 220.399 L
87.416 220.589 L
87.917 228.376 L
87.926 228.538 L
88.417 236.1 L
88.427 236.202 L
88.581 236.985 L
88.928 234.916 L
88.938 234.847 L
89.429 231.201 L
89.438 231.115 L
89.93 222.689 L
89.939 222.445 L
90.44 210.766 L
90.45 210.506 L
90.941 199.325 L
90.951 199.124 L
91.451 191.315 L
91.461 191.171 L
91.952 189.852 L
91.962 189.812 L
92.318 188.495 L
92.463 189.022 L
92.472 189.109 L
92.964 191.404 L
92.973 191.451 L
93.243 192.37 L
93.474 192.05 L
93.484 192.059 L
93.975 198.83 L
93.985 198.976 L
94.486 201.806 L
94.495 201.862 L
94.986 204.059 L
94.996 204.11 L
95.083 204.417 L
95.487 203.028 L
95.497 203.015 L
95.641 202.536 L
95.95 203.371 L
95.998 203.122 L
96.007 203.053 L
96.393 201.886 L
96.499 202.271 L
96.508 202.315 L
97.009 204.949 L
97.019 205.065 L
97.51 210.51 L
97.52 210.57 L
98.02 214.201 L
98.03 214.209 L
98.04 214.207 L
98.521 218.26 L
98.531 218.323 L
98.772 220.223 L
99.032 219.204 L
99.041 219.163 L
99.533 216.284 L
99.542 216.186 L
100.043 210.269 L
100.053 210.102 L
100.544 201.042 L
100.554 200.852 L
101.045 194.154 L
101.055 194.105 L
101.555 190.92 L
101.565 190.754 L
102.056 183.583 L
102.066 183.499 L
102.509 179.405 L
102.567 179.412 L
102.576 179.407 L
103.058 177.433 L
103.068 177.443 L
103.077 177.458 L
103.395 176.54 L
103.578 176.945 L
103.588 176.96 L
104.079 178.065 L
104.089 178.069 L
104.589 179.408 L
104.599 179.427 L
104.763 179.325 L
105.09 179.611 L
105.1 179.636 L
105.119 179.633 L
105.418 180.1 L
105.601 179.69 L
105.61 179.503 L
105.63 179.379 L
105.726 180.524 L
106.102 180.059 L
106.111 180.062 L
106.612 181.788 L
106.622 181.877 L
107.113 187.779 L
107.123 187.883 L
107.614 192.778 L
107.624 192.885 L
108.124 199.366 L
108.134 199.524 L
108.625 209.47 L
108.635 209.679 L
109.136 220.3 L
109.145 220.435 L
109.637 227.052 L
109.646 227.151 L
110.147 228.569 L
110.157 228.582 L
110.417 229.136 L
110.648 228.803 L
110.658 228.807 L
110.687 228.807 L
111.159 230.568 L
111.168 230.61 L
111.659 230.807 L
111.669 230.803 L
112.16 230.731 L
112.17 230.733 L
112.18 230.737 L
112.382 230.741 L
112.671 230.688 L
112.68 230.69 L
112.7 230.699 L
112.989 230.634 L
113.172 230.644 L
113.181 230.644 L
113.21 230.662 L
113.682 230.509 L
113.692 230.467 L
114.183 226.824 L
114.193 226.756 L
114.693 220.259 L
114.703 220.099 L
115.194 211.106 L
115.204 210.885 L
115.705 201.344 L
115.714 201.159 L
116.032 197.375 L
116.206 197.943 L
116.215 198.005 L
116.716 200.106 L
116.726 200.223 L
117.217 207.033 L
117.227 207.13 L
117.728 213.367 L
117.737 213.511 L
118.228 219.325 L
118.238 219.469 L
118.739 226.867 L
118.749 226.976 L
118.893 227.568 L
119.24 226.716 L
119.249 226.694 L
119.741 225.468 L
119.75 225.452 L
120.251 222.456 L
120.261 222.393 L
120.752 214.084 L
120.762 213.929 L
121.262 205.375 L
121.272 205.193 L
121.763 195.199 L
121.773 194.924 L
122.274 185.721 L
122.283 185.542 L
122.775 177.121 L
122.784 176.915 L
123.285 169.292 L
123.295 169.167 L
123.786 163.506 L
123.796 163.436 L
124.297 160.027 L
124.306 160.02 L
124.383 159.787 L
124.797 160.754 L
124.807 160.776 L
125.298 161.837 L
125.308 161.854 L
125.318 161.841 L
125.809 163.455 L
125.818 163.483 L
126.31 167.86 L
126.319 167.952 L
126.82 171.844 L
126.83 171.937 L
127.321 175.086 L
127.331 175.17 L
127.832 179.648 L
127.841 179.719 L
128.332 182.927 L
128.342 182.929 L
128.419 182.777 L
128.747 184.434 L
128.843 184.329 L
128.852 184.319 L
128.978 184.737 L
129.344 182.357 L
129.353 182.255 L
129.854 175.494 L
129.864 175.346 L
130.355 171.847 L
130.365 171.832 L
130.856 167.378 L
130.866 167.263 L
131.366 163.646 L
131.376 163.572 L
131.867 160.984 L
131.877 160.922 L
131.906 160.931 L
132.378 158.389 L
132.387 158.361 L
132.811 157.574 L
132.879 157.74 L
132.888 157.7 L
132.975 157.925 L
133.11 157.646 L
133.389 157.741 L
133.399 157.699 L
133.89 156.489 L
133.9 156.463 L
134.112 155.395 L
134.401 155.968 L
134.41 155.978 L
134.429 155.948 L
134.882 157.576 L
134.901 157.525 L
134.911 157.459 L
134.93 157.385 L
135.335 158.497 L
135.412 158.245 L
135.422 158.171 L
135.807 155.978 L
135.913 156.146 L
135.922 156.187 L
136.346 157.735 L
136.423 157.694 L
136.433 157.685 L
136.924 159.14 L
136.934 159.204 L
137.377 160.714 L
137.425 160.591 L
137.435 160.558 L
137.714 160.015 L
137.916 160.67 L
137.935 160.64 L
137.945 160.641 L
138.436 161.257 L
138.446 161.326 L
138.899 162.422 L
138.947 162.417 L
138.956 162.425 L
139.448 168.981 L
139.457 169.139 L
139.958 179.35 L
139.968 179.517 L
140.459 189.9 L
140.469 190.089 L
140.97 200.242 L
140.979 200.405 L
141.47 211.512 L
141.48 211.732 L
141.981 221.798 L
141.991 222.005 L
142.482 230.442 L
142.491 230.44 L
142.549 230.299 L
142.983 230.696 L
142.992 230.699 L
143.493 231.18 L
143.503 231.193 L
143.994 231.642 L
144.004 231.64 L
144.504 232.043 L
144.514 232.048 L
145.005 232.508 L
145.015 232.525 L
145.516 233.003 L
145.525 233.02 L
146.017 233.437 L
146.026 233.445 L
146.527 233.915 L
146.537 233.924 L
147.028 234.359 L
147.038 234.361 L
147.539 234.834 L
147.548 234.838 L
148.039 235.254 L
148.049 235.262 L
148.155 235.33 L
148.55 232.309 L
148.56 232.211 L
149.051 222.033 L
149.06 221.796 L
149.552 210.36 L
149.561 210.081 L
150.062 197.887 L
150.072 197.608 L
150.515 189.389 L
150.563 189.418 L
150.573 189.394 L
151.074 184.909 L
151.083 184.82 L
151.574 179.666 L
151.584 179.518 L
152.085 172.982 L
152.094 172.908 L
152.586 166.864 L
152.595 166.826 L
152.624 166.898 L
153.077 163.056 L
153.096 163.073 L
153.106 163.011 L
153.597 159.356 L
153.607 159.237 L
153.886 157.84 L
154.108 158.078 L
154.117 158.082 L
154.165 158.552 L
154.3 157.816 L
154.608 158.281 L
154.618 158.167 L
154.637 158.054 L
155.109 161.008 L
155.119 160.994 L
155.235 159.044 L
155.62 163.007 L
155.629 163.006 L
155.668 162.735 L
156.063 164.502 L
156.121 164.496 L
156.13 164.532 L
156.612 165.771 L
156.631 165.731 L
156.641 165.677 L
156.737 165.529 L
157.132 166.609 L
157.142 166.644 L
157.643 167.949 L
157.652 167.982 L
158.143 169.874 L
158.153 170.002 L
158.654 177.351 L
158.664 177.506 L
159.155 185.159 L
159.164 185.366 L
159.665 197.372 L
159.675 197.574 L
160.166 208.818 L
160.176 209.083 L
160.677 219.68 L
160.686 219.793 L
161.177 226.697 L
161.187 226.866 L
161.389 230.199 L
161.678 229.342 L
161.688 229.328 L
162.189 228.493 L
162.198 228.481 L
162.69 227.666 L
162.699 227.645 L
163.2 226.775 L
163.21 226.754 L
163.701 225.873 L
163.711 225.863 L
164.212 225.045 L
164.221 225.034 L
164.712 224.204 L
164.722 224.186 L
165.223 223.351 L
165.233 223.331 L
165.724 222.534 L
165.733 222.509 L
166.234 221.647 L
166.244 221.624 L
166.735 220.793 L
166.745 220.763 L
167.236 217.512 L
167.246 217.436 L
167.746 213.751 L
167.756 213.662 L
168.247 206.652 L
168.257 206.637 L
168.758 200.387 L
168.767 200.284 L
168.979 198.412 L
169.259 198.589 L
169.268 198.542 L
169.5 197.491 L
169.769 199.819 L
169.779 199.826 L
169.894 200.073 L
170.27 196.21 L
170.28 196.128 L
170.781 186.066 L
170.79 185.791 L
171.281 172.803 L
171.291 172.535 L
171.792 161.689 L
171.802 161.539 L
172.293 155.9 L
172.302 155.847 L
172.794 154.202 L
172.803 154.155 L
173.16 153.199 L
173.304 153.535 L
173.314 153.575 L
173.323 153.574 L
173.805 155.956 L
173.815 156.091 L
174.316 164.398 L
174.325 164.512 L
174.816 169.864 L
174.826 170.013 L
175.327 178.416 L
175.337 178.498 L
175.828 182.776 L
175.837 182.844 L
176.28 184.706 L
176.338 184.682 L
176.348 184.664 L
176.839 182.018 L
176.849 181.984 L
177.35 180.619 L
177.359 180.606 L
177.85 179.467 L
177.86 179.432 L
178.361 178.814 L
178.371 178.806 L
178.862 177.516 L
178.871 177.468 L
179.363 175.27 L
179.372 175.225 L
179.873 172.974 L
179.883 172.934 L
180.374 170.788 L
180.384 170.742 L
180.885 168.531 L
180.894 168.494 L
181.385 166.284 L
181.395 166.238 L
181.896 163.988 L
181.906 163.951 L
182.397 161.742 L
182.406 161.702 L
182.907 159.467 L
182.917 159.43 L
183.408 157.206 L
183.418 157.171 L
183.919 154.899 L
183.928 154.861 L
184.419 152.642 L
184.429 152.602 L
184.92 150.404 L
184.93 150.356 L
185.431 148.086 L
185.44 148.039 L
185.932 145.291 L
185.941 145.209 L
186.442 138.795 L
186.452 138.49 L
186.943 119.121 L
186.953 118.71 L
187.454 103.008 L
187.463 102.603 L
187.954 87.447 L
187.964 87.111 L
188.465 77.512 L
188.475 77.343 L
188.966 70.165 L
188.975 69.99 L
189.467 65.788 L
189.476 65.845 L
189.486 65.898 L
189.688 65.806 L
189.977 66.558 L
189.987 66.607 L
190.488 67.648 L
190.497 67.643 L
190.989 68.726 L
190.998 68.762 L
191.489 72.573 L
191.499 72.649 L
192 78.319 L
192.009 78.519 L
192.501 86.67 L
192.51 86.803 L
193.011 94.481 L
193.021 94.611 L
193.512 98.44 L
193.522 98.477 L
193.955 98.981 L
194.023 98.96 L
194.032 98.972 L
194.523 99.856 L
194.533 99.891 L
194.61 100.074 L
195.034 98.276 L
195.044 98.259 L
195.535 96.509 L
195.544 96.419 L
196.045 90.937 L
196.055 90.761 L
196.546 74.197 L
196.556 73.842 L
197.047 60.167 L
197.057 59.937 L
197.558 48.313 L
197.567 48.19 L
198.058 38.574 L
198.068 38.382 L
198.55 33.872 L
198.569 33.998 L
198.579 33.999 L
198.588 34.073 L
198.694 33.007 L
199.07 33.575 L
199.079 33.471 L
199.551 32.262 L
199.58 32.346 L
199.59 32.366 L
199.696 32.537 L
200.081 31.571 L
200.091 31.621 L
200.1 31.698 L
200.592 28.216 L
200.601 28.175 L
200.64 28 L
201.092 29.151 L
201.102 29.179 L
201.208 29.157 L
201.603 31.337 L
201.613 31.362 L
202.104 36.9 L
202.113 37.085 L
202.605 44.398 L
202.614 44.589 L
203.115 56.638 L
203.125 56.771 L
203.616 69.098 L
203.626 69.395 L
204.127 82.699 L
204.136 82.953 L
204.627 93.046 L
204.637 93.233 L
205.138 102.086 L
205.148 102.245 L
205.639 112.315 L
205.648 112.512 L
206.149 121.15 L
206.159 121.33 L
206.65 129.655 L
206.66 129.811 L
207.161 136.134 L
207.17 136.165 L
207.661 138.591 L
207.671 138.647 L
208.172 142.827 L
208.182 142.918 L
208.673 147.185 L
208.682 147.273 L
209.174 151.305 L
209.183 151.379 L
209.684 154.466 L
209.694 154.503 L
210.185 156.303 L
210.195 156.354 L
210.696 159.562 L
210.705 159.643 L
211.196 163.769 L
211.206 163.847 L
211.707 167.394 L
211.717 167.453 L
212.208 170.692 L
212.217 170.752 L
212.718 174.028 L
212.728 174.097 L
213.219 177.331 L
213.229 177.391 L
213.73 180.667 L
213.739 180.727 L
214.231 183.923 L
214.24 183.985 L
214.731 187.217 L
214.741 187.275 L
215.242 190.589 L
215.251 190.653 L
215.743 193.875 L
215.752 193.935 L
216.253 197.225 L
216.263 197.294 L
216.754 200.522 L
216.764 200.591 L
217.265 203.882 L
217.274 203.937 L
217.765 207.154 L
217.775 207.214 L
218.276 210.511 L
218.286 210.569 L
218.594 212.297 L
218.777 211.093 L
218.786 211.031 L
219.287 206.144 L
219.297 205.903 L
219.788 192.916 L
219.798 192.653 L
220.299 183.122 L
220.308 182.964 L
220.8 174.571 L
220.809 174.398 L
221.3 167.12 L
221.31 166.995 L
221.782 162.223 L
221.811 162.306 L
221.821 162.297 L
221.898 162.786 L
222.312 160.987 L
222.321 160.905 L
222.822 156.843 L
222.832 156.769 L
223.063 156.094 L
223.323 156.488 L
223.333 156.542 L
223.583 156.553 L
223.824 155.963 L
223.834 155.965 L
223.843 155.964 L
224.151 156.435 L
224.334 155.752 L
224.344 155.741 L
224.546 154.463 L
224.845 154.989 L
224.855 155.064 L
225.346 157.347 L
225.355 157.369 L
225.847 159.982 L
225.856 159.908 L
225.866 159.954 L
226.357 161.601 L
226.367 161.702 L
226.482 161.429 L
226.829 162.878 L
226.858 162.861 L
226.868 162.868 L
227.369 165.532 L
227.378 165.618 L
227.475 165.196 L
227.869 169.616 L
227.879 169.775 L
228.38 177.377 L
228.39 177.566 L
228.881 183.598 L
228.89 183.653 L
229.391 185.647 L
229.401 185.654 L
229.892 187.746 L
229.902 187.741 L
230.249 189.187 L
230.403 187.226 L
230.412 187.096 L
230.605 185.089 L
230.903 187.519 L
230.913 187.68 L
231.414 196.133 L
231.424 196.275 L
231.915 198.653 L
231.924 198.637 L
231.944 198.649 L
232.416 195.193 L
232.425 195.02 L
232.926 185.674 L
232.936 185.493 L
233.427 176.512 L
233.437 176.368 L
233.938 169.825 L
233.947 169.688 L
234.4 166.414 L
234.438 166.477 L
234.448 166.51 L
234.602 166.2 L
234.824 166.593 L
234.949 166.391 L
234.959 166.405 L
235.219 168.046 L
235.45 166.553 L
235.459 166.472 L
235.96 163.456 L
235.97 163.43 L
236.086 163.294 L
236.461 163.981 L
236.471 163.985 L
236.654 163.681 L
236.972 168.084 L
236.981 168.15 L
237.473 171.186 L
237.482 171.19 L
237.675 171.025 L
237.983 172.904 L
237.993 172.999 L
238.089 172.473 L
238.455 175.92 L
238.484 175.727 L
238.494 175.8 L
238.571 175.695 L
238.985 177.716 L
238.994 177.78 L
239.495 185.29 L
239.505 185.549 L
239.986 188.503 L
239.996 188.498 L
240.006 188.508 L
240.507 189.512 L
240.516 189.524 L
240.95 190.044 L
241.007 189.966 L
241.017 189.95 L
241.518 187.953 L
241.528 187.854 L
241.903 184.827 L
242.019 184.987 L
242.028 184.93 L
242.183 185.138 L
242.481 184.244 L
242.529 184.457 L
242.539 184.385 L
242.549 184.328 L
243.03 185.36 L
243.04 185.399 L
243.165 185.215 L
243.541 188.55 L
243.55 188.72 L
244.042 201.446 L
244.051 201.832 L
244.542 217.994 L
244.552 218.244 L
245.053 227.319 L
245.063 227.379 L
245.197 227.921 L
245.554 227.05 L
245.563 227.029 L
246.064 221.229 L
246.074 221.091 L
246.295 219 L
246.565 221.301 L
246.575 221.431 L
247.076 226.903 L
247.085 226.95 L
247.576 228.034 L
247.586 228.033 L
247.875 227.89 L
248.087 227.967 L
248.097 227.944 L
248.424 228.602 L
248.588 227.708 L
248.597 227.639 L
249.098 219.481 L
249.108 219.345 L
249.599 211.806 L
249.609 211.673 L
250.11 204.232 L
250.119 204.173 L
250.611 199.785 L
250.62 199.693 L
250.842 198.51 L
251.111 198.891 L
251.121 198.901 L
251.516 199.677 L
251.622 199.464 L
251.632 199.456 L
251.699 199.387 L
252.046 200.214 L
252.123 199.893 L
252.132 199.827 L
252.373 198.84 L
252.633 199.42 L
252.643 199.43 L
252.71 199.46 L
253.134 198.12 L
253.144 198.086 L
253.317 197.674 L
253.645 198.469 L
253.654 198.597 L
254.146 209.132 L
254.155 209.369 L
254.656 217.771 L
254.666 217.869 L
255.157 224.511 L
255.166 224.583 L
255.311 224.431 L
255.658 224.978 L
255.667 224.937 L
255.677 224.912 L
255.696 224.93 L
256.168 221.662 L
256.178 221.557 L
256.669 213.847 L
256.679 213.693 L
257.18 210.653 L
257.189 210.589 L
257.68 205.192 L
257.69 205.096 L
258.191 200.147 L
258.201 200.17 L
258.21 200.173 L
258.692 196.834 L
258.701 196.827 L
258.807 196.537 L
259.183 198.296 L
259.202 197.977 L
259.212 197.681 L
259.337 196.842 L
259.703 198.626 L
259.713 198.646 L
259.722 198.632 L
259.905 199.476 L
260.214 199.403 L
260.223 199.392 L
260.233 199.405 L
260.705 198.141 L
260.715 198.148 L
260.724 198.128 L
261.071 197.73 L
261.225 198.458 L
261.235 198.606 L
261.726 199.956 L
261.736 199.971 L
261.774 199.939 L
262.092 201.535 L
262.227 201.146 L
262.236 201.236 L
262.66 202.544 L
262.737 202.393 L
262.747 202.331 L
263.238 199.319 L
263.248 199.238 L
263.729 195.908 L
263.749 195.91 L
263.758 195.912 L
263.816 196.08 L
264.201 195.253 L
264.249 195.486 L
264.259 195.517 L
264.423 195.182 L
264.596 196.279 L
264.76 195.631 L
264.77 195.614 L
265.213 192.835 L
265.261 193.001 L
265.27 193.015 L
265.771 195.028 L
265.781 195.079 L
266.272 196.877 L
266.282 196.878 L
266.388 196.38 L
266.783 198.461 L
266.792 198.49 L
267.284 204.143 L
267.293 204.291 L
267.794 210.727 L
267.804 210.876 L
268.295 217.998 L
268.305 218.038 L
268.314 218.003 L
268.796 219.389 L
268.805 219.434 L
269.056 219.92 L
269.306 219.196 L
269.316 219.148 L
269.807 216.105 L
269.817 216.015 L
270.298 211.844 L
270.318 211.952 L
270.327 211.925 L
270.818 216.931 L
270.828 217.043 L
271.329 223.394 L
271.339 223.52 L
271.791 225.797 L
271.83 225.763 L
271.839 225.761 L
271.849 225.734 L
272.34 231.562 L
272.35 231.656 L
272.523 232.768 L
272.841 231.835 L
272.851 231.764 L
273.352 222.331 L
273.361 222.06 L
273.853 210.146 L
273.862 209.89 L
274.353 203.109 L
274.363 203.022 L
274.864 200.144 L
274.874 200.164 L
275.365 202.805 L
275.374 202.888 L
275.875 212.917 L
275.885 213.187 L
276.376 225.914 L
276.386 226.055 L
276.887 235.744 L
276.896 235.855 L
277.388 242.423 L
277.397 242.494 L
277.542 243.728 L
277.898 240.756 L
277.908 240.566 L
278.235 236.406 L
278.399 237.24 L
278.409 237.301 L
278.746 239.001 L
278.909 236.854 L
278.919 236.715 L
279.285 234.808 L
279.41 235.002 L
279.42 234.954 L
279.468 234.782 L
279.921 237.221 L
279.93 237.357 L
280.239 240.368 L
280.422 239.201 L
280.431 239.316 L
280.585 240.182 L
280.922 234.425 L
280.932 234.332 L
281.346 232.03 L
281.433 232.694 L
281.443 232.778 L
281.462 232.749 L
281.558 233.896 L
281.934 232.984 L
281.943 232.935 L
282.444 228.564 L
282.454 228.52 L
282.945 225.092 L
282.955 225.082 L
283.456 222.514 L
283.465 222.432 L
283.947 219.868 L
283.957 219.875 L
283.966 219.874 L
284.101 219.997 L
284.467 218.303 L
284.477 218.189 L
284.708 217.032 L
284.968 217.291 L
284.978 217.186 L
285.305 219.213 L
285.478 218.635 L
285.488 218.659 L
285.517 218.661 L
285.979 216.424 L
285.989 216.326 L
286.355 214.808 L
286.48 215.259 L
286.49 215.246 L
286.605 215.343 L
286.991 214.592 L
287 214.581 L
287.491 213.971 L
287.501 213.937 L
287.944 213.015 L
288.002 213.533 L
288.012 213.721 L
288.166 213.372 L
288.484 215.442 L
288.503 215.438 L
288.512 215.423 L
288.628 215.167 L
289.013 216.901 L
289.023 217.004 L
289.514 218.482 L
289.524 218.506 L
290.025 220.236 L
290.034 220.281 L
290.526 224.121 L
290.535 224.27 L
291.036 230.746 L
291.046 230.88 L
291.537 237.248 L
291.547 237.337 L
292.047 251.376 L
292.057 251.686 L
292.548 264.378 L
292.558 264.667 L
293.049 276.893 L
293.059 277.212 L
293.232 281.41 L
293.56 279.663 L
293.569 279.57 L
294.061 269.423 L
294.07 269.193 L
294.571 260.513 L
294.581 260.402 L
295.072 252.663 L
295.081 252.556 L
295.582 242.494 L
295.592 242.331 L
296.083 236 L
296.093 235.924 L
296.459 234.169 L
296.594 234.318 L
296.603 234.328 L
297.095 233.152 L
297.104 233.142 L
297.162 233.121 L
297.605 240.79 L
297.615 241.024 L
298.096 244.085 L
298.106 244.072 L
298.116 244.062 L
298.154 244.021 L
298.607 245.441 L
298.616 245.484 L
298.867 246.239 L
299.117 244.691 L
299.127 244.635 L
299.618 240.717 L
299.628 240.624 L
299.84 239.248 L
300.129 240.059 L
300.138 240.087 L
300.254 240.4 L
300.63 239.499 L
300.639 239.466 L
300.649 239.464 L
301.13 240.985 L
301.14 240.976 L
301.15 240.954 L
301.362 241.272 L
301.641 239.615 L
301.651 239.493 L
301.853 238.057 L
302.151 239.262 L
302.161 239.276 L
302.228 239.715 L
302.652 238.262 L
302.662 238.26 L
302.749 238.313 L
303.163 236.154 L
303.172 236.084 L
303.664 233.993 L
303.673 233.948 L
304.164 230.011 L
304.174 230.033 L
304.367 230.717 L
304.54 229.922 L
304.675 229.954 L
304.685 229.925 L
304.713 229.95 L
305.176 228.409 L
305.185 228.428 L
305.205 228.437 L
305.561 227.32 L
305.686 227.562 L
305.696 227.537 L
305.734 227.744 L
306.149 226.167 L
306.187 226.35 L
306.197 226.356 L
306.312 227.102 L
306.698 226.758 L
306.707 226.702 L
306.736 226.199 L
307.006 228.305 L
307.199 228.019 L
307.208 228.109 L
307.593 226.509 L
307.709 226.709 L
307.719 226.763 L
308.2 228.443 L
308.21 228.405 L
308.22 228.337 L
308.383 228.8 L
308.672 228.012 L
308.72 228.115 L
308.73 228.157 L
308.865 228.022 L
309.029 228.957 L
309.221 228.846 L
309.231 228.919 L
309.443 229.366 L
309.587 228.324 L
309.732 228.794 L
309.741 228.802 L
310.107 227.584 L
310.233 228.22 L
310.242 228.209 L
310.589 229.455 L
310.733 229.402 L
310.743 229.463 L
311.244 231.257 L
311.254 231.32 L
311.437 232.145 L
311.697 230.506 L
311.745 231.568 L
311.754 231.997 L
311.909 231.644 L
312.255 233.358 L
312.265 233.347 L
312.679 232.761 L
312.756 232.966 L
312.766 233.004 L
312.997 233.614 L
313.267 231.008 L
313.276 230.866 L
313.575 229.687 L
313.729 231.075 L
313.768 230.139 L
313.777 229.896 L
313.864 229.795 L
314.268 232.129 L
314.278 232.073 L
314.288 232.012 L
314.779 234.808 L
314.789 234.904 L
314.846 234.499 L
315.289 239.893 L
315.299 240.029 L
315.79 246.714 L
315.8 246.846 L
316.291 253.841 L
316.301 254.031 L
316.802 264.913 L
316.811 265.127 L
317.302 276.619 L
317.312 276.787 L
317.813 288.634 L
317.823 288.889 L
318.314 296.642 L
318.323 296.678 L
318.824 297.763 L
318.834 297.779 L
319.325 298.753 L
319.335 298.776 L
319.836 299.782 L
319.845 299.797 L
320.337 300.764 L
320.346 300.787 L
320.847 301.793 L
320.857 301.819 L
321.348 302.795 L
321.358 302.815 L
321.858 303.838 L
321.868 303.865 L
322.359 304.874 L
322.369 304.891 L
322.86 305.847 L
322.87 305.858 L
323.371 306.894 L
323.38 306.903 L
323.872 307.877 L
323.881 307.892 L
324.382 308.937 L
324.392 308.955 L
324.883 309.964 L
324.893 309.986 L
325.393 311.016 L
325.403 311.035 L
325.894 311.983 L
325.904 312.009 L
326.405 313.009 L
326.414 313.035 L
326.906 314.01 L
326.915 314.036 L
327.416 315.04 L
327.426 315.056 L
327.917 315.688 L
327.927 315.694 L
327.936 315.693 L
328.418 316.869 L
328.427 316.902 L
328.928 318.137 L
328.938 318.156 L
329.429 319.134 L
329.439 319.148 L
329.94 320.143 L
329.949 320.155 L
330.441 321.153 L
330.45 321.172 L
330.951 322.196 L
330.961 322.211 L
331.452 323.004 L
331.462 323.011 L
331.51 323.085 L
331.962 320.164 L
331.972 320.098 L
332.463 311.696 L
332.473 311.456 L
332.974 302.235 L
332.983 302.198 L
333.475 296.454 L
333.484 296.404 L
333.812 291.325 L
333.975 292.135 L
333.985 292.165 L
334.486 300.111 L
334.496 300.254 L
334.939 304.886 L
334.987 304.831 L
334.996 304.804 L
335.305 305.013 L
335.497 302.817 L
335.507 302.712 L
335.998 296.809 L
336.008 296.68 L
336.509 289.169 L
336.518 289.041 L
337.01 280.953 L
337.019 280.779 L
337.52 271.436 L
337.53 271.225 L
338.021 264.059 L
338.031 263.973 L
338.512 261.295 L
338.531 261.331 L
338.541 261.345 L
338.57 261.358 L
339.032 257.797 L
339.042 257.754 L
339.495 256.817 L
339.543 257.03 L
339.552 257.223 L
340.044 258.624 L
340.053 258.647 L
340.545 261.525 L
340.554 261.608 L
341.055 267.534 L
341.065 267.644 L
341.556 276.061 L
341.565 276.231 L
342.066 285.886 L
342.076 286.073 L
342.567 295.298 L
342.577 295.486 L
343.078 306.499 L
343.087 306.744 L
343.579 317.115 L
343.588 317.283 L
344.089 324.225 L
344.099 324.383 L
344.32 326.582 L
344.59 326.334 L
344.6 326.337 L
344.609 326.34 L
345.072 326.144 L
345.1 326.161 L
345.11 326.157 L
345.168 326.159 L
345.601 326.031 L
345.611 326.021 L
345.64 326.031 L
346.083 325.921 L
346.102 325.928 L
346.112 325.926 L
346.593 325.705 L
346.613 325.712 L
346.622 325.714 L
347.114 324.985 L
347.123 324.953 L
347.605 324.329 L
347.624 324.336 L
347.634 324.336 L
348.125 322.833 L
348.135 322.751 L
348.635 312.476 L
348.645 312.108 L
349.136 295.536 L
349.146 295.326 L
349.647 283.419 L
349.656 283.201 L
350.148 273.878 L
350.157 273.778 L
350.36 272.087 L
350.658 273.556 L
350.668 273.595 L
350.899 274.599 L
351.159 273.425 L
351.169 273.359 L
351.66 269.766 L
351.669 269.789 L
351.679 269.714 L
351.795 270.995 L
352.17 264.287 L
352.18 264.094 L
352.671 258.247 L
352.681 258.205 L
352.69 258.237 L
353.182 250.652 L
353.191 250.452 L
353.683 241.864 L
353.692 241.706 L
354.193 235.502 L
354.203 235.374 L
354.549 233.69 L
354.694 234.692 L
354.704 234.805 L
354.819 234.652 L
355.204 235.576 L
355.214 235.594 L
355.705 239.554 L
355.715 239.698 L
355.869 239.428 L
356.216 240.278 L
356.225 240.306 L
356.717 241.147 L
356.726 241.173 L
357.227 242.821 L
357.237 242.842 L
357.728 247.705 L
357.738 247.893 L
358.229 255.393 L
358.238 255.602 L
358.739 264.579 L
358.749 264.726 L
359.24 273.068 L
359.25 273.199 L
359.751 278.048 L
359.76 278.1 L
360.252 280.902 L
360.261 280.896 L
360.762 278.633 L
360.772 278.595 L
361.263 278.281 L
361.273 278.272 L
361.773 276.654 L
361.783 276.61 L
362.274 274.343 L
362.284 274.296 L
362.785 271.901 L
362.794 271.861 L
363.286 269.593 L
363.295 269.547 L
363.787 267.239 L
363.796 267.192 L
364.297 264.837 L
364.307 264.792 L
364.798 262.474 L
364.808 262.43 L
365.308 260.062 L
365.318 260.026 L
365.809 257.454 L
365.819 257.371 L
366.32 253.306 L
366.329 253.238 L
366.821 248.351 L
366.83 248.19 L
367.331 236.083 L
367.341 235.882 L
367.832 223.711 L
367.842 223.46 L
368.342 211.053 L
368.352 210.797 L
368.843 199.4 L
368.853 199.193 L
369.354 191.954 L
369.363 191.895 L
369.855 190.261 L
369.864 190.206 L
370.356 183.524 L
370.365 183.388 L
370.75 183.908 L
370.866 181.878 L
370.876 181.755 L
371.367 174.539 L
371.377 174.429 L
371.858 171.246 L
371.877 171.356 L
371.887 171.366 L
372.012 170.991 L
372.378 171.744 L
372.388 171.862 L
372.735 173.223 L
372.87 171.546 L
372.889 171.656 L
372.898 171.766 L
372.975 171.361 L
373.39 174.88 L
373.399 174.957 L
373.9 183.887 L
373.91 184.076 L
374.401 193.951 L
374.411 194.039 L
374.911 201.688 L
374.921 201.906 L
375.412 214.796 L
375.422 215.074 L
375.913 231.202 L
375.923 231.545 L
376.424 248.61 L
376.433 249.004 L
376.925 264.967 L
376.934 265.211 L
377.339 271.138 L
377.435 271.062 L
377.445 271.053 L
377.936 274.399 L
377.946 274.489 L
378.446 277.374 L
378.456 277.414 L
378.947 279.774 L
378.957 279.823 L
379.458 282.247 L
379.467 282.297 L
379.959 284.654 L
379.968 284.694 L
380.344 286.384 L
380.469 285.944 L
380.479 285.881 L
380.97 281.197 L
380.98 280.879 L
381.48 263.451 L
381.49 263.215 L
381.981 253.224 L
381.991 252.986 L
382.482 242.271 L
382.492 242.064 L
382.993 228.878 L
383.002 228.667 L
383.195 224.419 L
383.494 230.653 L
383.503 230.949 L
384.004 248.613 L
384.014 249 L
384.505 266.702 L
384.515 266.825 L
385.015 269.364 L
385.025 269.393 L
385.516 273.399 L
385.526 273.529 L
385.661 274.536 L
386.027 270.346 L
386.036 270.293 L
386.528 260.989 L
386.537 260.787 L
387.038 248.115 L
387.048 247.805 L
387.539 239.179 L
387.549 239.063 L
388.04 235.465 L
388.049 235.39 L
388.425 233 L
388.55 233.25 L
388.56 233.233 L
388.57 233.247 L
388.878 231.849 L
389.051 232.608 L
389.061 232.484 L
389.138 232.044 L
389.562 234.878 L
389.571 234.966 L
390.034 238.862 L
390.063 238.746 L
390.072 238.689 L
390.101 238.586 L
390.573 241.84 L
390.583 241.989 L
391.074 249.623 L
391.084 249.772 L
391.584 254.498 L
391.594 254.535 L
392.066 255.59 L
392.085 255.571 L
392.095 255.581 L
392.143 255.568 L
392.461 256.464 L
392.596 256.063 L
392.605 256.004 L
393.097 247.505 L
393.106 247.325 L
393.434 242.474 L
393.607 245.37 L
393.617 245.54 L
394.108 253.697 L
394.118 253.728 L
394.609 256.295 L
394.619 256.457 L
395.119 267.794 L
395.129 268.073 L
395.62 277.563 L
395.63 277.799 L
396.131 285.012 L
396.14 285.034 L
396.189 285.11 L
396.632 282.762 L
396.641 282.655 L
397.142 274.89 L
397.152 274.825 L
397.643 271.318 L
397.653 271.291 L
397.961 271.908 L
398.154 270.709 L
398.163 270.475 L
398.654 265.555 L
398.664 265.419 L
399.165 257.741 L
399.174 257.539 L
399.666 248.803 L
399.675 248.642 L
399.993 245.152 L
400.167 245.421 L
400.176 245.487 L
400.195 245.529 L
400.677 242.921 L
400.687 242.93 L
400.725 242.909 L
401.149 243.767 L
401.178 243.701 L
401.188 243.745 L
401.688 247.905 L
401.698 248.021 L
402.189 254.803 L
402.199 254.952 L
402.7 261.239 L
402.709 261.299 L
403.201 264.564 L
403.21 264.693 L
403.711 268.092 L
403.721 268.155 L
404.212 271.108 L
404.222 271.095 L
404.723 272.523 L
404.732 272.546 L
405.194 273.458 L
405.223 273.448 L
405.233 273.451 L
405.252 273.461 L
405.724 271.296 L
405.734 271.255 L
405.801 271.065 L
406.235 274.978 L
406.244 275.025 L
406.447 275.652 L
406.736 275.561 L
406.745 275.572 L
407.236 276.278 L
407.246 276.251 L
407.256 276.216 L
407.747 275.283 L
407.757 275.218 L
408.257 269.758 L
408.267 269.572 L
408.758 255.991 L
408.768 255.756 L
409.269 248.1 L
409.278 247.962 L
409.327 247.575 L
409.77 255.679 L
409.779 255.912 L
410.28 268.566 L
410.29 268.839 L
410.781 281.394 L
410.791 281.708 L
411.292 291.343 L
411.301 291.459 L
411.792 298.645 L
411.802 298.802 L
412.235 304.924 L
412.293 304.749 L
412.303 304.684 L
412.775 302.543 L
412.804 302.559 L
412.813 302.568 L
413.305 305.384 L
413.314 305.465 L
413.459 306.345 L
413.815 306.19 L
413.825 306.182 L
413.834 306.181 L
414.191 306.252 L
414.316 306.232 L
414.326 306.234 L
414.547 306.214 L
414.826 306.246 L
414.836 306.243 L
414.865 306.228 L
415.279 306.287 L
415.327 306.275 L
415.337 306.28 L
415.414 306.304 L
415.838 306.249 L
415.847 306.258 L
415.896 306.253 L
416.339 306.291 L
416.348 306.296 L
416.387 306.29 L
416.763 306.328 L
416.849 306.316 L
416.859 306.31 L
416.907 306.33 L
417.263 306.294 L
417.35 306.307 L
417.36 306.309 L
417.514 306.303 L
417.851 306.357 L
417.861 306.356 L
417.976 306.361 L
418.246 306.327 L
418.361 306.341 L
418.371 306.336 L
418.477 306.351 L
418.641 306.319 L
418.862 306.331 L
418.872 306.323 L
418.93 306.334 L
419.151 306.304 L
419.373 306.332 L
419.382 306.334 L
419.402 306.326 L
419.768 306.371 L
419.874 306.363 L
419.883 306.366 L
420.037 306.34 L
420.384 306.385 L
420.394 306.392 L
420.519 306.405 L
420.885 306.378 L
420.895 306.382 L
421.01 306.367 L
421.367 306.408 L
421.395 306.391 L
421.405 306.397 L
421.81 306.448 L
421.896 306.436 L
421.906 306.405 L
422.407 302.06 L
422.417 301.848 L
422.908 282.299 L
422.917 281.956 L
423.418 267.207 L
423.428 266.924 L
423.919 255.422 L
423.929 255.345 L
424.343 248.944 L
424.42 249.376 L
424.43 249.356 L
424.93 245.647 L
424.94 245.6 L
425.431 241.369 L
425.441 241.313 L
425.576 240.762 L
425.942 242.014 L
425.951 242.031 L
426.443 243.768 L
426.452 243.846 L
426.953 252.427 L
426.963 252.659 L
427.454 262.825 L
427.464 263.015 L
427.965 273.952 L
427.974 274.144 L
428.465 283.111 L
428.475 283.268 L
428.976 291.327 L
428.986 291.438 L
429.477 296.256 L
429.486 296.356 L
429.978 300.969 L
429.987 301.07 L
430.238 302.815 L
430.488 302.376 L
430.498 302.368 L
430.748 302.211 L
430.989 302.269 L
430.999 302.261 L
431.047 302.268 L
431.499 301.517 L
431.509 301.495 L
431.663 301.333 L
432 301.643 L
432.01 301.657 L
432.424 301.937 L
432.511 301.909 L
432.52 301.91 L
432.549 301.919 L
433.012 301.714 L
433.021 301.688 L
433.522 297.758 L
433.532 297.67 L
434.023 290.04 L
434.033 289.796 L
434.534 285.081 L
434.543 284.967 L
435.034 281.286 L
435.044 281.261 L
435.343 280.079 L
435.535 280.573 L
435.545 280.604 L
436.046 283.077 L
436.055 283.147 L
436.547 288.501 L
436.556 288.607 L
436.855 292.218 L
437.057 292.15 L
437.067 292.143 L
437.558 288.724 L
437.568 288.639 L
438.068 276.135 L
438.078 275.865 L
438.569 265.867 L
438.579 265.7 L
439.012 261.024 L
439.08 261.129 L
439.089 261.174 L
439.581 269.254 L
439.59 269.417 L
440.091 274.531 L
440.101 274.552 L
440.419 275.012 L
440.592 272.825 L
440.602 272.619 L
440.9 268.938 L
441.103 269.625 L
441.112 269.674 L
441.237 270.147 L
441.603 266.716 L
441.613 266.58 L
442.104 260.238 L
442.114 260.164 L
442.278 259.215 L
442.538 260.242 L
442.615 260.155 L
442.624 260.231 L
443.116 262.981 L
443.125 263.023 L
443.626 265.708 L
443.636 265.74 L
443.742 265.571 L
444.127 267.716 L
444.137 267.792 L
444.638 272.825 L
444.647 272.965 L
445.138 281.253 L
445.148 281.452 L
445.649 290.797 L
445.658 290.913 L
445.803 292.11 L
446.15 289.926 L
446.159 289.912 L
446.342 289.757 L
446.66 291.53 L
446.67 291.603 L
446.766 292.078 L
447.161 291.991 L
447.171 291.995 L
447.604 292.561 L
447.662 292.52 L
447.672 292.512 L
448.144 292.374 L
448.172 292.383 L
448.182 292.386 L
448.644 292.25 L
448.673 292.254 L
448.683 292.254 L
449.184 292.112 L
449.193 292.109 L
449.665 291.955 L
449.685 291.957 L
449.694 291.953 L
450.195 291.391 L
450.205 291.383 L
450.696 288.865 L
450.706 288.792 L
450.908 287.137 L
451.207 288.296 L
451.216 288.35 L
451.707 291.525 L
451.717 291.585 L
452.218 293.524 L
452.228 293.536 L
452.719 294.288 L
452.728 294.302 L
453.229 295.098 L
453.239 295.109 L
453.73 295.922 L
453.74 295.939 L
454.231 296.706 L
454.241 296.724 L
454.741 297.491 L
454.751 297.504 L
455.242 298.253 L
455.252 298.263 L
455.753 299.082 L
455.762 299.094 L
455.897 299.286 L
456.254 298.094 L
456.263 298.027 L
456.764 293.164 L
456.774 292.931 L
457.265 285.4 L
457.275 285.298 L
457.776 273.881 L
457.785 273.691 L
457.843 272.959 L
458.276 295.375 L
458.286 295.511 L
458.325 295.769 L
458.787 292.799 L
458.797 292.735 L
458.864 292.492 L
459.288 300.755 L
459.297 300.881 L
459.789 303.46 L
459.798 303.497 L
460.087 304.656 L
460.299 302.99 L
460.309 302.912 L
460.8 297.543 L
460.81 297.274 L
461.31 281.692 L
461.32 281.447 L
461.811 270.854 L
461.821 270.671 L
462.322 259.875 L
462.331 259.658 L
462.823 253.972 L
462.832 253.881 L
463.324 248.975 L
463.333 248.986 L
463.343 248.988 L
463.69 246.674 L
463.834 247.068 L
463.844 247.109 L
464.2 248.556 L
464.345 247.837 L
464.354 247.794 L
464.778 244.929 L
464.845 245.393 L
464.855 245.406 L
464.961 245.375 L
465.346 246.66 L
465.356 246.717 L
465.857 250.564 L
465.866 250.704 L
466.358 260.462 L
466.367 260.675 L
466.868 264.291 L
466.878 264.308 L
466.887 264.307 L
467.253 265.37 L
467.369 265.346 L
467.379 265.29 L
467.388 265.263 L
467.706 266.231 L
467.88 265.568 L
467.889 265.542 L
468.38 261.222 L
468.39 261.129 L
468.891 257.277 L
468.901 257.275 L
469.392 255.679 L
469.401 255.607 L
469.575 254.128 L
469.902 254.567 L
469.912 254.544 L
469.931 254.469 L
470.403 256.189 L
470.413 256.279 L
470.605 256.033 L
470.914 257.04 L
470.923 257.124 L
470.943 257.081 L
471.414 258.193 L
471.424 258.202 L
471.655 258.465 L
471.915 257.782 L
471.925 257.724 L
472.426 254.566 L
472.435 254.576 L
472.927 256.04 L
472.936 256.112 L
473.437 259.22 L
473.447 259.339 L
473.938 265.492 L
473.948 265.602 L
474.449 272.683 L
474.458 272.84 L
474.949 278.868 L
474.959 279.002 L
475.46 284.399 L
475.47 284.535 L
475.961 291.161 L
475.97 291.274 L
476.086 292.053 L
476.471 291.571 L
476.481 291.554 L
476.5 291.54 L
476.972 294.189 L
476.982 294.24 L
477.155 295.043 L
477.473 294.139 L
477.483 294.117 L
477.617 293.705 L
477.983 295.675 L
477.993 295.734 L
478.157 296.703 L
478.484 295.306 L
478.494 295.258 L
478.995 290.869 L
479.004 290.732 L
479.496 284.127 L
479.505 284.016 L
479.804 282.368 L
480.006 283.12 L
480.016 283.178 L
480.507 286.126 L
480.517 286.154 L
481.018 291.107 L
481.027 291.26 L
481.518 302.125 L
481.528 302.343 L
482.029 313.624 L
482.039 313.836 L
482.222 317.835 L
482.53 317.33 L
482.539 317.333 L
482.751 317.13 L
483.04 317.412 L
483.05 317.422 L
483.474 317.532 L
483.541 317.528 L
483.551 317.534 L
484.042 317.704 L
484.052 317.71 L
484.553 317.835 L
484.562 317.837 L
485.053 317.991 L
485.063 317.996 L
485.564 318.171 L
485.573 318.179 L
486.045 318.308 L
486.065 318.304 L
486.074 318.306 L
486.113 318.304 L
486.575 318.442 L
486.585 318.446 L
486.614 318.439 L
487.066 318.568 L
487.076 318.566 L
487.086 318.569 L
487.558 318.702 L
487.587 318.702 L
487.596 318.705 L
488.087 318.848 L
488.097 318.853 L
488.569 318.999 L
488.598 318.997 L
488.608 319.005 L
489.099 319.146 L
489.108 319.147 L
489.6 319.301 L
489.609 319.303 L
490.091 319.455 L
490.11 319.454 L
490.12 319.459 L
490.611 319.613 L
490.621 319.616 L
491.122 319.747 L
491.131 319.751 L
491.622 319.88 L
491.632 319.885 L
492.133 320.014 L
492.142 320.013 L
492.152 320.011 L
492.634 320.153 L
492.643 320.156 L
492.653 320.155 L
493.144 320.282 L
493.154 320.283 L
493.645 320.457 L
493.655 320.459 L
494.156 320.594 L
494.165 320.593 L
494.175 320.591 L
494.656 320.744 L
494.666 320.74 L
494.676 320.739 L
495.167 320.862 L
495.177 320.864 L
495.668 321.016 L
495.677 321.022 L
496.169 321.174 L
496.178 321.177 L
496.66 321.336 L
496.679 321.332 L
496.689 321.333 L
496.708 321.333 L
497.18 321.509 L
497.19 321.51 L
497.681 321.697 L
497.691 321.696 L
497.7 321.697 L
498.182 321.817 L
498.191 321.816 L
498.201 321.814 L
498.692 322.01 L
498.702 322.01 L
498.712 322.012 L
499.193 322.151 L
499.203 322.149 L
499.212 322.148 L
499.704 322.281 L
499.713 322.28 L
499.723 322.28 L
500.204 322.425 L
500.214 322.424 L
500.224 322.426 L
500.705 322.536 L
500.725 322.534 L
500.734 322.536 L
501.225 322.68 L
501.235 322.683 L
501.726 322.806 L
501.736 322.814 L
502.237 322.968 L
502.246 322.972 L
502.728 323.112 L
502.738 323.111 L
502.747 323.115 L
503.248 323.26 L
503.258 323.267 L
503.749 323.412 L
503.759 323.417 L
504.26 323.572 L
504.269 323.577 L
504.76 323.746 L
504.77 323.752 L
505.252 323.901 L
505.271 323.898 L
505.281 323.906 L
505.753 324.123 L
505.772 324.123 L
505.781 324.131 L
506.263 324.281 L
506.282 324.278 L
506.292 324.281 L
506.783 324.428 L
506.793 324.433 L
507.284 324.616 L
507.294 324.623 L
507.794 324.805 L
507.804 324.809 L
508.295 324.966 L
508.305 324.97 L
508.806 325.105 L
508.815 325.107 L
509.307 325.321 L
509.316 325.328 L
509.817 325.502 L
509.827 325.506 L
509.846 325.501 L
510.318 325.641 L
510.328 325.645 L
510.829 325.778 L
510.838 325.78 L
511.329 325.95 L
511.339 325.952 L
511.349 325.952 L
511.84 326.136 L
511.85 326.14 L
512.341 326.292 L
512.35 326.294 L
512.37 326.288 L
512.851 326.478 L
512.861 326.479 L
512.871 326.478 L
513.352 326.665 L
513.362 326.673 L
513.853 326.829 L
513.863 326.833 L
513.882 326.832 L
514.364 327.009 L
514.373 327.012 L
514.864 327.13 L
514.874 327.134 L
515.375 327.323 L
515.385 327.326 L
515.876 327.475 L
515.885 327.479 L
515.943 327.473 L
516.377 327.63 L
516.386 327.629 L
516.396 327.626 L
516.406 327.625 L
516.887 327.823 L
516.897 327.826 L
517.051 327.802 L
517.388 327.984 L
517.398 327.984 L
517.407 327.986 L
517.436 327.982 L
517.735 328.166 L
517.898 328.163 L
517.908 328.167 L
517.966 328.162 L
518.409 328.318 L
518.419 328.318 L
518.438 328.315 L
518.91 328.565 L
518.919 328.574 L
519.372 328.727 L
519.411 328.725 L
519.42 328.729 L
519.921 328.915 L
519.931 328.916 L
520.053 328.953 L
S
GR
GS
[0.74227 0 0 0.74227 0 0.36081] CT
0.851 0.325 0.098 RC
1 LJ
2.021 LW
N
75 242.387 M
75.385 242.387 L
75.771 242.387 L
76.156 242.387 L
76.541 242.387 L
76.926 242.387 L
77.312 242.387 L
77.697 242.387 L
78.082 242.387 L
78.468 242.387 L
78.853 242.387 L
79.238 242.387 L
79.623 242.387 L
80.009 242.387 L
80.394 242.387 L
80.779 242.387 L
81.165 242.387 L
81.55 242.387 L
81.935 242.387 L
82.32 242.387 L
82.706 242.387 L
83.091 241.267 L
83.476 239.686 L
83.861 238.628 L
84.247 236.018 L
84.632 230.673 L
85.017 227.786 L
85.403 223.279 L
85.788 217.271 L
86.173 210.226 L
86.558 206.565 L
86.944 208.77 L
87.329 217.32 L
87.714 225.634 L
88.1 233.262 L
88.485 239.368 L
88.87 240.878 L
89.255 240.508 L
89.641 237.723 L
90.026 231.587 L
90.411 225.19 L
90.797 215.557 L
91.182 209.127 L
91.567 203.026 L
91.952 201.256 L
92.338 200.661 L
92.723 200.887 L
93.108 204.059 L
93.494 205.886 L
93.879 207.509 L
94.264 212.117 L
94.649 215.195 L
95.035 218.134 L
95.42 216.703 L
95.805 219.747 L
96.19 218.237 L
96.576 218.134 L
96.961 221.138 L
97.346 219.308 L
97.732 225.448 L
98.117 228.619 L
98.502 225.379 L
98.887 225.472 L
99.273 226.703 L
99.658 227.232 L
100.043 224.476 L
100.429 218.039 L
100.814 211.6 L
101.199 206.565 L
101.584 205.162 L
101.97 200.128 L
102.355 194.091 L
102.74 192.284 L
103.126 192.284 L
103.511 192.822 L
103.896 191.872 L
104.281 192.284 L
104.667 192.673 L
105.052 194.091 L
105.437 194.091 L
105.823 193.384 L
106.208 194.824 L
106.593 196.599 L
106.978 199.476 L
107.364 200.907 L
107.749 207.344 L
108.134 210.899 L
108.519 216.629 L
108.905 224.865 L
109.29 232.728 L
109.675 238.628 L
110.061 239.167 L
110.446 240.878 L
110.831 240.878 L
111.216 242.387 L
111.602 242.387 L
111.987 242.387 L
112.372 242.387 L
112.758 242.387 L
113.143 242.387 L
113.528 242.387 L
113.913 242.387 L
114.299 239.167 L
114.684 235.948 L
115.069 229.508 L
115.455 221.647 L
115.84 216.219 L
116.225 212.342 L
116.61 212.342 L
116.996 213.168 L
117.381 220.786 L
117.766 224.24 L
118.152 228.803 L
118.537 233.262 L
118.922 242.387 L
119.307 242.387 L
119.693 240.878 L
120.078 239.167 L
120.463 237.335 L
120.848 230.911 L
121.234 222.965 L
121.619 215.049 L
122.004 205.5 L
122.39 198.557 L
122.775 192.483 L
123.16 186.836 L
123.545 179.762 L
123.931 177.072 L
124.316 173.401 L
124.701 173.401 L
125.087 173.631 L
125.472 174.381 L
125.857 176.326 L
126.242 177.292 L
126.628 181.466 L
127.013 183.159 L
127.398 186.344 L
127.784 189.04 L
128.169 193.46 L
128.554 196.352 L
128.939 197.861 L
129.325 197.126 L
129.71 193.196 L
130.095 189.793 L
130.481 185.14 L
130.866 182.684 L
131.251 179.481 L
131.636 177.791 L
132.022 175.356 L
132.407 173.402 L
132.792 172.418 L
133.177 173.122 L
133.563 172.663 L
133.948 172.857 L
134.333 172.059 L
134.719 172.059 L
135.104 173.811 L
135.489 174.596 L
135.874 173.122 L
136.26 173.8 L
136.645 173.8 L
137.03 174.451 L
137.416 176.8 L
137.801 176.091 L
138.186 178.05 L
138.571 177.459 L
138.957 178.536 L
139.342 182.133 L
139.727 188.334 L
140.113 195.534 L
140.498 203.58 L
140.883 210.542 L
141.268 219.805 L
141.654 226.159 L
142.039 234.153 L
142.424 239.686 L
142.81 242.387 L
143.195 242.387 L
143.58 242.387 L
143.965 242.387 L
144.351 242.387 L
144.736 242.387 L
145.121 240.508 L
145.507 242.387 L
145.892 242.387 L
146.277 242.387 L
146.662 242.387 L
147.048 242.387 L
147.433 242.387 L
147.818 242.387 L
148.203 242.387 L
148.589 240.878 L
148.974 236.018 L
149.359 226.992 L
149.745 219.553 L
150.13 209.745 L
150.515 200.831 L
150.9 198.584 L
151.286 194.08 L
151.671 189.994 L
152.056 185.104 L
152.442 181.012 L
152.827 179.143 L
153.212 176.516 L
153.597 173.884 L
153.983 173.11 L
154.368 171.246 L
154.753 172.779 L
155.139 172.779 L
155.524 173.128 L
155.909 176.145 L
156.294 177.272 L
156.68 179.143 L
157.065 176.878 L
157.45 180.251 L
157.835 180.251 L
158.221 182.656 L
158.606 185.321 L
158.991 190.351 L
159.377 197.804 L
159.762 207.89 L
160.147 216.112 L
160.532 225.919 L
160.918 233.355 L
161.303 238.704 L
161.688 242.387 L
162.074 242.387 L
162.459 242.387 L
162.844 242.387 L
163.229 242.387 L
163.615 242.387 L
164 242.387 L
164.385 242.387 L
164.771 242.387 L
165.156 242.387 L
165.541 242.387 L
165.926 242.387 L
166.312 240.878 L
166.697 242.387 L
167.082 240.878 L
167.468 240.508 L
167.853 238.704 L
168.238 235.187 L
168.623 231.585 L
169.009 229.797 L
169.394 227.656 L
169.779 229.706 L
170.165 227.831 L
170.55 224.539 L
170.935 218.892 L
171.32 207.082 L
171.706 200.449 L
172.091 195.153 L
172.476 190.73 L
172.861 188.855 L
173.247 192.604 L
173.632 195.943 L
174.017 200.449 L
174.403 209.452 L
174.788 215.289 L
175.173 222.361 L
175.558 228.569 L
175.944 233.058 L
176.329 237.859 L
176.714 236.247 L
177.1 236.247 L
177.485 237.859 L
177.87 237.859 L
178.255 239.167 L
178.641 242.387 L
179.026 242.387 L
179.411 242.387 L
179.797 242.387 L
180.182 242.387 L
180.567 242.387 L
180.952 241.267 L
181.338 241.267 L
181.723 242.387 L
182.108 242.387 L
182.494 242.387 L
182.879 242.387 L
183.264 242.387 L
183.649 242.387 L
184.035 242.387 L
184.42 242.387 L
184.805 242.387 L
185.19 241.267 L
185.576 242.387 L
185.961 240.878 L
186.346 240.508 L
186.732 234.285 L
187.117 222.179 L
187.502 209.931 L
187.887 201.878 L
188.273 194.7 L
188.658 186.631 L
189.043 181.198 L
189.429 178.52 L
189.814 180.329 L
190.199 183.821 L
190.584 186.506 L
190.97 190.161 L
191.355 192.848 L
191.74 198.307 L
192.126 204.616 L
192.511 211.761 L
192.896 219.904 L
193.281 226.159 L
193.667 231.506 L
194.052 235.022 L
194.437 236.986 L
194.823 239.686 L
195.208 240.148 L
195.593 239.686 L
195.978 240.148 L
196.364 234.285 L
196.749 224.322 L
197.134 212.612 L
197.519 205.416 L
197.905 198.05 L
198.29 190.161 L
198.675 185.515 L
199.061 185.515 L
199.446 181.832 L
199.831 179.987 L
200.216 177.316 L
200.602 173.624 L
200.987 169.108 L
201.372 168.074 L
201.758 169.108 L
202.143 168.88 L
202.528 171.775 L
202.913 177.102 L
203.299 183.469 L
203.684 190.864 L
204.069 199.663 L
204.455 207.081 L
204.84 212.401 L
205.225 216.911 L
205.61 223.474 L
205.996 226.159 L
206.381 232.283 L
206.766 236.026 L
207.152 239.686 L
207.537 240.508 L
207.922 239.686 L
208.307 240.878 L
208.693 241.267 L
209.078 242.387 L
209.463 242.387 L
209.848 242.387 L
210.234 241.267 L
210.619 241.267 L
211.004 240.878 L
211.39 242.387 L
211.775 242.387 L
212.16 242.387 L
212.545 242.387 L
212.931 242.387 L
213.316 242.387 L
213.701 242.387 L
214.087 242.387 L
214.472 242.387 L
214.857 242.387 L
215.242 242.387 L
215.628 242.387 L
216.013 242.387 L
216.398 242.387 L
216.784 240.878 L
217.169 242.387 L
217.554 242.387 L
217.939 242.387 L
218.325 242.387 L
218.71 242.387 L
219.095 238.628 L
219.481 231.584 L
219.866 220.625 L
220.251 210.773 L
220.636 200.716 L
221.022 196.201 L
221.407 188.784 L
221.792 184.272 L
222.177 180.805 L
222.563 178.696 L
222.948 176.835 L
223.333 176.835 L
223.719 175.002 L
224.104 173.846 L
224.489 174.056 L
224.874 172.282 L
225.26 173.511 L
225.645 174.161 L
226.03 174.161 L
226.416 175.39 L
226.801 175.39 L
227.186 177.129 L
227.571 178.017 L
227.957 179.89 L
228.342 184.374 L
228.727 190.278 L
229.113 192.848 L
229.498 194.182 L
229.883 196.052 L
230.268 196.352 L
230.654 195.542 L
231.039 194.508 L
231.424 199.595 L
231.81 199.556 L
232.195 198.314 L
232.58 195.612 L
232.965 190.221 L
233.351 183.023 L
233.736 178.535 L
234.121 173.137 L
234.506 170.438 L
234.892 168.614 L
235.277 169.529 L
235.662 168.625 L
236.048 165.93 L
236.433 166.812 L
236.818 165.869 L
237.203 169.542 L
237.589 169.542 L
237.974 170.438 L
238.359 171.342 L
238.745 172.198 L
239.13 173.129 L
239.515 178.519 L
239.9 182.09 L
240.286 184.829 L
240.671 185.727 L
241.056 186.63 L
241.442 185.727 L
241.827 183.023 L
242.212 180.157 L
242.597 179.306 L
242.983 180.328 L
243.368 182.132 L
243.753 183.907 L
244.139 193.8 L
244.524 206.384 L
244.909 216.111 L
245.294 221.644 L
245.68 222.599 L
246.065 220.782 L
246.45 216.301 L
246.835 217.128 L
247.221 220.625 L
247.606 222.599 L
247.991 222.599 L
248.377 221.701 L
248.762 220.782 L
249.147 215.38 L
249.532 209.112 L
249.918 203.644 L
250.303 197.361 L
250.688 192.918 L
251.074 192.026 L
251.459 192.026 L
251.844 192.916 L
252.229 193.824 L
252.615 194.7 L
253 192.916 L
253.385 192.916 L
253.771 194.7 L
254.156 200.116 L
254.541 208.329 L
254.926 211.199 L
255.312 213.362 L
255.697 211.565 L
256.082 207.88 L
256.468 204.952 L
256.853 198.956 L
257.238 195.913 L
257.623 194.035 L
258.009 190.969 L
258.394 188.545 L
258.779 186.666 L
259.164 186.006 L
259.55 185.433 L
259.935 188.545 L
260.32 188.545 L
260.706 187.886 L
261.091 187.211 L
261.476 189.765 L
261.861 190.969 L
262.247 192.157 L
262.632 193.524 L
263.017 193.571 L
263.403 190.43 L
263.788 188.555 L
264.173 187.941 L
264.558 187.311 L
264.944 186.666 L
265.329 186.523 L
265.714 187.311 L
266.1 189.765 L
266.485 189.19 L
266.87 189.818 L
267.255 192.849 L
267.641 196.607 L
268.026 202.921 L
268.411 206.09 L
268.797 209.055 L
269.182 209.452 L
269.567 208.681 L
269.952 204.413 L
270.338 200.717 L
270.723 200.449 L
271.108 206.817 L
271.493 209.98 L
271.879 210.542 L
272.264 212.887 L
272.649 210.69 L
273.035 208.874 L
273.42 200.365 L
273.805 191.867 L
274.19 184.376 L
274.576 181.763 L
274.961 179.144 L
275.346 179.144 L
275.732 184.751 L
276.117 191.435 L
276.502 198.308 L
276.887 204.577 L
277.273 206.557 L
277.658 207.743 L
278.043 203.715 L
278.429 199.065 L
278.814 200.717 L
279.199 198.226 L
279.584 197.792 L
279.97 197.926 L
280.355 198.771 L
280.74 198.723 L
281.126 196.91 L
281.511 192.674 L
281.896 194.824 L
282.281 194.824 L
282.667 191.873 L
283.052 190.021 L
283.437 184.458 L
283.823 184.804 L
284.208 181.676 L
284.593 182.908 L
284.978 180.369 L
285.364 181.574 L
285.749 182.248 L
286.134 179.798 L
286.519 179.176 L
286.905 177.271 L
287.29 177.919 L
287.675 176.61 L
288.061 174.799 L
288.446 176.04 L
288.831 177.299 L
289.216 177.216 L
289.602 177.271 L
289.987 180.368 L
290.372 177.786 L
290.758 183.554 L
291.143 186.666 L
291.528 189.152 L
291.913 196.702 L
292.299 206.001 L
292.684 217.272 L
293.069 226.659 L
293.455 232.99 L
293.84 231.74 L
294.225 225.448 L
294.61 214.852 L
294.996 206.699 L
295.381 197.009 L
295.766 190.865 L
296.152 185.648 L
296.537 183.028 L
296.922 182.116 L
297.307 182.973 L
297.693 188.257 L
298.078 192.2 L
298.463 193.775 L
298.848 194.7 L
299.234 191.999 L
299.619 191.903 L
300.004 188.374 L
300.39 188.374 L
300.775 188.426 L
301.16 188.374 L
301.545 188.374 L
301.931 187.303 L
302.316 187.442 L
302.701 188.074 L
303.087 185.727 L
303.472 186.63 L
303.857 183.907 L
304.242 181.234 L
304.628 180.951 L
305.013 179.763 L
305.398 178.253 L
305.784 177.293 L
306.169 177.459 L
306.554 176.738 L
306.939 177.629 L
307.325 177.629 L
307.71 178.496 L
308.095 177.571 L
308.481 179.415 L
308.866 178.496 L
309.251 180.271 L
309.636 180.158 L
310.022 180.271 L
310.407 180.328 L
310.792 179.398 L
311.177 180.328 L
311.563 181.213 L
311.948 182.115 L
312.333 183.802 L
312.719 184.605 L
313.104 182.857 L
313.489 182.684 L
313.874 181.906 L
314.26 181.196 L
314.645 182.115 L
315.03 184.815 L
315.416 189.298 L
315.801 194.699 L
316.186 199.063 L
316.571 206.383 L
316.957 212.705 L
317.342 222.599 L
317.727 231.506 L
318.113 238.628 L
318.498 241.267 L
318.883 242.387 L
319.268 241.267 L
319.654 242.387 L
320.039 242.387 L
320.424 242.387 L
320.81 242.387 L
321.195 242.387 L
321.58 242.387 L
321.965 242.387 L
322.351 242.387 L
322.736 242.387 L
323.121 242.387 L
323.506 242.387 L
323.892 242.387 L
324.277 242.387 L
324.662 242.387 L
325.048 242.387 L
325.433 242.387 L
325.818 242.387 L
326.203 242.387 L
326.589 242.387 L
326.974 242.387 L
327.359 242.387 L
327.745 240.878 L
328.13 242.387 L
328.515 242.387 L
328.9 242.387 L
329.286 242.387 L
329.671 242.387 L
330.056 242.387 L
330.442 242.387 L
330.827 242.387 L
331.212 242.387 L
331.597 241.267 L
331.983 239.167 L
332.368 236.018 L
332.753 227.786 L
333.139 219.552 L
333.524 214.683 L
333.909 212.401 L
334.294 210.893 L
334.68 215.4 L
335.065 220.29 L
335.45 218.754 L
335.836 215.343 L
336.221 208.595 L
336.606 202.732 L
336.991 197.008 L
337.377 191.115 L
337.762 184.374 L
338.147 179.007 L
338.532 175.935 L
338.918 174.056 L
339.303 172.85 L
339.688 172.85 L
340.074 173.511 L
340.459 174.161 L
340.844 178.553 L
341.229 183.554 L
341.615 189.817 L
342 196.061 L
342.385 204.212 L
342.771 212.97 L
343.156 220.483 L
343.541 229.866 L
343.926 236.749 L
344.312 240.508 L
344.697 242.387 L
345.082 242.387 L
345.468 242.387 L
345.853 242.387 L
346.238 242.387 L
346.623 242.387 L
347.009 242.387 L
347.394 240.878 L
347.779 240.878 L
348.165 242.387 L
348.55 236.749 L
348.935 227.786 L
349.32 215.394 L
349.706 206.455 L
350.091 195.942 L
350.476 192.496 L
350.861 190.641 L
351.247 190.031 L
351.632 189.188 L
352.017 186.505 L
352.403 180.806 L
352.788 177.102 L
353.173 174.44 L
353.558 168.074 L
353.944 166.221 L
354.329 162.744 L
354.714 162.744 L
355.1 166.61 L
355.485 170.126 L
355.87 173.624 L
356.255 177.315 L
356.641 181.832 L
357.026 184.503 L
357.411 189.019 L
357.797 192.707 L
358.182 199.897 L
358.567 207.89 L
358.952 217.128 L
359.338 225.138 L
359.723 232.493 L
360.108 236.018 L
360.493 240.148 L
360.879 239.686 L
361.264 242.387 L
361.649 241.267 L
362.035 242.387 L
362.42 242.387 L
362.805 242.387 L
363.19 242.387 L
363.576 242.387 L
363.961 242.387 L
364.346 242.387 L
364.732 242.387 L
365.117 242.387 L
365.502 242.387 L
365.887 241.267 L
366.273 241.267 L
366.658 240.508 L
367.043 236.018 L
367.429 231.506 L
367.814 223.474 L
368.199 216.111 L
368.584 208.929 L
368.97 200.716 L
369.355 193.535 L
369.74 192.707 L
370.126 189.019 L
370.511 184.503 L
370.896 180.806 L
371.281 177.102 L
371.667 168.074 L
372.052 165.61 L
372.437 162.745 L
372.823 162.745 L
373.208 162.745 L
373.593 165.411 L
373.978 169.29 L
374.364 173.624 L
374.749 180.158 L
375.134 183.821 L
375.519 192.918 L
375.905 204.173 L
376.29 213.585 L
376.675 226.659 L
377.061 236.749 L
377.446 240.508 L
377.831 241.267 L
378.216 242.387 L
378.602 242.387 L
378.987 242.387 L
379.372 242.387 L
379.758 242.387 L
380.143 242.387 L
380.528 241.267 L
380.913 237.871 L
381.299 228.884 L
381.684 216.274 L
382.069 203.693 L
382.455 194.852 L
382.84 185.066 L
383.225 175.402 L
383.61 173.806 L
383.996 182.092 L
384.381 193.035 L
384.766 206.153 L
385.152 209.594 L
385.537 212.655 L
385.922 212.924 L
386.307 203.693 L
386.693 194.479 L
387.078 185.332 L
387.463 174.73 L
387.848 171.494 L
388.234 165.298 L
388.619 167.213 L
389.004 165.857 L
389.39 164.767 L
389.775 166.646 L
390.16 169.092 L
390.545 173.846 L
390.931 178.753 L
391.316 183.228 L
391.701 187.697 L
392.087 189.189 L
392.472 189.732 L
392.857 188.554 L
393.242 182.908 L
393.628 179.476 L
394.013 183.228 L
394.398 186.249 L
394.784 190.729 L
395.169 196.352 L
395.554 204.952 L
395.939 213.445 L
396.325 216.911 L
396.71 218.961 L
397.095 211.596 L
397.48 209.073 L
397.866 204.413 L
398.251 201.74 L
398.636 200.048 L
399.022 193.8 L
399.407 185.719 L
399.792 179.34 L
400.177 175.556 L
400.563 173.002 L
400.948 171.9 L
401.333 174.116 L
401.719 175.106 L
402.104 181.161 L
402.489 186.123 L
402.874 190.768 L
403.26 193.654 L
403.645 196.352 L
404.03 200.788 L
404.416 202.446 L
404.801 205.111 L
405.186 205.204 L
405.571 205.204 L
405.957 204.915 L
406.342 206.178 L
406.727 209.242 L
407.113 210.361 L
407.498 209.6 L
407.883 209.752 L
408.268 205.916 L
408.654 198.79 L
409.039 188.813 L
409.424 186.123 L
409.81 188.073 L
410.195 195.878 L
410.58 207.59 L
410.965 216.607 L
411.351 224.4 L
411.736 230.674 L
412.121 236.986 L
412.507 240.878 L
412.892 239.686 L
413.277 240.878 L
413.662 241.267 L
414.048 242.387 L
414.433 242.387 L
414.818 242.387 L
415.203 242.387 L
415.589 242.387 L
415.974 242.387 L
416.359 242.387 L
416.745 242.387 L
417.13 242.387 L
417.515 242.387 L
417.9 242.387 L
418.286 242.387 L
418.671 242.387 L
419.056 242.387 L
419.442 242.387 L
419.827 242.387 L
420.212 242.387 L
420.597 242.387 L
420.983 242.387 L
421.368 242.387 L
421.753 242.387 L
422.139 240.508 L
422.524 237.871 L
422.909 228.67 L
423.294 213.942 L
423.68 203.505 L
424.065 193.872 L
424.45 187.827 L
424.836 185.841 L
425.221 181.466 L
425.606 180.155 L
425.991 180.155 L
426.377 181.16 L
426.762 183.462 L
427.147 190.512 L
427.532 195.395 L
427.918 206.178 L
428.303 214.255 L
428.688 222.312 L
429.074 227.656 L
429.459 231.584 L
429.844 235.021 L
430.229 237.871 L
430.615 240.148 L
431 240.508 L
431.385 240.148 L
431.771 240.148 L
432.156 241.267 L
432.541 242.387 L
432.926 242.387 L
433.312 241.267 L
433.697 238.628 L
434.082 235.021 L
434.468 230.639 L
434.853 226.976 L
435.238 225.99 L
435.623 225.99 L
436.009 226.183 L
436.394 230.639 L
436.779 233.335 L
437.164 236.026 L
437.55 235.186 L
437.935 229.665 L
438.32 220.615 L
438.706 212.535 L
439.091 207.894 L
439.476 209.839 L
439.861 216.194 L
440.247 218.891 L
440.632 218.891 L
441.017 217.924 L
441.403 215.23 L
441.788 212.274 L
442.173 208.217 L
442.558 205.4 L
442.944 207.278 L
443.329 208.928 L
443.714 212.97 L
444.1 214.391 L
444.485 217.597 L
444.87 221.138 L
445.255 228.803 L
445.641 234.84 L
446.026 239.167 L
446.411 239.167 L
446.797 240.878 L
447.182 242.387 L
447.567 242.387 L
447.952 242.387 L
448.338 242.387 L
448.723 242.387 L
449.108 242.387 L
449.493 242.387 L
449.879 242.387 L
450.264 242.387 L
450.649 239.368 L
451.035 237.723 L
451.42 237.723 L
451.805 240.878 L
452.19 240.878 L
452.576 242.387 L
452.961 242.387 L
453.346 242.387 L
453.732 242.387 L
454.117 242.387 L
454.502 242.387 L
454.887 242.387 L
455.273 242.387 L
455.658 242.387 L
456.043 242.387 L
456.429 237.859 L
456.814 234.515 L
457.199 230.106 L
457.584 222.48 L
457.97 219.065 L
458.355 226.643 L
458.74 231.587 L
459.126 232.728 L
459.511 234.126 L
459.896 239.167 L
460.281 237.335 L
460.667 235.948 L
461.052 228.083 L
461.437 219.435 L
461.823 206.97 L
462.208 198.308 L
462.593 191.872 L
462.978 187.252 L
463.364 185.436 L
463.749 182.625 L
464.134 181.791 L
464.519 182.625 L
464.905 182.625 L
465.29 182.625 L
465.675 183.615 L
466.061 189.064 L
466.446 194.091 L
466.831 199.476 L
467.216 201.256 L
467.602 200.907 L
467.987 201.526 L
468.372 199.112 L
468.758 194.469 L
469.143 194.469 L
469.528 192.673 L
469.913 191.25 L
470.299 190.494 L
470.684 193.705 L
471.069 192.806 L
471.455 197.206 L
471.84 196.228 L
472.225 188.981 L
472.61 191.069 L
472.996 189.559 L
473.381 190.959 L
473.766 188.981 L
474.152 196.433 L
474.537 204.059 L
474.922 209.735 L
475.307 215.863 L
475.693 218.771 L
476.078 223.429 L
476.463 225.866 L
476.848 225.866 L
477.234 227.991 L
477.619 226.115 L
478.004 226.115 L
478.39 226.703 L
478.775 224.782 L
479.16 220.483 L
479.545 217.271 L
479.931 212.316 L
480.316 211.719 L
480.701 213.422 L
481.087 216.613 L
481.472 219.435 L
481.857 233.058 L
482.242 240.508 L
482.628 242.387 L
483.013 242.387 L
483.398 242.387 L
483.784 242.387 L
484.169 242.387 L
484.554 242.387 L
484.939 242.387 L
485.325 242.387 L
485.71 242.387 L
486.095 242.387 L
486.481 242.387 L
486.866 242.387 L
487.251 242.387 L
487.636 242.387 L
488.022 242.387 L
488.407 242.387 L
488.792 242.387 L
489.177 241.267 L
489.563 242.387 L
489.948 242.387 L
490.333 242.387 L
490.719 242.387 L
491.104 240.508 L
491.489 240.878 L
491.874 242.387 L
492.26 242.387 L
492.645 242.387 L
493.03 242.387 L
493.416 242.387 L
493.801 242.387 L
494.186 242.387 L
494.571 242.387 L
494.957 242.387 L
495.342 242.387 L
495.727 242.387 L
496.113 242.387 L
496.498 242.387 L
496.883 242.387 L
497.268 242.387 L
497.654 242.387 L
498.039 242.387 L
498.424 242.387 L
498.81 242.387 L
499.195 242.387 L
499.58 242.387 L
499.965 242.387 L
500.351 242.387 L
500.736 242.387 L
501.121 242.387 L
501.506 242.387 L
501.892 242.387 L
502.277 242.387 L
502.662 242.387 L
503.048 242.387 L
503.433 242.387 L
503.818 242.387 L
504.203 242.387 L
504.589 242.387 L
504.974 242.387 L
505.359 242.387 L
505.745 242.387 L
506.13 242.387 L
506.515 242.387 L
506.9 242.387 L
507.286 241.267 L
507.671 242.387 L
508.056 242.387 L
508.442 242.387 L
508.827 242.387 L
509.212 242.387 L
509.597 242.387 L
509.983 242.387 L
510.368 242.387 L
510.753 242.387 L
511.139 242.387 L
511.524 242.387 L
511.909 242.387 L
512.294 242.387 L
512.68 242.387 L
513.065 242.387 L
513.45 242.387 L
513.836 242.387 L
514.221 242.387 L
514.606 242.387 L
514.991 242.387 L
515.377 242.387 L
515.762 242.387 L
516.147 242.387 L
516.532 242.387 L
516.918 242.387 L
517.303 242.387 L
517.688 242.387 L
518.074 242.387 L
518.459 242.387 L
518.844 242.387 L
519.229 242.387 L
519.615 242.387 L
520 242.387 L
S
GR
GS
[0.74227 0 0 0.74227 0 0.36081] CT
1 GC
N
509 73 M
509 39 L
319 39 L
319 73 L
cp
f
GR
GS
[0.74227 0 0 0.74227 271.90235 36.25862] CT
/Helvetica 12.125 F
GS
[1 0 0 1 0 0] CT
0 4.5 moveto 
1 -1 scale
(Forward Velocity - IMU) t 
GR
GR
GS
[0.74227 0 0 0.74227 0 0.36081] CT
0 0.447 0.741 RC
1 LJ
2.021 LW
N
322.991 48.362 M
363.319 48.362 L
S
GR
GS
[0.74227 0 0 0.74227 271.90235 47.59703] CT
/Helvetica 12.125 F
GS
[1 0 0 1 0 0] CT
0 4.5 moveto 
1 -1 scale
(Forward Velocity - GPS) t 
GR
GR
GS
[0.74227 0 0 0.74227 0 0.36081] CT
0.851 0.325 0.098 RC
1 LJ
2.021 LW
N
322.991 63.638 M
363.319 63.638 L
S
GR
GS
[0.74227 0 0 0.74227 0 0.36081] CT
0.149 GC
1 LJ
0.674 LW
N
319 73 M
319 39 L
509 39 L
509 73 L
cp
S
GR
%%Trailer
%%Pages: 1
%%EOF
