LINEAR
Na =

       0.00269733191895491


Ka =

      4.60546171624762e-05


Ba =

        0.0014211278202873


tauParams_a =

                         1                         3                     412.5


params_a =

       0.00269733191895491      4.60546171624762e-05      0.000944030299026968


ANGULAR

Ng =

      0.000122263715111766


Kg =

      7.52367508007637e-08


Bg =

      3.15314857315567e-06


tauParams_g =

                         1                         3                  2325.175


params_g =

      0.000122263715111766      7.52367508007637e-08      2.09458132329774e-06

NOISE PARAMETERS


acc_w =

      1.10634650761223e-05


gyr_w =

      1.03391923896346e-08


