linstd =

        0.0125622794947136        0.0116115161825542        0.0170527491375191


angstd =

      0.000638712916426128      0.000756813427481811        0.0006913442777512


magstd =

      1.25464312086584e-07      3.22036802231268e-07      3.51168548538082e-07


acc_n =

        0.0170527491375191


gyr_n =

      0.000756813427481811
